SPINAL_TEST/simWorkspace/AuroraTxCore/test.vcd
$version Generated by VerilatedVcd $end
$date Wed Aug 11 14:36:24 2021
 $end
$timescale   1ns $end

 $scope module TOP $end
  $var wire 32 w" axiw_payload_data [31:0] $end
  $var wire  1 !# axiw_payload_last $end
  $var wire  1 o" axiw_ready $end
  $var wire  1 g" axiw_valid $end
  $var wire  8 Q# bram_addr [7:0] $end
  $var wire  1 A# bram_en $end
  $var wire 32 a# bram_rddata [31:0] $end
  $var wire  4 I# bram_we [3:0] $end
  $var wire 32 Y# bram_wrdata [31:0] $end
  $var wire  1 i# clk $end
  $var wire  1 q# reset $end
  $var wire 32 )# tx_head [31:0] $end
  $var wire  1 1# tx_start $end
  $var wire  1 9# tx_trigger $end
  $scope module AuroraTxCore $end
   $var wire  1 M! axi_last $end
   $var wire  1 S axi_last_1 $end
   $var wire  1 K axi_last_2 $end
   $var wire 32 ;$ axi_txdata [31:0] $end
   $var wire 32 + axi_txdata_1 [31:0] $end
   $var wire 32 # axi_txdata_2 [31:0] $end
   $var wire 32 { axi_txdata_3 [31:0] $end
   $var wire 32 s axi_txdata_4 [31:0] $end
   $var wire 32 k axi_txdata_5 [31:0] $end
   $var wire 32 c axi_txdata_6 [31:0] $end
   $var wire 32 [ axi_txdata_7 [31:0] $end
   $var wire 32 e! axi_txhead [31:0] $end
   $var wire  1 C$ axi_valid $end
   $var wire  1 %! axiw_fire $end
   $var wire  1 +$ axiw_fire_1 $end
   $var wire  1 %! axiw_fire_2 $end
   $var wire  1 %! axiw_fire_3 $end
   $var wire  1 +$ axiw_fire_4 $end
   $var wire  1 +$ axiw_fire_5 $end
   $var wire  1 +$ axiw_fire_6 $end
   $var wire  1 +$ axiw_fire_7 $end
   $var wire  1 +$ axiw_fire_8 $end
   $var wire 32 w" axiw_payload_data [31:0] $end
   $var wire  1 !# axiw_payload_last $end
   $var wire  1 o" axiw_ready $end
   $var wire  1 g" axiw_valid $end
   $var wire  8 Q# bram_addr [7:0] $end
   $var wire  1 A# bram_en $end
   $var wire 32 a# bram_rddata [31:0] $end
   $var wire  4 I# bram_we [3:0] $end
   $var wire 32 Y# bram_wrdata [31:0] $end
   $var wire  1 i# clk $end
   $var wire 32 C crc32_1_crc_o [31:0] $end
   $var wire 32 E! crc_data [31:0] $end
   $var wire  8 u! data_cnt [7:0] $end
   $var wire  8 m! length [7:0] $end
   $var wire  8 5! mem_addr [7:0] $end
   $var wire  8 ]! mem_addrtemp [7:0] $end
   $var wire 32 =! mem_data [31:0] $end
   $var wire  1 U! mem_rden $end
   $var wire  1 q# reset $end
   $var wire  3 /" stateMachine_state [2:0] $end
   $var wire 64 3 stateMachine_state_string [63:0] $end
   $var wire 32 )# tx_head [31:0] $end
   $var wire  1 1# tx_start $end
   $var wire  1 9# tx_trigger $end
   $var wire  1 7" when_Gtx_Tx_l118 $end
   $var wire  1 ?" when_Gtx_Tx_l120 $end
   $var wire  1 G" when_Gtx_Tx_l122 $end
   $var wire  1 O" when_Gtx_Tx_l124 $end
   $var wire  1 W" when_Gtx_Tx_l126 $end
   $var wire  1 _" when_Gtx_Tx_l128 $end
   $var wire  1 -! when_Gtx_Tx_l134 $end
   $var wire  1 7" when_Gtx_Tx_l140 $end
   $var wire  1 3$ when_Gtx_Tx_l142 $end
   $var wire  1 y# when_Gtx_Tx_l60 $end
   $var wire  1 #$ when_Gtx_Tx_l62 $end
   $var wire  1 }! when_Gtx_Tx_l75 $end
   $var wire  1 '" when_Gtx_Tx_l98 $end
   $scope module crc32_1 $end
    $var wire 32 E! crc_i [31:0] $end
    $var wire 32 C crc_o [31:0] $end
    $var wire 32 [ data_i [31:0] $end
   $upscope $end
  $upscope $end
 $upscope $end
$enddefinitions $end


#0
b00000000000000000000000000000000 #
b00000000000000000000000000000000 +
b0100100101000100010011000100010100100000001000000010000000100000 3
b00000101011110000011000010101000 C
0K
0S
b00000000000000000000000000000000 [
b00000000000000000000000000000000 c
b00000000000000000000000000000000 k
b00000000000000000000000000000000 s
b00000000000000000000000000000000 {
0%!
0-!
b11111111 5!
b01010101101111000110010111110001 =!
b01100010000101101001001000101101 E!
0M!
0U!
b00000000 ]!
b11011100011001100110111110010100 e!
b00100101 m!
b00111010 u!
0}!
0'"
b000 /"
07"
0?"
0G"
0O"
0W"
0_"
0g"
0o"
b00000000000000000000000000000000 w"
0!#
b00111100000111010100100011110100 )#
01#
09#
0A#
b0000 I#
b11111111 Q#
b00000000000000000000000000000000 Y#
b00010011101010010100010000101011 a#
0i#
1q#
0y#
0#$
0+$
03$
b00000000000000000000000000000000 ;$
0C$
#160
0q#
#170
b00111100000111010100100011110100 e!
1i#
#175
0i#
#180
1i#
#185
0i#
#190
1i#
#195
0i#
#200
1i#
#205
0i#
#210
1i#
#215
0i#
#220
1i#
#225
0i#
#230
1i#
#235
0i#
#240
1i#
#245
0i#
#250
1i#
#255
0i#
#260
1o"
b00000000000000000000000000000010 )#
11#
1i#
1y#
#265
0i#
#270
b00000000000000001111111110111100 #
b00000000000000001111111110111100 +
b0101001101010100010000010101001001010100001000000010000000100000 3
b11000011111101010000001001111011 C
b00000000000000001111111110111100 [
b00000000000000001111111110111100 c
b00000000000000001111111110111100 k
b00000000000000001111111110111100 s
b00000000000000001111111110111100 {
1%!
b00000000 5!
b00000000000000000000000000000010 e!
1}!
b010 /"
17"
1g"
b00000000000000001111111110111100 w"
b00000000 Q#
1i#
1+$
#275
0i#
#280
b00000000000000000000000000000001 #
b00000000000000000000000000000000 +
b0100010001000101010101100100100101000011010001010100100101000100 3
b11000011110001011100000011001100 C
b00000000000000000000000000000001 [
b00000000000000000000000000000001 c
b00000000000000000000000000000001 k
b00000000000000000000000000000001 s
b00000000000000000000000000000001 {
b00000001 5!
b11111111111111111111111111111111 E!
1U!
b00000001 ]!
b00000010 m!
b011 /"
07"
1?"
b00000000000000000000000000000001 w"
01#
1A#
b00000001 Q#
1i#
0y#
13$
#285
0i#
#290
b00000000000000000000000000000000 #
b0100110001000101010011100100011101010100010010000010000000100000 3
b00101001100010111110011110111010 C
b00000000000000000000000000000010 [
b00000000000000000000000000000010 c
b00000000000000000000000000000010 k
b00000000000000000000000000000010 s
b00000000000000000000000000000010 {
0%!
b00000000 5!
b00000000000000000000000000000010 =!
b11000011110001011100000011001100 E!
b100 /"
0?"
1G"
0g"
0o"
b00000000000000000000000000000010 w"
b00000000 Q#
1i#
0+$
03$
#295
0i#
#300
b00000000000000000000000000000001 =!
1i#
#305
0i#
#310
1%!
b00000001 5!
1g"
1o"
b00000001 Q#
1i#
1+$
13$
#315
0i#
#320
b0100010001000001010101000100000100100000001000000010000000100000 3
b01100000000001000000101000110011 C
b00000000000000000000000000000000 {
b00000010 5!
b00000000000000000000000000000010 =!
b00101001100010111110011110111010 E!
b00000010 ]!
b00000000 u!
1'"
b101 /"
0G"
1O"
b00000010 Q#
1i#
#325
0i#
#330
b11000010000100001101010001110101 C
b00000000000000000000000000000011 [
b00000000000000000000000000000011 c
b00000000000000000000000000000011 k
b00000000000000000000000000000011 s
b00000011 5!
b00000000000000000000000000000011 =!
b01100000000001000000101000110011 E!
b00000011 ]!
b00000001 u!
0'"
b00000000000000000000000000000011 w"
b00000011 Q#
1i#
#335
0i#
#340
b0100001101010010010000110010000000100000001000000010000000100000 3
b00000000000000000000000000000000 C
b11000010000100001101010001110101 [
b11000010000100001101010001110101 c
b11000010000100001101010001110101 k
b00000000000000000000000000000000 s
b00000000000000000000000000000100 =!
b11000010000100001101010001110101 E!
b00000010 u!
b110 /"
0O"
1W"
b11000010000100001101010001110101 w"
1i#
03$
#345
0i#
#350
b0101001101010100010011110101000000100000001000000010000000100000 3
b01110001001001100000011111010000 C
b00000000000000001111111110111100 [
b00000000000000001111111110111100 c
b00000000000000000000000000000000 k
0%!
b00000010 5!
b111 /"
0W"
1_"
0g"
0o"
b00000000000000001111111110111100 w"
b00000010 Q#
1i#
0+$
#355
0i#
#360
1K
1S
1%!
1-!
b00000011 5!
b00000000000000000000000000000011 =!
1g"
1o"
1!#
b00000011 Q#
1i#
1+$
#365
0i#
#370
b0100100101000100010011000100010100100000001000000010000000100000 3
b10110111101010110011010100000011 C
0K
0S
b00000000000000000000000000000000 [
b00000000000000000000000000000000 c
0%!
0-!
b00000010 5!
b00000000000000000000000000000100 =!
b000 /"
0_"
0g"
b00000000000000000000000000000000 w"
0!#
b00000010 Q#
1i#
0+$
#375
0i#
#380
b00000000000000000000000000000011 =!
1i#
#385
0i#
#390
0o"
1i#
#395
0i#
#400
1i#
#405
0i#
#410
1i#
#415
0i#
#420
1o"
1i#
#425
0i#
#430
1i#
#435
0i#
#440
0o"
1i#
#445
0i#
#450
1o"
1i#
#455
0i#
#460
0o"
1i#
#465
0i#
#470
1i#
#475
0i#
#480
1o"
1i#
#485
0i#
#490
0o"
1i#
#495
0i#
#500
1o"
1i#
#505
0i#
#510
1i#
#515
0i#
#520
1i#
#525
0i#
#530
1i#
#535
0i#
#540
0o"
1i#
#545
0i#
#550
1o"
1i#
#555
0i#
#560
1i#
#565
0i#
#570
0o"
1i#
#575
0i#
#580
1o"
1i#
#585
0i#
#590
1i#
#595
0i#
#600
0o"
1i#
#605
0i#
#610
1o"
1i#
#615
0i#
#620
1i#
#625
0i#
#630
0o"
1i#
#635
0i#
#640
1o"
1i#
#645
0i#
#650
1i#
#655
0i#
#660
1i#
#665
0i#
#670
0o"
1i#
#675
0i#
#680
1o"
1i#
#685
0i#
#690
0o"
1i#
#695
0i#
#700
1i#
#705
0i#
#710
1i#
#715
0i#
#720
1i#
#725
0i#
#730
1i#
#735
0i#
#740
1o"
1i#
#745
0i#
#750
1i#
#755
0i#
#760
1i#
#765
0i#
#770
11#
1i#
1y#
#775
0i#
#780
b00000000000000001111111110111100 #
b00000000000000001111111110111100 +
b0101001101010100010000010101001001010100001000000010000000100000 3
b01110001001001100000011111010000 C
b00000000000000001111111110111100 [
b00000000000000001111111110111100 c
b00000000000000001111111110111100 k
b00000000000000001111111110111100 s
b00000000000000001111111110111100 {
1%!
b00000011 5!
b010 /"
17"
1g"
b00000000000000001111111110111100 w"
b00000011 Q#
1i#
1+$
#785
0i#
#790
b00000000000000000000000000000001 #
b00000000000000000000000000000000 +
b0100010001000101010101100100100101000011010001010100100101000100 3
b11000011110001011100000011001100 C
b00000000000000000000000000000001 [
b00000000000000000000000000000001 c
b00000000000000000000000000000001 k
b00000000000000000000000000000001 s
b00000000000000000000000000000001 {
0%!
b00000000 5!
b00000000000000000000000000000100 =!
b11111111111111111111111111111111 E!
b00000001 ]!
b011 /"
07"
1?"
0g"
0o"
b00000000000000000000000000000001 w"
01#
b00000000 Q#
1i#
0y#
0+$
#795
0i#
#800
b00000000000000000000000000000001 =!
1i#
#805
0i#
#810
1i#
#815
0i#
#820
1i#
#825
0i#
#830
1%!
b00000001 5!
1g"
1o"
b00000001 Q#
1i#
1+$
13$
#835
0i#
#840
b00000000000000000000000000000000 #
b0100110001000101010011100100011101010100010010000010000000100000 3
b00101001100010111110011110111010 C
b00000000000000000000000000000010 [
b00000000000000000000000000000010 c
b00000000000000000000000000000010 k
b00000000000000000000000000000010 s
b00000000000000000000000000000010 {
b00000000000000000000000000000010 =!
b11000011110001011100000011001100 E!
b100 /"
0?"
1G"
b00000000000000000000000000000010 w"
1i#
#845
0i#
#850
b0100010001000001010101000100000100100000001000000010000000100000 3
b01100000000001000000101000110011 C
b00000000000000000000000000000000 {
b00000010 5!
b00101001100010111110011110111010 E!
b00000010 ]!
b00000000 u!
1'"
b101 /"
0G"
1O"
b00000010 Q#
1i#
#855
0i#
#860
b11000010000100001101010001110101 C
b00000000000000000000000000000011 [
b00000000000000000000000000000011 c
b00000000000000000000000000000011 k
b00000000000000000000000000000011 s
b00000011 5!
b00000000000000000000000000000011 =!
b01100000000001000000101000110011 E!
b00000011 ]!
b00000001 u!
0'"
b00000000000000000000000000000011 w"
b00000011 Q#
1i#
#865
0i#
#870
b0100001101010010010000110010000000100000001000000010000000100000 3
b00000000000000000000000000000000 C
b11000010000100001101010001110101 [
b11000010000100001101010001110101 c
b11000010000100001101010001110101 k
b00000000000000000000000000000000 s
b00000000000000000000000000000100 =!
b11000010000100001101010001110101 E!
b00000010 u!
b110 /"
0O"
1W"
b11000010000100001101010001110101 w"
1i#
03$
#875
0i#
#880
b0101001101010100010011110101000000100000001000000010000000100000 3
b01110001001001100000011111010000 C
b00000000000000001111111110111100 [
b00000000000000001111111110111100 c
b00000000000000000000000000000000 k
0%!
b00000010 5!
b111 /"
0W"
1_"
0g"
0o"
b00000000000000001111111110111100 w"
b00000010 Q#
1i#
0+$
#885
0i#
#890
b00000000000000000000000000000011 =!
1i#
#895
0i#
#900
1i#
#905
0i#
#910
1K
1S
1%!
1-!
b00000011 5!
1g"
1o"
1!#
b00000011 Q#
1i#
1+$
#915
0i#
#920
b0100100101000100010011000100010100100000001000000010000000100000 3
b10110111101010110011010100000011 C
0K
0S
b00000000000000000000000000000000 [
b00000000000000000000000000000000 c
0%!
0-!
b00000010 5!
b00000000000000000000000000000100 =!
b000 /"
0_"
0g"
b00000000000000000000000000000000 w"
0!#
b00000010 Q#
1i#
0+$
#925
0i#
#930
b00000000000000000000000000000011 =!
0o"
1i#
#935
0i#
#940
1o"
1i#
#945
0i#
#950
1i#
#955
0i#
#960
1i#
#965
0i#
#970
0o"
1i#
#975
0i#
#980
1i#
#985
0i#
#990
1o"
1i#
#995
0i#
#1000
1i#
#1005
0i#
#1010
1i#
#1015
0i#
#1020
1i#
#1025
0i#
#1030
1i#
#1035
0i#
#1040
1i#
#1045
0i#
#1050
1i#
#1055
0i#
#1060
1i#
#1065
0i#
#1070
0o"
1i#
#1075
0i#
#1080
1i#
#1085
0i#
#1090
1o"
1i#
#1095
0i#
#1100
1i#
#1105
0i#
#1110
0o"
1i#
#1115
0i#
#1120
1i#
#1125
0i#
#1130
1i#
#1135
0i#
#1140
1i#
#1145
0i#
#1150
1i#
#1155
0i#
#1160
1i#
#1165
0i#
#1170
1o"
1i#
#1175
0i#
#1180
0o"
1i#
#1185
0i#
#1190
1i#
#1195
0i#
#1200
1o"
1i#
#1205
0i#
#1210
1i#
#1215
0i#
#1220
0o"
1i#
#1225
0i#
#1230
1i#
#1235
0i#
#1240
1o"
1i#
#1245
0i#
#1250
1i#
#1255
0i#
#1260
1i#
#1265
0i#
#1270
0o"
1i#
#1275
0i#
#1280
1o"
11#
1i#
1y#
#1285
0i#
#1290
b00000000000000001111111110111100 #
b00000000000000001111111110111100 +
b0101001101010100010000010101001001010100001000000010000000100000 3
b01110001001001100000011111010000 C
b00000000000000001111111110111100 [
b00000000000000001111111110111100 c
b00000000000000001111111110111100 k
b00000000000000001111111110111100 s
b00000000000000001111111110111100 {
1%!
b00000011 5!
b010 /"
17"
1g"
b00000000000000001111111110111100 w"
b00000011 Q#
1i#
1+$
#1295
0i#
#1300
b00000000000000000000000000000001 #
b00000000000000000000000000000000 +
b0100010001000101010101100100100101000011010001010100100101000100 3
b11000011110001011100000011001100 C
b00000000000000000000000000000001 [
b00000000000000000000000000000001 c
b00000000000000000000000000000001 k
b00000000000000000000000000000001 s
b00000000000000000000000000000001 {
0%!
b00000000 5!
b00000000000000000000000000000100 =!
b11111111111111111111111111111111 E!
b00000001 ]!
b011 /"
07"
1?"
0g"
0o"
b00000000000000000000000000000001 w"
01#
b00000000 Q#
1i#
0y#
0+$
#1305
0i#
#1310
1%!
b00000001 5!
b00000000000000000000000000000001 =!
1g"
1o"
b00000001 Q#
1i#
1+$
13$
#1315
0i#
#1320
b00000000000000000000000000000000 #
b0100110001000101010011100100011101010100010010000010000000100000 3
b00101001100010111110011110111010 C
b00000000000000000000000000000010 [
b00000000000000000000000000000010 c
b00000000000000000000000000000010 k
b00000000000000000000000000000010 s
b00000000000000000000000000000010 {
b00000000000000000000000000000010 =!
b11000011110001011100000011001100 E!
b100 /"
0?"
1G"
b00000000000000000000000000000010 w"
1i#
#1325
0i#
#1330
b0100010001000001010101000100000100100000001000000010000000100000 3
b01100000000001000000101000110011 C
b00000000000000000000000000000000 {
0%!
b00101001100010111110011110111010 E!
b00000010 ]!
b00000000 u!
1'"
b101 /"
0G"
1O"
0g"
0o"
1i#
0+$
03$
#1335
0i#
#1340
1i#
#1345
0i#
#1350
1%!
b00000010 5!
1g"
1o"
b00000010 Q#
1i#
1+$
13$
#1355
0i#
#1360
b11000010000100001101010001110101 C
b00000000000000000000000000000011 [
b00000000000000000000000000000011 c
b00000000000000000000000000000011 k
b00000000000000000000000000000011 s
b00000011 5!
b00000000000000000000000000000011 =!
b01100000000001000000101000110011 E!
b00000011 ]!
b00000001 u!
0'"
b00000000000000000000000000000011 w"
b00000011 Q#
1i#
#1365
0i#
#1370
b0100001101010010010000110010000000100000001000000010000000100000 3
b00000000000000000000000000000000 C
b11000010000100001101010001110101 [
b11000010000100001101010001110101 c
b11000010000100001101010001110101 k
b00000000000000000000000000000000 s
0%!
b00000010 5!
b00000000000000000000000000000100 =!
b11000010000100001101010001110101 E!
b00000010 u!
b110 /"
0O"
1W"
0g"
0o"
b11000010000100001101010001110101 w"
b00000010 Q#
1i#
0+$
03$
#1375
0i#
#1380
1%!
b00000011 5!
b00000000000000000000000000000011 =!
1g"
1o"
b00000011 Q#
1i#
1+$
#1385
0i#
#1390
b0101001101010100010011110101000000100000001000000010000000100000 3
b01110001001001100000011111010000 C
1K
1S
b00000000000000001111111110111100 [
b00000000000000001111111110111100 c
b00000000000000000000000000000000 k
1-!
b00000000000000000000000000000100 =!
b111 /"
0W"
1_"
b00000000000000001111111110111100 w"
1!#
1i#
#1395
0i#
#1400
b0100100101000100010011000100010100100000001000000010000000100000 3
b10110111101010110011010100000011 C
0K
0S
b00000000000000000000000000000000 [
b00000000000000000000000000000000 c
0%!
0-!
b00000010 5!
b000 /"
0_"
0g"
b00000000000000000000000000000000 w"
0!#
b00000010 Q#
1i#
0+$
#1405
0i#
#1410
b00000000000000000000000000000011 =!
1i#
#1415
0i#
#1420
0o"
1i#
#1425
0i#
#1430
1o"
1i#
#1435
0i#
#1440
0o"
1i#
#1445
0i#
#1450
1i#
#1455
0i#
#1460
1i#
#1465
0i#
#1470
1i#
#1475
0i#
#1480
1o"
1i#
#1485
0i#
#1490
1i#
#1495
0i#
#1500
0o"
1i#
#1505
0i#
#1510
1i#
#1515
0i#
#1520
1o"
1i#
#1525
0i#
#1530
1i#
#1535
0i#
#1540
0o"
1i#
#1545
0i#
#1550
1i#
#1555
0i#
#1560
1i#
#1565
0i#
#1570
1i#
#1575
0i#
#1580
1o"
1i#
#1585
0i#
#1590
1i#
#1595
0i#
#1600
0o"
1i#
#1605
0i#
#1610
1o"
1i#
#1615
0i#
#1620
0o"
1i#
#1625
0i#
#1630
1i#
#1635
0i#
#1640
1o"
1i#
#1645
0i#
#1650
1i#
#1655
0i#
#1660
1i#
#1665
0i#
#1670
0o"
1i#
#1675
0i#
#1680
1i#
#1685
0i#
#1690
1o"
1i#
#1695
0i#
#1700
1i#
#1705
0i#
#1710
0o"
1i#
#1715
0i#
#1720
1i#
#1725
0i#
#1730
1i#
#1735
0i#
#1740
1i#
#1745
0i#
#1750
1o"
1i#
#1755
0i#
#1760
1i#
#1765
0i#
#1770
1i#
#1775
0i#
#1780
1i#
#1785
0i#
#1790
11#
1i#
1y#
#1795
0i#
#1800
b00000000000000001111111110111100 #
b00000000000000001111111110111100 +
b0101001101010100010000010101001001010100001000000010000000100000 3
b01110001001001100000011111010000 C
b00000000000000001111111110111100 [
b00000000000000001111111110111100 c
b00000000000000001111111110111100 k
b00000000000000001111111110111100 s
b00000000000000001111111110111100 {
1%!
b00000011 5!
b010 /"
17"
1g"
b00000000000000001111111110111100 w"
b00000011 Q#
1i#
1+$
#1805
0i#
#1810
b00000000000000000000000000000001 #
b00000000000000000000000000000000 +
b0100010001000101010101100100100101000011010001010100100101000100 3
b11000011110001011100000011001100 C
b00000000000000000000000000000001 [
b00000000000000000000000000000001 c
b00000000000000000000000000000001 k
b00000000000000000000000000000001 s
b00000000000000000000000000000001 {
0%!
b00000000 5!
b00000000000000000000000000000100 =!
b11111111111111111111111111111111 E!
b00000001 ]!
b011 /"
07"
1?"
0g"
0o"
b00000000000000000000000000000001 w"
01#
b00000000 Q#
1i#
0y#
0+$
#1815
0i#
#1820
1%!
b00000001 5!
b00000000000000000000000000000001 =!
1g"
1o"
b00000001 Q#
1i#
1+$
13$
#1825
0i#
#1830
b00000000000000000000000000000000 #
b0100110001000101010011100100011101010100010010000010000000100000 3
b00101001100010111110011110111010 C
b00000000000000000000000000000010 [
b00000000000000000000000000000010 c
b00000000000000000000000000000010 k
b00000000000000000000000000000010 s
b00000000000000000000000000000010 {
b00000000000000000000000000000010 =!
b11000011110001011100000011001100 E!
b100 /"
0?"
1G"
b00000000000000000000000000000010 w"
1i#
#1835
0i#
#1840
b0100010001000001010101000100000100100000001000000010000000100000 3
b01100000000001000000101000110011 C
b00000000000000000000000000000000 {
0%!
b00101001100010111110011110111010 E!
b00000010 ]!
b00000000 u!
1'"
b101 /"
0G"
1O"
0g"
0o"
1i#
0+$
03$
#1845
0i#
#1850
1%!
b00000010 5!
1g"
1o"
b00000010 Q#
1i#
1+$
13$
#1855
0i#
#1860
b11000010000100001101010001110101 C
b00000000000000000000000000000011 [
b00000000000000000000000000000011 c
b00000000000000000000000000000011 k
b00000000000000000000000000000011 s
0%!
b00000000000000000000000000000011 =!
b01100000000001000000101000110011 E!
b00000011 ]!
b00000001 u!
0'"
0g"
0o"
b00000000000000000000000000000011 w"
1i#
0+$
03$
#1865
0i#
#1870
1%!
b00000011 5!
1g"
1o"
b00000011 Q#
1i#
1+$
13$
#1875
0i#
#1880
b0100001101010010010000110010000000100000001000000010000000100000 3
b00000000000000000000000000000000 C
b11000010000100001101010001110101 [
b11000010000100001101010001110101 c
b11000010000100001101010001110101 k
b00000000000000000000000000000000 s
0%!
b00000010 5!
b00000000000000000000000000000100 =!
b11000010000100001101010001110101 E!
b00000010 u!
b110 /"
0O"
1W"
0g"
0o"
b11000010000100001101010001110101 w"
b00000010 Q#
1i#
0+$
03$
#1885
0i#
#1890
1%!
b00000011 5!
b00000000000000000000000000000011 =!
1g"
1o"
b00000011 Q#
1i#
1+$
#1895
0i#
#1900
b0101001101010100010011110101000000100000001000000010000000100000 3
b01110001001001100000011111010000 C
b00000000000000001111111110111100 [
b00000000000000001111111110111100 c
b00000000000000000000000000000000 k
0%!
b00000010 5!
b00000000000000000000000000000100 =!
b111 /"
0W"
1_"
0g"
0o"
b00000000000000001111111110111100 w"
b00000010 Q#
1i#
0+$
#1905
0i#
#1910
b00000000000000000000000000000011 =!
1i#
#1915
0i#
#1920
1K
1S
1%!
1-!
b00000011 5!
1g"
1o"
1!#
b00000011 Q#
1i#
1+$
#1925
0i#
#1930
b0100100101000100010011000100010100100000001000000010000000100000 3
b10110111101010110011010100000011 C
0K
0S
b00000000000000000000000000000000 [
b00000000000000000000000000000000 c
0%!
0-!
b00000010 5!
b00000000000000000000000000000100 =!
b000 /"
0_"
0g"
b00000000000000000000000000000000 w"
0!#
b00000010 Q#
1i#
0+$
#1935
0i#
#1940
b00000000000000000000000000000011 =!
1i#
#1945
0i#
#1950
0o"
1i#
#1955
0i#
#1960
1i#
#1965
0i#
#1970
1o"
1i#
#1975
0i#
#1980
1i#
#1985
0i#
#1990
0o"
1i#
#1995
0i#
#2000
1i#
#2005
0i#
#2010
1o"
1i#
#2015
0i#
#2020
0o"
1i#
#2025
0i#
#2030
1o"
1i#
#2035
0i#
#2040
1i#
#2045
0i#
#2050
1i#
#2055
0i#
#2060
0o"
1i#
#2065
0i#
#2070
1i#
#2075
0i#
#2080
1o"
1i#
#2085
0i#
#2090
1i#
#2095
0i#
#2100
1i#
#2105
0i#
#2110
1i#
#2115
0i#
#2120
0o"
1i#
#2125
0i#
#2130
1i#
#2135
0i#
#2140
1i#
#2145
0i#
#2150
1o"
1i#
#2155
0i#
#2160
1i#
#2165
0i#
#2170
1i#
#2175
0i#
#2180
0o"
1i#
#2185
0i#
#2190
1i#
#2195
0i#
#2200
1i#
#2205
0i#
#2210
1i#
#2215
0i#
#2220
1o"
1i#
#2225
0i#
#2230
1i#
#2235
0i#
#2240
1i#
#2245
0i#
#2250
0o"
1i#
#2255
0i#
#2260
1i#
#2265
0i#
#2270
1i#
#2275
0i#
#2280
1o"
1i#
#2285
0i#
#2290
0o"
1i#
#2295
0i#
#2300
1o"
11#
1i#
1y#
#2305
0i#
#2310
b00000000000000001111111110111100 #
b00000000000000001111111110111100 +
b0101001101010100010000010101001001010100001000000010000000100000 3
b01110001001001100000011111010000 C
b00000000000000001111111110111100 [
b00000000000000001111111110111100 c
b00000000000000001111111110111100 k
b00000000000000001111111110111100 s
b00000000000000001111111110111100 {
1%!
b00000011 5!
b010 /"
17"
1g"
b00000000000000001111111110111100 w"
b00000011 Q#
1i#
1+$
#2315
0i#
#2320
b00000000000000000000000000000001 #
b00000000000000000000000000000000 +
b0100010001000101010101100100100101000011010001010100100101000100 3
b11000011110001011100000011001100 C
b00000000000000000000000000000001 [
b00000000000000000000000000000001 c
b00000000000000000000000000000001 k
b00000000000000000000000000000001 s
b00000000000000000000000000000001 {
b00000001 5!
b00000000000000000000000000000100 =!
b11111111111111111111111111111111 E!
b00000001 ]!
b011 /"
07"
1?"
b00000000000000000000000000000001 w"
01#
b00000001 Q#
1i#
0y#
13$
#2325
0i#
#2330
b00000000000000000000000000000000 #
b0100110001000101010011100100011101010100010010000010000000100000 3
b00101001100010111110011110111010 C
b00000000000000000000000000000010 [
b00000000000000000000000000000010 c
b00000000000000000000000000000010 k
b00000000000000000000000000000010 s
b00000000000000000000000000000010 {
b00000000000000000000000000000010 =!
b11000011110001011100000011001100 E!
b100 /"
0?"
1G"
b00000000000000000000000000000010 w"
1i#
#2335
0i#
#2340
b0100010001000001010101000100000100100000001000000010000000100000 3
b01100000000001000000101000110011 C
b00000000000000000000000000000000 {
b00000010 5!
b00101001100010111110011110111010 E!
b00000010 ]!
b00000000 u!
1'"
b101 /"
0G"
1O"
b00000010 Q#
1i#
#2345
0i#
#2350
b11000010000100001101010001110101 C
b00000000000000000000000000000011 [
b00000000000000000000000000000011 c
b00000000000000000000000000000011 k
b00000000000000000000000000000011 s
0%!
b00000000000000000000000000000011 =!
b01100000000001000000101000110011 E!
b00000011 ]!
b00000001 u!
0'"
0g"
0o"
b00000000000000000000000000000011 w"
1i#
0+$
03$
#2355
0i#
#2360
1i#
#2365
0i#
#2370
1i#
#2375
0i#
#2380
1i#
#2385
0i#
#2390
1%!
b00000011 5!
1g"
1o"
b00000011 Q#
1i#
1+$
13$
#2395
0i#
#2400
b0100001101010010010000110010000000100000001000000010000000100000 3
b00000000000000000000000000000000 C
b11000010000100001101010001110101 [
b11000010000100001101010001110101 c
b11000010000100001101010001110101 k
b00000000000000000000000000000000 s
0%!
b00000010 5!
b00000000000000000000000000000100 =!
b11000010000100001101010001110101 E!
b00000010 u!
b110 /"
0O"
1W"
0g"
0o"
b11000010000100001101010001110101 w"
b00000010 Q#
1i#
0+$
03$
#2405
0i#
#2410
1%!
b00000011 5!
b00000000000000000000000000000011 =!
1g"
1o"
b00000011 Q#
1i#
1+$
#2415
0i#
#2420
b0101001101010100010011110101000000100000001000000010000000100000 3
b01110001001001100000011111010000 C
b00000000000000001111111110111100 [
b00000000000000001111111110111100 c
b00000000000000000000000000000000 k
0%!
b00000010 5!
b00000000000000000000000000000100 =!
b111 /"
0W"
1_"
0g"
0o"
b00000000000000001111111110111100 w"
b00000010 Q#
1i#
0+$
#2425
0i#
#2430
1K
1S
1%!
1-!
b00000011 5!
b00000000000000000000000000000011 =!
1g"
1o"
1!#
b00000011 Q#
1i#
1+$
#2435
0i#
#2440
b0100100101000100010011000100010100100000001000000010000000100000 3
b10110111101010110011010100000011 C
0K
0S
b00000000000000000000000000000000 [
b00000000000000000000000000000000 c
0%!
0-!
b00000010 5!
b00000000000000000000000000000100 =!
b000 /"
0_"
0g"
b00000000000000000000000000000000 w"
0!#
b00000010 Q#
1i#
0+$
#2445
0i#
#2450
b00000000000000000000000000000011 =!
0o"
1i#
#2455
0i#
#2460
1o"
1i#
#2465
0i#
#2470
1i#
#2475
0i#
#2480
0o"
1i#
#2485
0i#
#2490
1i#
#2495
0i#
#2500
1i#
#2505
0i#
#2510
1o"
1i#
#2515
0i#
#2520
0o"
1i#
#2525
0i#
#2530
1o"
1i#
#2535
0i#
#2540
1i#
#2545
0i#
#2550
0o"
1i#
#2555
0i#
#2560
1i#
#2565
0i#
#2570
1i#
#2575
0i#
#2580
1o"
1i#
#2585
0i#
#2590
1i#
#2595
0i#
#2600
0o"
1i#
#2605
0i#
#2610
1o"
1i#
#2615
0i#
#2620
0o"
1i#
#2625
0i#
#2630
1i#
#2635
0i#
#2640
1o"
1i#
#2645
0i#
#2650
0o"
1i#
#2655
0i#
#2660
1o"
1i#
#2665
0i#
#2670
1i#
#2675
0i#
#2680
1i#
#2685
0i#
#2690
0o"
1i#
#2695
0i#
#2700
1i#
#2705
0i#
#2710
1o"
1i#
#2715
0i#
#2720
0o"
1i#
#2725
0i#
#2730
1i#
#2735
0i#
#2740
1i#
#2745
0i#
#2750
1o"
1i#
#2755
0i#
#2760
0o"
1i#
#2765
0i#
#2770
1i#
#2775
0i#
#2780
1i#
#2785
0i#
#2790
1o"
1i#
#2795
0i#
#2800
0o"
1i#
#2805
0i#
#2810
1o"
11#
1i#
1y#
#2815
0i#
