SPINAL_TEST/simWorkspace/AuroraTxCore/test.vcd
$version Generated by VerilatedVcd $end
$date Thu Aug 12 10:29:59 2021
 $end
$timescale   1ns $end

 $scope module TOP $end
  $var wire  1 g" aurora_userclk $end
  $var wire 32 )# axiw_payload_data [31:0] $end
  $var wire  1 1# axiw_payload_last $end
  $var wire  1 !# axiw_ready $end
  $var wire  1 w" axiw_valid $end
  $var wire  8 a# bram_addr [7:0] $end
  $var wire  1 y# bram_clkout $end
  $var wire  1 Q# bram_en $end
  $var wire 32 q# bram_rddata [31:0] $end
  $var wire  1 #$ bram_resetout $end
  $var wire  4 Y# bram_we [3:0] $end
  $var wire 32 i# bram_wrdata [31:0] $end
  $var wire  1 o" reset $end
  $var wire 32 9# tx_head [31:0] $end
  $var wire  1 A# tx_start $end
  $var wire  1 I# tx_trigger $end
  $scope module AuroraTxCore $end
   $var wire  1 M! auroraTxArea_axi_last $end
   $var wire  1 3 auroraTxArea_axi_last_1 $end
   $var wire  1 + auroraTxArea_axi_last_2 $end
   $var wire 32 K$ auroraTxArea_axi_txdata [31:0] $end
   $var wire 32 %! auroraTxArea_axi_txdata_1 [31:0] $end
   $var wire 32 { auroraTxArea_axi_txdata_2 [31:0] $end
   $var wire 32 [ auroraTxArea_axi_txdata_3 [31:0] $end
   $var wire 32 S auroraTxArea_axi_txdata_4 [31:0] $end
   $var wire 32 K auroraTxArea_axi_txdata_5 [31:0] $end
   $var wire 32 C auroraTxArea_axi_txdata_6 [31:0] $end
   $var wire 32 ; auroraTxArea_axi_txdata_7 [31:0] $end
   $var wire 32 e! auroraTxArea_axi_txhead [31:0] $end
   $var wire 32 E! auroraTxArea_crc_data [31:0] $end
   $var wire  8 u! auroraTxArea_data_cnt [7:0] $end
   $var wire  8 m! auroraTxArea_length [7:0] $end
   $var wire  8 s auroraTxArea_mem_addr [7:0] $end
   $var wire  8 ]! auroraTxArea_mem_addrtemp [7:0] $end
   $var wire 32 =! auroraTxArea_mem_data [31:0] $end
   $var wire  1 U! auroraTxArea_mem_rden $end
   $var wire  3 /" auroraTxArea_stateMachine_state [2:0] $end
   $var wire 64 -! auroraTxArea_stateMachine_state_string [63:0] $end
   $var wire  1 g" aurora_userclk $end
   $var wire  1 c axiw_fire $end
   $var wire  1 ;$ axiw_fire_1 $end
   $var wire  1 c axiw_fire_2 $end
   $var wire  1 c axiw_fire_3 $end
   $var wire  1 ;$ axiw_fire_4 $end
   $var wire  1 ;$ axiw_fire_5 $end
   $var wire  1 ;$ axiw_fire_6 $end
   $var wire  1 ;$ axiw_fire_7 $end
   $var wire  1 ;$ axiw_fire_8 $end
   $var wire 32 )# axiw_payload_data [31:0] $end
   $var wire  1 1# axiw_payload_last $end
   $var wire  1 !# axiw_ready $end
   $var wire  1 w" axiw_valid $end
   $var wire  8 a# bram_addr [7:0] $end
   $var wire  1 y# bram_clkout $end
   $var wire  1 Q# bram_en $end
   $var wire 32 q# bram_rddata [31:0] $end
   $var wire  1 #$ bram_resetout $end
   $var wire  4 Y# bram_we [3:0] $end
   $var wire 32 i# bram_wrdata [31:0] $end
   $var wire 32 # crc32_1_crc_o [31:0] $end
   $var wire  1 o" reset $end
   $var wire 32 9# tx_head [31:0] $end
   $var wire  1 A# tx_start $end
   $var wire  1 I# tx_trigger $end
   $var wire  1 '" when_Gtx_Tx_l104 $end
   $var wire  1 7" when_Gtx_Tx_l124 $end
   $var wire  1 ?" when_Gtx_Tx_l126 $end
   $var wire  1 G" when_Gtx_Tx_l128 $end
   $var wire  1 O" when_Gtx_Tx_l130 $end
   $var wire  1 W" when_Gtx_Tx_l132 $end
   $var wire  1 _" when_Gtx_Tx_l134 $end
   $var wire  1 k when_Gtx_Tx_l140 $end
   $var wire  1 7" when_Gtx_Tx_l146 $end
   $var wire  1 C$ when_Gtx_Tx_l148 $end
   $var wire  1 +$ when_Gtx_Tx_l66 $end
   $var wire  1 3$ when_Gtx_Tx_l68 $end
   $var wire  1 }! when_Gtx_Tx_l81 $end
   $scope module crc32_1 $end
    $var wire 32 E! crc_i [31:0] $end
    $var wire 32 # crc_o [31:0] $end
    $var wire 32 ; data_i [31:0] $end
   $upscope $end
  $upscope $end
 $upscope $end
$enddefinitions $end


#0
b11000100101001000010010110010000 #
0+
03
b00000000000000000000000000000000 ;
b00000000000000000000000000000000 C
b00000000000000000000000000000000 K
b00000000000000000000000000000000 S
b00000000000000000000000000000000 [
0c
0k
b11111111 s
b00000000000000000000000000000000 {
b00000000000000000000000000000000 %!
b0100100101000100010011000100010100100000001000000010000000100000 -!
b10010111100101100011101010100100 =!
b01111111011011111100001011100011 E!
0M!
0U!
b00000000 ]!
b01010101010101111011101011000001 e!
b01011100 m!
b10100100 u!
0}!
0'"
b000 /"
07"
0?"
0G"
0O"
0W"
0_"
0g"
1o"
0w"
0!#
b00000000000000000000000000000000 )#
01#
b10101001010010011000101101110111 9#
0A#
0I#
0Q#
b0000 Y#
b11111111 a#
b00000000000000000000000000000000 i#
b01001001110111000001100111000010 q#
0y#
1#$
0+$
03$
0;$
0C$
b00000000000000000000000000000000 K$
#160
0o"
0#$
#170
b10101001010010011000101101110111 e!
1g"
1y#
#175
0g"
0y#
#180
1g"
1y#
#185
0g"
0y#
#190
1g"
1y#
#195
0g"
0y#
#200
1g"
1y#
#205
0g"
0y#
#210
1g"
1y#
#215
0g"
0y#
#220
1g"
1y#
#225
0g"
0y#
#230
1g"
1y#
#235
0g"
0y#
#240
1g"
1y#
#245
0g"
0y#
#250
1g"
1y#
#255
0g"
0y#
#260
1g"
1!#
b00000000000000000000001100000100 9#
1A#
1y#
1+$
#265
0g"
0y#
#270
b00000010001010010001011101000011 #
b00000000000000001111111110111100 ;
b00000000000000001111111110111100 C
b00000000000000001111111110111100 K
b00000000000000001111111110111100 S
b00000000000000001111111110111100 [
1c
b00000000 s
b00000000000000001111111110111100 {
b00000000000000001111111110111100 %!
b0101001101010100010000010101001001010100001000000010000000100000 -!
b00000000000000000000001100000100 e!
b010 /"
17"
1g"
1w"
b00000000000000001111111110111100 )#
b00000000 a#
1y#
1;$
#275
0g"
0y#
#280
b11000011110001011100000011001100 #
b00000000000000000000000000000001 ;
b00000000000000000000000000000001 C
b00000000000000000000000000000001 K
b00000000000000000000000000000001 S
b00000000000000000000000000000001 [
b00000011 s
b00000000000000000000000000000001 {
b00000000000000000000000000000000 %!
b0100010001000101010101100100100101000011010001010100100101000100 -!
b11111111111111111111111111111111 E!
1U!
b00000011 ]!
b00000100 m!
b011 /"
07"
1?"
1g"
b00000000000000000000000000000001 )#
0A#
1Q#
b00000011 a#
1y#
0+$
1C$
#285
0g"
0y#
#290
b01000001111001101111010111011011 #
b00000000000000000000001100000100 ;
b00000000000000000000001100000100 C
b00000000000000000000001100000100 K
b00000000000000000000001100000100 S
b00000000000000000000001100000100 [
b00000000000000000000000000000000 {
b0100110001000101010011100100011101010100010010000010000000100000 -!
b00000000000000000000000000000100 =!
b11000011110001011100000011001100 E!
b100 /"
0?"
1G"
1g"
b00000000000000000000001100000100 )#
1y#
#295
0g"
0y#
#300
b11100101000101000001110010010000 #
b00000000000000000000000000000100 ;
b00000000000000000000000000000100 C
b00000000000000000000000000000100 K
b00000000000000000000000000000100 S
b00000000000000000000000000000000 [
0c
b0100010001000001010101000100000100100000001000000010000000100000 -!
b01000001111001101111010111011011 E!
b00000100 ]!
b00000000 u!
1'"
b101 /"
0G"
1O"
1g"
0w"
0!#
b00000000000000000000000000000100 )#
1y#
0;$
0C$
#305
0g"
0y#
#310
1g"
1y#
#315
0g"
0y#
#320
1g"
1y#
#325
0g"
0y#
#330
1g"
1y#
#335
0g"
0y#
#340
1c
b00000100 s
1g"
1w"
1!#
b00000100 a#
1y#
1;$
1C$
#345
0g"
0y#
#350
b11001010100010011110111001111010 #
b00000000000000000000000000000101 ;
b00000000000000000000000000000101 C
b00000000000000000000000000000101 K
b00000000000000000000000000000101 S
0c
b00000000000000000000000000000101 =!
b11100101000101000001110010010000 E!
b00000101 ]!
b00000001 u!
1g"
0w"
0!#
b00000000000000000000000000000101 )#
1y#
0;$
0C$
#355
0g"
0y#
#360
1c
b00000101 s
1g"
1w"
1!#
b00000101 a#
1y#
1;$
1C$
#365
0g"
0y#
#370
b10001000000000010110111000100001 #
b00000000000000000000000000000110 ;
b00000000000000000000000000000110 C
b00000000000000000000000000000110 K
b00000000000000000000000000000110 S
0c
b00000000000000000000000000000110 =!
b11001010100010011110111001111010 E!
b00000110 ]!
b00000010 u!
1g"
0w"
0!#
b00000000000000000000000000000110 )#
1y#
0;$
0C$
#375
0g"
0y#
#380
1c
b00000110 s
1g"
1w"
1!#
b00000110 a#
1y#
1;$
1C$
#385
0g"
0y#
#390
b11010010000010100101010001011100 #
b00000000000000000000000000000111 ;
b00000000000000000000000000000111 C
b00000000000000000000000000000111 K
b00000000000000000000000000000111 S
0c
b00000000000000000000000000000111 =!
b10001000000000010110111000100001 E!
b00000111 ]!
b00000011 u!
0'"
1g"
0w"
0!#
b00000000000000000000000000000111 )#
1y#
0;$
0C$
#395
0g"
0y#
#400
1g"
1y#
#405
0g"
0y#
#410
1c
b00000111 s
1g"
1w"
1!#
b00000111 a#
1y#
1;$
1C$
#415
0g"
0y#
#420
b00000000000000000000000000000000 #
b11010010000010100101010001011100 ;
b11010010000010100101010001011100 C
b11010010000010100101010001011100 K
b00000000000000000000000000000000 S
0c
b00000110 s
b0100001101010010010000110010000000100000001000000010000000100000 -!
b00000000000000000000000000001000 =!
b11010010000010100101010001011100 E!
b00000100 u!
b110 /"
0O"
1W"
1g"
0w"
0!#
b11010010000010100101010001011100 )#
b00000110 a#
1y#
0;$
0C$
#425
0g"
0y#
#430
1c
b00000111 s
b00000000000000000000000000000111 =!
1g"
1w"
1!#
b00000111 a#
1y#
1;$
#435
0g"
0y#
#440
b10101010011010110101110011110101 #
b00000000000000001111111110111101 ;
b00000000000000001111111110111101 C
b00000000000000000000000000000000 K
0c
b00000110 s
b0101001101010100010011110101000000100000001000000010000000100000 -!
b00000000000000000000000000001000 =!
b111 /"
0W"
1_"
1g"
0w"
0!#
b00000000000000001111111110111101 )#
b00000110 a#
1y#
0;$
#445
0g"
0y#
#450
1+
13
1c
1k
b00000111 s
b00000000000000000000000000000111 =!
1g"
1w"
1!#
11#
b00000111 a#
1y#
1;$
#455
0g"
0y#
#460
b01101000001001110111001110010001 #
0+
03
b00000000000000000000000000000000 ;
b00000000000000000000000000000000 C
0c
0k
b00000110 s
b0100100101000100010011000100010100100000001000000010000000100000 -!
b00000000000000000000000000001000 =!
b000 /"
0_"
1g"
0w"
0!#
b00000000000000000000000000000000 )#
01#
b00000110 a#
1y#
0;$
#465
0g"
0y#
#470
b00000000000000000000000000000111 =!
1g"
1y#
#475
0g"
0y#
#480
1g"
1!#
1y#
#485
0g"
0y#
#490
1g"
0!#
1y#
#495
0g"
0y#
#500
1g"
1!#
1y#
#505
0g"
0y#
#510
1g"
1y#
#515
0g"
0y#
#520
1g"
0!#
1y#
#525
0g"
0y#
#530
1g"
1y#
#535
0g"
0y#
#540
1g"
1y#
#545
0g"
0y#
#550
1g"
1!#
1y#
#555
0g"
0y#
#560
1g"
1y#
#565
0g"
0y#
#570
1g"
1y#
#575
0g"
0y#
#580
1g"
0!#
1y#
#585
0g"
0y#
#590
1g"
1y#
#595
0g"
0y#
#600
1g"
1y#
#605
0g"
0y#
#610
1g"
1!#
1y#
#615
0g"
0y#
#620
1g"
0!#
1y#
#625
0g"
0y#
#630
1g"
1y#
#635
0g"
0y#
#640
1g"
1!#
1y#
#645
0g"
0y#
#650
1g"
1y#
#655
0g"
0y#
#660
1g"
0!#
1y#
#665
0g"
0y#
#670
1g"
1!#
1y#
#675
0g"
0y#
#680
1g"
0!#
1y#
#685
0g"
0y#
#690
1g"
1y#
#695
0g"
0y#
#700
1g"
1!#
1y#
#705
0g"
0y#
#710
1g"
1y#
#715
0g"
0y#
#720
1g"
1y#
#725
0g"
0y#
#730
1g"
0!#
1y#
#735
0g"
0y#
#740
1g"
1!#
1y#
#745
0g"
0y#
#750
1g"
0!#
1y#
#755
0g"
0y#
#760
1g"
1!#
1y#
#765
0g"
0y#
#770
1g"
b00000000000000000000000000000100 9#
1A#
1y#
1+$
#775
0g"
0y#
#780
b10101110101010100100000101000010 #
b00000000000000001111111110111100 ;
b00000000000000001111111110111100 C
b00000000000000001111111110111100 K
b00000000000000001111111110111100 S
b00000000000000001111111110111100 [
1c
b00000111 s
b00000000000000001111111110111100 {
b00000000000000001111111110111100 %!
b0101001101010100010000010101001001010100001000000010000000100000 -!
b00000000000000000000000000000100 e!
1}!
b010 /"
17"
1g"
1w"
b00000000000000001111111110111100 )#
b00000111 a#
1y#
1;$
#785
0g"
0y#
#790
b11000011110001011100000011001100 #
b00000000000000000000000000000001 ;
b00000000000000000000000000000001 C
b00000000000000000000000000000001 K
b00000000000000000000000000000001 S
b00000000000000000000000000000001 [
b00000001 s
b00000000000000000000000000000001 {
b00000000000000000000000000000000 %!
b0100010001000101010101100100100101000011010001010100100101000100 -!
b00000000000000000000000000001000 =!
b11111111111111111111111111111111 E!
b00000001 ]!
b011 /"
07"
1?"
1g"
b00000000000000000000000000000001 )#
0A#
b00000001 a#
1y#
0+$
1C$
#795
0g"
0y#
#800
b00110011000011011010101000001000 #
b00000000000000000000000000000100 ;
b00000000000000000000000000000100 C
b00000000000000000000000000000100 K
b00000000000000000000000000000100 S
b00000000000000000000000000000100 [
0c
b00000000 s
b00000000000000000000000000000000 {
b0100110001000101010011100100011101010100010010000010000000100000 -!
b00000000000000000000000000000010 =!
b11000011110001011100000011001100 E!
b100 /"
0?"
1G"
1g"
0w"
0!#
b00000000000000000000000000000100 )#
b00000000 a#
1y#
0;$
0C$
#805
0g"
0y#
#810
1c
b00000001 s
b00000000000000000000000000000001 =!
1g"
1w"
1!#
b00000001 a#
1y#
1;$
1C$
#815
0g"
0y#
#820
b11010010111010100100011010101010 #
b00000000000000000000000000000010 ;
b00000000000000000000000000000010 C
b00000000000000000000000000000010 K
b00000000000000000000000000000010 S
b00000000000000000000000000000000 [
b00000010 s
b0100010001000001010101000100000100100000001000000010000000100000 -!
b00000000000000000000000000000010 =!
b00110011000011011010101000001000 E!
b00000010 ]!
b00000000 u!
1'"
b101 /"
0G"
1O"
1g"
b00000000000000000000000000000010 )#
b00000010 a#
1y#
#825
0g"
0y#
#830
b11100111100100010001001001001111 #
b00000000000000000000000000000011 ;
b00000000000000000000000000000011 C
b00000000000000000000000000000011 K
b00000000000000000000000000000011 S
0c
b00000000000000000000000000000011 =!
b11010010111010100100011010101010 E!
b00000011 ]!
b00000001 u!
1g"
0w"
0!#
b00000000000000000000000000000011 )#
1y#
0;$
0C$
#835
0g"
0y#
#840
1c
b00000011 s
1g"
1w"
1!#
b00000011 a#
1y#
1;$
1C$
#845
0g"
0y#
#850
b11011110111101001000110010101111 #
b00000000000000000000000000000100 ;
b00000000000000000000000000000100 C
b00000000000000000000000000000100 K
b00000000000000000000000000000100 S
0c
b00000000000000000000000000000100 =!
b11100111100100010001001001001111 E!
b00000100 ]!
b00000010 u!
1g"
0w"
0!#
b00000000000000000000000000000100 )#
1y#
0;$
0C$
#855
0g"
0y#
#860
1g"
1y#
#865
0g"
0y#
#870
1g"
1y#
#875
0g"
0y#
#880
1g"
1y#
#885
0g"
0y#
#890
1g"
1y#
#895
0g"
0y#
#900
1g"
1y#
#905
0g"
0y#
#910
1g"
1y#
#915
0g"
0y#
#920
1g"
1y#
#925
0g"
0y#
#930
1g"
1y#
#935
0g"
0y#
#940
1g"
1y#
#945
0g"
0y#
#950
1c
b00000100 s
1g"
1w"
1!#
b00000100 a#
1y#
1;$
1C$
#955
0g"
0y#
#960
b10010001001000011100111001001010 #
b00000000000000000000000000000101 ;
b00000000000000000000000000000101 C
b00000000000000000000000000000101 K
b00000000000000000000000000000101 S
b00000101 s
b00000000000000000000000000000101 =!
b11011110111101001000110010101111 E!
b00000101 ]!
b00000011 u!
0'"
1g"
b00000000000000000000000000000101 )#
b00000101 a#
1y#
#965
0g"
0y#
#970
b00000000000000000000000000000000 #
b10010001001000011100111001001010 ;
b10010001001000011100111001001010 C
b10010001001000011100111001001010 K
b00000000000000000000000000000000 S
0c
b00000100 s
b0100001101010010010000110010000000100000001000000010000000100000 -!
b00000000000000000000000000000110 =!
b10010001001000011100111001001010 E!
b00000100 u!
b110 /"
0O"
1W"
1g"
0w"
0!#
b10010001001000011100111001001010 )#
b00000100 a#
1y#
0;$
0C$
#975
0g"
0y#
#980
b00000000000000000000000000000101 =!
1g"
1y#
#985
0g"
0y#
#990
1g"
1y#
#995
0g"
0y#
#1000
1g"
1y#
#1005
0g"
0y#
#1010
1g"
1y#
#1015
0g"
0y#
#1020
1c
b00000101 s
1g"
1w"
1!#
b00000101 a#
1y#
1;$
#1025
0g"
0y#
#1030
b11000010010001100111011110001011 #
b00000000000000001111111110111101 ;
b00000000000000001111111110111101 C
b00000000000000000000000000000000 K
0c
b00000100 s
b0101001101010100010011110101000000100000001000000010000000100000 -!
b00000000000000000000000000000110 =!
b111 /"
0W"
1_"
1g"
0w"
0!#
b00000000000000001111111110111101 )#
b00000100 a#
1y#
0;$
#1035
0g"
0y#
#1040
b00000000000000000000000000000101 =!
1g"
1y#
#1045
0g"
0y#
#1050
1g"
1y#
#1055
0g"
0y#
#1060
1g"
1y#
#1065
0g"
0y#
#1070
1+
13
1c
1k
b00000101 s
1g"
1w"
1!#
11#
b00000101 a#
1y#
1;$
#1075
0g"
0y#
#1080
b00000000000010100101100011101111 #
0+
03
b00000000000000000000000000000000 ;
b00000000000000000000000000000000 C
0c
0k
b00000100 s
b0100100101000100010011000100010100100000001000000010000000100000 -!
b00000000000000000000000000000110 =!
b000 /"
0_"
1g"
0w"
0!#
b00000000000000000000000000000000 )#
01#
b00000100 a#
1y#
0;$
#1085
0g"
0y#
#1090
b00000000000000000000000000000101 =!
1g"
1!#
1y#
#1095
0g"
0y#
#1100
1g"
0!#
1y#
#1105
0g"
0y#
#1110
1g"
1!#
1y#
#1115
0g"
0y#
#1120
1g"
0!#
1y#
#1125
0g"
0y#
#1130
1g"
1y#
#1135
0g"
0y#
#1140
1g"
1y#
#1145
0g"
0y#
#1150
1g"
1!#
1y#
#1155
0g"
0y#
#1160
1g"
0!#
1y#
#1165
0g"
0y#
#1170
1g"
1!#
1y#
#1175
0g"
0y#
#1180
1g"
1y#
#1185
0g"
0y#
#1190
1g"
0!#
1y#
#1195
0g"
0y#
#1200
1g"
1!#
1y#
#1205
0g"
0y#
#1210
1g"
0!#
1y#
