SPINAL_TEST/simWorkspace/AuroraTxCore/test.vcd
$version Generated by VerilatedVcd $end
$date Wed Aug 11 17:41:31 2021
 $end
$timescale   1ns $end

 $scope module TOP $end
  $var wire 32 {$ axiw_payload_data [31:0] $end
  $var wire  1 %% axiw_payload_last $end
  $var wire  1 s$ axiw_ready $end
  $var wire  1 k$ axiw_valid $end
  $var wire  8 U% bram_addr [7:0] $end
  $var wire  1 E% bram_en $end
  $var wire 32 e% bram_rddata [31:0] $end
  $var wire  4 M% bram_we [3:0] $end
  $var wire 32 ]% bram_wrdata [31:0] $end
  $var wire  1 m% clk $end
  $var wire  1 u% reset $end
  $var wire 32 -% tx_head [31:0] $end
  $var wire  1 5% tx_start $end
  $var wire  1 =% tx_trigger $end
  $scope module AuroraTxCore $end
   $var wire  1 G& aurarorx_axir_ready $end
   $var wire  1 k aurarorx_axir_valid $end
   $var wire  8 !# aurarorx_bram_addr [7:0] $end
   $var wire  1 o" aurarorx_bram_en $end
   $var wire 32 ?& aurarorx_bram_rddata [31:0] $end
   $var wire  4 w" aurarorx_bram_we [3:0] $end
   $var wire 32 { aurarorx_bram_wrdata [31:0] $end
   $var wire  1 )# axi_last $end
   $var wire  1 -! axi_last_1 $end
   $var wire  1 %! axi_last_2 $end
   $var wire 32 O& axi_txdata [31:0] $end
   $var wire 32 S axi_txdata_1 [31:0] $end
   $var wire 32 K axi_txdata_2 [31:0] $end
   $var wire 32 M! axi_txdata_3 [31:0] $end
   $var wire 32 E! axi_txdata_4 [31:0] $end
   $var wire 32 =! axi_txdata_5 [31:0] $end
   $var wire 32 5! axi_txdata_6 [31:0] $end
   $var wire 32 { axi_txdata_7 [31:0] $end
   $var wire 32 a# axi_txhead [31:0] $end
   $var wire  1 W& axi_valid $end
   $var wire  1 U! axiw_fire $end
   $var wire  1 /& axiw_fire_1 $end
   $var wire  1 U! axiw_fire_2 $end
   $var wire  1 U! axiw_fire_3 $end
   $var wire  1 /& axiw_fire_4 $end
   $var wire  1 /& axiw_fire_5 $end
   $var wire  1 /& axiw_fire_6 $end
   $var wire  1 /& axiw_fire_7 $end
   $var wire  1 /& axiw_fire_8 $end
   $var wire 32 {$ axiw_payload_data [31:0] $end
   $var wire  1 %% axiw_payload_last $end
   $var wire  1 s$ axiw_ready $end
   $var wire  1 k$ axiw_valid $end
   $var wire  8 U% bram_addr [7:0] $end
   $var wire  1 E% bram_en $end
   $var wire 32 e% bram_rddata [31:0] $end
   $var wire  4 M% bram_we [3:0] $end
   $var wire 32 ]% bram_wrdata [31:0] $end
   $var wire  1 m% clk $end
   $var wire 32 s crc32_2_crc_o [31:0] $end
   $var wire 32 W" crc_data [31:0] $end
   $var wire  8 q# data_cnt [7:0] $end
   $var wire  8 i# length [7:0] $end
   $var wire  8 e! mem_addr [7:0] $end
   $var wire  8 9# mem_addrtemp [7:0] $end
   $var wire 32 O" mem_data [31:0] $end
   $var wire  1 1# mem_rden $end
   $var wire  1 u% reset $end
   $var wire  3 3$ stateMachine_state [2:0] $end
   $var wire 64 [ stateMachine_state_string [63:0] $end
   $var wire 32 -% tx_head [31:0] $end
   $var wire  1 5% tx_start $end
   $var wire  1 =% tx_trigger $end
   $var wire  1 ;$ when_Gtx_Tx_l118 $end
   $var wire  1 C$ when_Gtx_Tx_l120 $end
   $var wire  1 K$ when_Gtx_Tx_l122 $end
   $var wire  1 S$ when_Gtx_Tx_l124 $end
   $var wire  1 [$ when_Gtx_Tx_l126 $end
   $var wire  1 c$ when_Gtx_Tx_l128 $end
   $var wire  1 ]! when_Gtx_Tx_l134 $end
   $var wire  1 ;$ when_Gtx_Tx_l140 $end
   $var wire  1 7& when_Gtx_Tx_l142 $end
   $var wire  1 }% when_Gtx_Tx_l60 $end
   $var wire  1 '& when_Gtx_Tx_l62 $end
   $var wire  1 y# when_Gtx_Tx_l75 $end
   $var wire  1 #$ when_Gtx_Tx_l98 $end
   $scope module aurarorx $end
    $var wire  1 k axir_fire $end
    $var wire  1 k axir_fire_1 $end
    $var wire  1 k axir_fire_2 $end
    $var wire  1 k axir_fire_3 $end
    $var wire  1 k axir_fire_4 $end
    $var wire  1 k axir_fire_5 $end
    $var wire  1 k axir_fire_6 $end
    $var wire  1 k axir_fire_7 $end
    $var wire  1 k axir_fire_8 $end
    $var wire  1 k axir_fire_9 $end
    $var wire 32 { axir_payload_data [31:0] $end
    $var wire  1 %! axir_payload_last $end
    $var wire  1 G& axir_ready $end
    $var wire  1 k axir_valid $end
    $var wire  8 !# bram_addr [7:0] $end
    $var wire  1 o" bram_en $end
    $var wire 32 ?& bram_rddata [31:0] $end
    $var wire  4 w" bram_we [3:0] $end
    $var wire 32 { bram_wrdata [31:0] $end
    $var wire  1 m% clk $end
    $var wire 32 m! crc32_2_crc_o [31:0] $end
    $var wire 32 +$ crc_data [31:0] $end
    $var wire  1 I# crc_status $end
    $var wire  8 g" data_cnt [7:0] $end
    $var wire  8 _" length [7:0] $end
    $var wire  8 !# mem_addr [7:0] $end
    $var wire 32 A# mem_data [31:0] $end
    $var wire  1 o" mem_wren $end
    $var wire  4 w" mem_wrwe [3:0] $end
    $var wire  1 u% reset $end
    $var wire  3 Q# stateMachine_state [2:0] $end
    $var wire 64 # stateMachine_state_string [63:0] $end
    $var wire  1 G" when_Gtx_Rx_l106 $end
    $var wire  1 u! when_Gtx_Rx_l37 $end
    $var wire  1 }! when_Gtx_Rx_l43 $end
    $var wire  1 ; when_Gtx_Rx_l59 $end
    $var wire  1 C when_Gtx_Rx_l68 $end
    $var wire  1 '" when_Gtx_Rx_l77 $end
    $var wire  1 Y# when_Gtx_Rx_l84 $end
    $var wire  1 3 when_Gtx_Rx_l86 $end
    $var wire  1 /" when_Gtx_Rx_l92 $end
    $var wire  1 ?" when_Gtx_Rx_l97 $end
    $var wire  1 7" when_Gtx_Rx_l99 $end
    $scope module crc32_2 $end
     $var wire 32 +$ crc_i [31:0] $end
     $var wire 32 m! crc_o [31:0] $end
     $var wire 32 { data_i [31:0] $end
    $upscope $end
   $upscope $end
   $scope module crc32_2 $end
    $var wire 32 W" crc_i [31:0] $end
    $var wire 32 s crc_o [31:0] $end
    $var wire 32 { data_i [31:0] $end
   $upscope $end
  $upscope $end
 $upscope $end
$enddefinitions $end


#0
b0100100101000100010011000100010100100000001000000010000000100000 #
03
1;
1C
b00000000000000000000000000000000 K
b00000000000000000000000000000000 S
b0100100101000100010011000100010100100000001000000010000000100000 [
0k
b10111010101101001101000111011000 s
b00000000000000000000000000000000 {
0%!
0-!
b00000000000000000000000000000000 5!
b00000000000000000000000000000000 =!
b00000000000000000000000000000000 E!
b00000000000000000000000000000000 M!
0U!
0]!
b11111111 e!
b00110110010010111101101011001011 m!
0u!
0}!
0'"
0/"
17"
0?"
0G"
b10110111101001101110101010100110 O"
b00101110101001010111000101001010 W"
b01010111 _"
b00001111 g"
0o"
b0000 w"
b00000000 !#
0)#
01#
b00000000 9#
b00000000000000000000000000000000 A#
0I#
b000 Q#
1Y#
b00010011100101010011011000101000 a#
b00100010 i#
b10111111 q#
0y#
0#$
b10111110001111111100100111010100 +$
b000 3$
0;$
0C$
0K$
0S$
0[$
0c$
0k$
1s$
b00000000000000000000000000000000 {$
0%%
b11101001001100100111001110100110 -%
05%
0=%
0E%
b0000 M%
b11111111 U%
b00000000000000000000000000000000 ]%
b11010110110100100100001100110111 e%
0m%
1u%
0}%
0'&
0/&
07&
b10100111011111110111011010010101 ?&
1G&
b00000000000000000000000000000000 O&
0W&
#160
0u%
#170
b11000111000001001101110101111011 m!
b11101001001100100111001110100110 a#
b11111111111111111111111111111111 +$
1m%
#175
0m%
#180
1m%
#185
0m%
#190
1m%
#195
0m%
#200
1m%
#205
0m%
#210
1m%
#215
0m%
#220
1m%
#225
0m%
#230
1m%
#235
0m%
#240
1m%
#245
0m%
#250
1m%
#255
0m%
#260
b00000000000000000000001100000100 -%
15%
1m%
1}%
#265
0m%
#270
b00000000000000001111111110111100 K
b00000000000000001111111110111100 S
b0101001101010100010000010101001001010100001000000010000000100000 [
1k
b01111100001110011110001100001011 s
b00000000000000001111111110111100 {
b00000000000000001111111110111100 5!
b00000000000000001111111110111100 =!
b00000000000000001111111110111100 E!
b00000000000000001111111110111100 M!
1U!
b00000000 e!
b00000001100010011110111110101000 m!
1u!
07"
b00000000000000000000001100000100 a#
b010 3$
1;$
1k$
b00000000000000001111111110111100 {$
b00000000 U%
1m%
1/&
#275
0m%
#280
b0100010001000101010101100100100101000011010001010100100101000100 #
13
b00000000000000000000000000000001 K
b00000000000000000000000000000000 S
b0100010001000101010101100100100101000011010001010100100101000100 [
b11000011110001011100000011001100 s
b00000000000000000000000000000001 {
b00000000000000000000000000000001 5!
b00000000000000000000000000000001 =!
b00000000000000000000000000000001 E!
b00000000000000000000000000000001 M!
b00000011 e!
b11000011110001011100000011001100 m!
0u!
1}!
1/"
17"
b11111111111111111111111111111111 W"
11#
b00000011 9#
b011 Q#
0Y#
b00000100 i#
b011 3$
0;$
1C$
b00000000000000000000000000000001 {$
05%
1E%
b00000011 U%
1m%
0}%
17&
#285
0m%
#290
b0100110001000101010011100100011101010100010010000010000000100000 #
03
b00000000000000000000000000000000 K
b0100110001000101010011100100011101010100010010000010000000100000 [
0k
b01000001111001101111010111011011 s
b00000000000000000000001100000100 {
b00000000000000000000001100000100 5!
b00000000000000000000001100000100 =!
b00000000000000000000001100000100 E!
b00000000000000000000001100000100 M!
0U!
b00000010 e!
b01000001111001101111010111011011 m!
0}!
0/"
07"
b00000000000000000000000000000100 O"
b11000011110001011100000011001100 W"
1o"
b1111 w"
b00000000000000000000000000000001 A#
b100 Q#
b11000011110001011100000011001100 +$
b100 3$
0C$
1K$
0k$
0s$
b00000000000000000000001100000100 {$
b00000010 U%
1m%
0/&
07&
#295
0m%
#300
b00000000000000000000000000000011 O"
0o"
b0000 w"
1m%
#305
0m%
#310
1m%
#315
0m%
#320
1m%
#325
0m%
#330
1m%
#335
0m%
#340
1m%
#345
0m%
#350
1m%
#355
0m%
#360
13
1k
1U!
b00000011 e!
1?"
1k$
1s$
b00000011 U%
1m%
1/&
17&
#365
0m%
#370
b0100010001000001010101000100000100100000001000000010000000100000 #
b0100010001000001010101000100000100100000001000000010000000100000 [
b11100101000101000001110010010000 s
b00000000000000000000000000000100 {
b00000000000000000000000000000100 5!
b00000000000000000000000000000100 =!
b00000000000000000000000000000100 E!
b00000000000000000000000000000000 M!
b00000100 e!
b11100101000101000001110010010000 m!
17"
0?"
1G"
b00000000000000000000000000000100 O"
b01000001111001101111010111011011 W"
b00000100 _"
b00000000 g"
1o"
b1111 w"
b00000011 !#
b00000100 9#
b00000000000000000000001100000100 A#
b101 Q#
b00000000 q#
1#$
b01000001111001101111010111011011 +$
b101 3$
0K$
1S$
b00000000000000000000000000000100 {$
b00000100 U%
1m%
#375
0m%
#380
b11001010100010011110111001111010 s
b00000000000000000000000000000101 {
b00000000000000000000000000000101 5!
b00000000000000000000000000000101 =!
b00000000000000000000000000000101 E!
b00000101 e!
b11001010100010011110111001111010 m!
b00000000000000000000000000000101 O"
b11100101000101000001110010010000 W"
b00000001 g"
b00000100 !#
b00000101 9#
b00000000000000000000000000000100 A#
b00000001 q#
b11100101000101000001110010010000 +$
b00000000000000000000000000000101 {$
b00000101 U%
1m%
#385
0m%
#390
b10001000000000010110111000100001 s
b00000000000000000000000000000110 {
b00000000000000000000000000000110 5!
b00000000000000000000000000000110 =!
b00000000000000000000000000000110 E!
b00000110 e!
b10001000000000010110111000100001 m!
b00000000000000000000000000000110 O"
b11001010100010011110111001111010 W"
b00000010 g"
b00000101 !#
b00000110 9#
b00000000000000000000000000000101 A#
b00000010 q#
b11001010100010011110111001111010 +$
b00000000000000000000000000000110 {$
b00000110 U%
1m%
#395
0m%
#400
03
0;
0k
b11010010000010100101010001011100 s
b00000000000000000000000000000111 {
b00000000000000000000000000000111 5!
b00000000000000000000000000000111 =!
b00000000000000000000000000000111 E!
0U!
b11010010000010100101010001011100 m!
0G"
b00000000000000000000000000000111 O"
b10001000000000010110111000100001 W"
b00000011 g"
b00000110 !#
b00000111 9#
b00000000000000000000000000000110 A#
b00000011 q#
0#$
b10001000000000010110111000100001 +$
0k$
0s$
b00000000000000000000000000000111 {$
1m%
0/&
07&
#405
0m%
#410
0o"
b0000 w"
1m%
#415
0m%
#420
1m%
#425
0m%
#430
13
1k
1U!
b00000111 e!
1k$
1s$
b00000111 U%
1m%
1/&
17&
#435
0m%
#440
b0100001101010010010000110010000000100000001000000010000000100000 #
03
0C
b0100001101010010010000110010000000100000001000000010000000100000 [
b00000000000000000000000000000000 s
b11010010000010100101010001011100 {
b11010010000010100101010001011100 5!
b11010010000010100101010001011100 =!
b00000000000000000000000000000000 E!
b00000000000000000000000000000000 m!
07"
b00000000000000000000000000001000 O"
b11010010000010100101010001011100 W"
b110 Q#
b00000100 q#
b11010010000010100101010001011100 +$
b110 3$
0S$
1[$
b11010010000010100101010001011100 {$
1m%
07&
#445
0m%
#450
b0101001101010100010011110101000000100000001000000010000000100000 #
1C
b0101001101010100010011110101000000100000001000000010000000100000 [
b10101110101010100100000101000010 s
b00000000000000001111111110111100 {
1%!
1-!
b00000000000000001111111110111100 5!
b00000000000000000000000000000000 =!
1]!
b10101110101010100100000101000010 m!
1u!
1'"
b111 Q#
b111 3$
0[$
1c$
b00000000000000001111111110111100 {$
1%%
1m%
#455
0m%
#460
b0100100101000100010011000100010100100000001000000010000000100000 #
b0100100101000100010011000100010100100000001000000010000000100000 [
0k
b01101000001001110111001110010001 s
b00000000000000000000000000000000 {
0%!
0-!
b00000000000000000000000000000000 5!
0U!
0]!
b00000110 e!
b01101000001001110111001110010001 m!
0u!
0'"
17"
b000 Q#
1Y#
b000 3$
0c$
0k$
b00000000000000000000000000000000 {$
0%%
b00000110 U%
1m%
0/&
#465
0m%
#470
b11000111000001001101110101111011 m!
b00000000000000000000000000000111 O"
b11111111111111111111111111111111 +$
1m%
#475
0m%
#480
1m%
#485
0m%
#490
1m%
#495
0m%
#500
0s$
1m%
#505
0m%
#510
1s$
1m%
#515
0m%
#520
0s$
1m%
#525
0m%
#530
1m%
#535
0m%
#540
1m%
#545
0m%
#550
1m%
#555
0m%
#560
1s$
1m%
#565
0m%
#570
0s$
1m%
#575
0m%
#580
1s$
1m%
#585
0m%
#590
0s$
1m%
#595
0m%
#600
1m%
#605
0m%
#610
1m%
#615
0m%
#620
1m%
#625
0m%
#630
1s$
1m%
#635
0m%
#640
1m%
#645
0m%
#650
1m%
#655
0m%
#660
1m%
#665
0m%
#670
0s$
1m%
#675
0m%
#680
1m%
#685
0m%
#690
1s$
1m%
#695
0m%
#700
1m%
#705
0m%
#710
0s$
1m%
#715
0m%
#720
1s$
1m%
#725
0m%
#730
1m%
#735
0m%
#740
1m%
#745
0m%
#750
0s$
1m%
#755
0m%
#760
1m%
#765
0m%
#770
1s$
b00000000000000000000000000000100 -%
15%
1m%
1}%
#775
0m%
#780
b00000000000000001111111110111100 K
b00000000000000001111111110111100 S
b0101001101010100010000010101001001010100001000000010000000100000 [
1k
b10101110101010100100000101000010 s
b00000000000000001111111110111100 {
b00000000000000001111111110111100 5!
b00000000000000001111111110111100 =!
b00000000000000001111111110111100 E!
b00000000000000001111111110111100 M!
1U!
b00000111 e!
b00000001100010011110111110101000 m!
1u!
07"
b00000000000000000000000000000100 a#
1y#
b010 3$
1;$
1k$
b00000000000000001111111110111100 {$
b00000111 U%
1m%
1/&
#785
0m%
#790
b0100010001000101010101100100100101000011010001010100100101000100 #
13
b00000000000000000000000000000001 K
b00000000000000000000000000000000 S
b0100010001000101010101100100100101000011010001010100100101000100 [
b11000011110001011100000011001100 s
b00000000000000000000000000000001 {
b00000000000000000000000000000001 5!
b00000000000000000000000000000001 =!
b00000000000000000000000000000001 E!
b00000000000000000000000000000001 M!
b00000001 e!
b11000011110001011100000011001100 m!
0u!
1}!
1/"
17"
b00000000000000000000000000001000 O"
b11111111111111111111111111111111 W"
b00000001 9#
b011 Q#
0Y#
b011 3$
0;$
1C$
b00000000000000000000000000000001 {$
05%
b00000001 U%
1m%
0}%
17&
#795
0m%
#800
b0100110001000101010011100100011101010100010010000010000000100000 #
03
b00000000000000000000000000000000 K
b0100110001000101010011100100011101010100010010000010000000100000 [
0k
b00110011000011011010101000001000 s
b00000000000000000000000000000100 {
b00000000000000000000000000000100 5!
b00000000000000000000000000000100 =!
b00000000000000000000000000000100 E!
b00000000000000000000000000000100 M!
0U!
b00000000 e!
b00110011000011011010101000001000 m!
0}!
0/"
b00000000000000000000000000000010 O"
b11000011110001011100000011001100 W"
1o"
b1111 w"
b00000000 !#
b00000000000000000000000000000001 A#
b100 Q#
b11000011110001011100000011001100 +$
b100 3$
0C$
1K$
0k$
0s$
b00000000000000000000000000000100 {$
b00000000 U%
1m%
0/&
07&
#805
0m%
#810
b00000000000000000000000000000001 O"
0o"
b0000 w"
1m%
#815
0m%
#820
1m%
#825
0m%
#830
1m%
#835
0m%
#840
1m%
#845
0m%
#850
1m%
#855
0m%
#860
13
1k
1U!
b00000001 e!
1?"
1k$
1s$
b00000001 U%
1m%
1/&
17&
#865
0m%
#870
b0100010001000001010101000100000100100000001000000010000000100000 #
03
1;
b0100010001000001010101000100000100100000001000000010000000100000 [
0k
b11010010111010100100011010101010 s
b00000000000000000000000000000010 {
b00000000000000000000000000000010 5!
b00000000000000000000000000000010 =!
b00000000000000000000000000000010 E!
b00000000000000000000000000000000 M!
0U!
b11010010111010100100011010101010 m!
0?"
b00000000000000000000000000000010 O"
b00110011000011011010101000001000 W"
b00000000 g"
1o"
b1111 w"
b00000001 !#
b00000010 9#
b00000000000000000000000000000100 A#
b101 Q#
b00000000 q#
1#$
b00110011000011011010101000001000 +$
b101 3$
0K$
1S$
0k$
0s$
b00000000000000000000000000000010 {$
1m%
0/&
07&
#875
0m%
#880
0o"
b0000 w"
1m%
#885
0m%
#890
13
1k
1U!
b00000010 e!
1G"
1k$
1s$
b00000010 U%
1m%
1/&
17&
#895
0m%
#900
03
0k
b11100111100100010001001001001111 s
b00000000000000000000000000000011 {
b00000000000000000000000000000011 5!
b00000000000000000000000000000011 =!
b00000000000000000000000000000011 E!
0U!
b11100111100100010001001001001111 m!
0G"
b00000000000000000000000000000011 O"
b11010010111010100100011010101010 W"
b00000001 g"
1o"
b1111 w"
b00000010 !#
b00000011 9#
b00000000000000000000000000000010 A#
b00000001 q#
b11010010111010100100011010101010 +$
0k$
0s$
b00000000000000000000000000000011 {$
1m%
0/&
07&
#905
0m%
#910
13
1k
1U!
b00000011 e!
1G"
0o"
b0000 w"
1k$
1s$
b00000011 U%
1m%
1/&
17&
#915
0m%
#920
b11011110111101001000110010101111 s
b00000000000000000000000000000100 {
b00000000000000000000000000000100 5!
b00000000000000000000000000000100 =!
b00000000000000000000000000000100 E!
b00000100 e!
b11011110111101001000110010101111 m!
b00000000000000000000000000000100 O"
b11100111100100010001001001001111 W"
b00000010 g"
1o"
b1111 w"
b00000011 !#
b00000100 9#
b00000000000000000000000000000011 A#
b00000010 q#
b11100111100100010001001001001111 +$
b00000000000000000000000000000100 {$
b00000100 U%
1m%
#925
0m%
#930
0;
b10010001001000011100111001001010 s
b00000000000000000000000000000101 {
b00000000000000000000000000000101 5!
b00000000000000000000000000000101 =!
b00000000000000000000000000000101 E!
b00000101 e!
b10010001001000011100111001001010 m!
0G"
b00000000000000000000000000000101 O"
b11011110111101001000110010101111 W"
b00000011 g"
b00000100 !#
b00000101 9#
b00000000000000000000000000000100 A#
b00000011 q#
0#$
b11011110111101001000110010101111 +$
b00000000000000000000000000000101 {$
b00000101 U%
1m%
#935
0m%
#940
b0100001101010010010000110010000000100000001000000010000000100000 #
03
0C
b0100001101010010010000110010000000100000001000000010000000100000 [
b00000000000000000000000000000000 s
b10010001001000011100111001001010 {
b10010001001000011100111001001010 5!
b10010001001000011100111001001010 =!
b00000000000000000000000000000000 E!
b00000000000000000000000000000000 m!
07"
b00000000000000000000000000000110 O"
b10010001001000011100111001001010 W"
0o"
b0000 w"
b110 Q#
b00000100 q#
b10010001001000011100111001001010 +$
b110 3$
0S$
1[$
b10010001001000011100111001001010 {$
1m%
07&
#945
0m%
#950
b0101001101010100010011110101000000100000001000000010000000100000 #
1C
b0101001101010100010011110101000000100000001000000010000000100000 [
b11000110100001110110101000111100 s
b00000000000000001111111110111100 {
1%!
1-!
b00000000000000001111111110111100 5!
b00000000000000000000000000000000 =!
1]!
b11000110100001110110101000111100 m!
1u!
1'"
b111 Q#
b111 3$
0[$
1c$
b00000000000000001111111110111100 {$
1%%
1m%
#955
0m%
#960
b0100100101000100010011000100010100100000001000000010000000100000 #
b0100100101000100010011000100010100100000001000000010000000100000 [
0k
b00000000000010100101100011101111 s
b00000000000000000000000000000000 {
0%!
0-!
b00000000000000000000000000000000 5!
0U!
0]!
b00000100 e!
b00000000000010100101100011101111 m!
0u!
0'"
17"
b000 Q#
1Y#
b000 3$
0c$
0k$
b00000000000000000000000000000000 {$
0%%
b00000100 U%
1m%
0/&
#965
0m%
#970
b11000111000001001101110101111011 m!
b00000000000000000000000000000101 O"
b11111111111111111111111111111111 +$
1m%
#975
0m%
#980
1m%
#985
0m%
#990
0s$
1m%
#995
0m%
#1000
1s$
1m%
#1005
0m%
#1010
0s$
1m%
#1015
0m%
#1020
1m%
#1025
0m%
#1030
1m%
#1035
0m%
#1040
1m%
#1045
0m%
#1050
1m%
#1055
0m%
#1060
1s$
1m%
#1065
0m%
#1070
1m%
#1075
0m%
#1080
0s$
1m%
#1085
0m%
#1090
1m%
#1095
0m%
#1100
1m%
#1105
0m%
#1110
1m%
#1115
0m%
#1120
1m%
#1125
0m%
#1130
1s$
1m%
#1135
0m%
#1140
1m%
#1145
0m%
#1150
0s$
1m%
#1155
0m%
#1160
1m%
#1165
0m%
#1170
1m%
#1175
0m%
#1180
1s$
1m%
#1185
0m%
#1190
1m%
#1195
0m%
#1200
1m%
#1205
0m%
#1210
0s$
1m%
#1215
0m%
#1220
1s$
1m%
#1225
0m%
#1230
1m%
#1235
0m%
#1240
1m%
#1245
0m%
#1250
0s$
1m%
#1255
0m%
#1260
1s$
1m%
