SPINAL_TEST/simWorkspace/AuroraTop/test.vcd
$version Generated by VerilatedVcd $end
$date Fri Aug 13 17:43:27 2021
 $end
$timescale   1ns $end

 $scope module TOP $end
  $var wire 20 /& apb_PADDR [19:0] $end
  $var wire  1 ?& apb_PENABLE $end
  $var wire 32 _& apb_PRDATA [31:0] $end
  $var wire  1 G& apb_PREADY $end
  $var wire  1 7& apb_PSEL [0:0] $end
  $var wire  1 g& apb_PSLVERROR $end
  $var wire 32 W& apb_PWDATA [31:0] $end
  $var wire  1 O& apb_PWRITE $end
  $var wire  1 S( aurora_userclk $end
  $var wire 32 A' axir_payload_data [31:0] $end
  $var wire  1 I' axir_payload_last $end
  $var wire  1 9' axir_ready $end
  $var wire  1 1' axir_valid $end
  $var wire 32 !' axiw_payload_data [31:0] $end
  $var wire  1 )' axiw_payload_last $end
  $var wire  1 w& axiw_ready $end
  $var wire  1 o& axiw_valid $end
  $var wire  1 C( clk $end
  $var wire  1 [( intrrupt $end
  $var wire  1 K( reset $end
  $var wire  8 +( rx_bram_addr [7:0] $end
  $var wire  1 y' rx_bram_en $end
  $var wire 32 ;( rx_bram_rddata [31:0] $end
  $var wire  4 #( rx_bram_we [3:0] $end
  $var wire 32 3( rx_bram_wrdata [31:0] $end
  $var wire  8 a' tx_bram_addr [7:0] $end
  $var wire  1 Q' tx_bram_en $end
  $var wire 32 q' tx_bram_rddata [31:0] $end
  $var wire  4 Y' tx_bram_we [3:0] $end
  $var wire 32 i' tx_bram_wrdata [31:0] $end
  $scope module AuroraTop $end
   $var wire 20 /& apb_PADDR [19:0] $end
   $var wire  1 ?& apb_PENABLE $end
   $var wire 32 _& apb_PRDATA [31:0] $end
   $var wire  1 G& apb_PREADY $end
   $var wire  1 7& apb_PSEL [0:0] $end
   $var wire  1 g& apb_PSLVERROR $end
   $var wire 32 W& apb_PWDATA [31:0] $end
   $var wire  1 O& apb_PWRITE $end
   $var wire 32 ?" auroraArea_auroraRxBlockRam_ioA_rddata [31:0] $end
   $var wire 32 )# auroraArea_auroraRxBlockRam_ioB_rddata [31:0] $end
   $var wire 32 !# auroraArea_auroraTxBlockRam_ioA_rddata [31:0] $end
   $var wire 32 7" auroraArea_auroraTxBlockRam_ioB_rddata [31:0] $end
   $var wire  1 u) auroraArea_aurorarxcore_axir_ready $end
   $var wire  8 3$ auroraArea_aurorarxcore_bram_addr [7:0] $end
   $var wire  1 S( auroraArea_aurorarxcore_bram_clkout $end
   $var wire  1 #$ auroraArea_aurorarxcore_bram_en $end
   $var wire  1 K( auroraArea_aurorarxcore_bram_resetout $end
   $var wire  4 +$ auroraArea_aurorarxcore_bram_we [3:0] $end
   $var wire 32 A' auroraArea_aurorarxcore_bram_wrdata [31:0] $end
   $var wire  1 G" auroraArea_aurorarxcore_intrrupt $end
   $var wire 32 e! auroraArea_auroratxcore_axiw_payload_data [31:0] $end
   $var wire  1 3 auroraArea_auroratxcore_axiw_payload_last $end
   $var wire  1 + auroraArea_auroratxcore_axiw_valid $end
   $var wire  8 c( auroraArea_auroratxcore_bram_addr [7:0] $end
   $var wire  1 S( auroraArea_auroratxcore_bram_clkout $end
   $var wire  1 ;$ auroraArea_auroratxcore_bram_en $end
   $var wire  1 K( auroraArea_auroratxcore_bram_resetout $end
   $var wire  4 }) auroraArea_auroratxcore_bram_we [3:0] $end
   $var wire 32 '* auroraArea_auroratxcore_bram_wrdata [31:0] $end
   $var wire  1 S( aurora_userclk $end
   $var wire 32 A' axir_payload_data [31:0] $end
   $var wire  1 I' axir_payload_last $end
   $var wire  1 9' axir_ready $end
   $var wire  1 1' axir_valid $end
   $var wire 32 !' axiw_payload_data [31:0] $end
   $var wire  1 )' axiw_payload_last $end
   $var wire  1 w& axiw_ready $end
   $var wire  1 o& axiw_valid $end
   $var wire  1 C( clk $end
   $var wire  1 [( intrrupt $end
   $var wire  1 K( reset $end
   $var wire  8 +( rx_bram_addr [7:0] $end
   $var wire  1 y' rx_bram_en $end
   $var wire 32 ;( rx_bram_rddata [31:0] $end
   $var wire  4 #( rx_bram_we [3:0] $end
   $var wire 32 3( rx_bram_wrdata [31:0] $end
   $var wire  1 s( toparea_ctrl_askRead $end
   $var wire  1 k( toparea_ctrl_askWrite $end
   $var wire  1 s( toparea_ctrl_doRead $end
   $var wire  1 ; toparea_ctrl_doWrite $end
   $var wire  1 o" toparea_triger $end
   $var wire  1 _" toparea_tx_ctrl [0:0] $end
   $var wire  1 ]! toparea_tx_ctrl_temp $end
   $var wire  1 =% toparea_tx_ctrl_temp_delay_1 $end
   $var wire  1 =% toparea_tx_ctrl_temp_delay_1_1 $end
   $var wire  1 =% toparea_tx_ctrl_temp_delay_1_2 $end
   $var wire  1 E% toparea_tx_ctrl_temp_delay_2 $end
   $var wire  1 E% toparea_tx_ctrl_temp_delay_2_1 $end
   $var wire  1 M% toparea_tx_ctrl_temp_delay_3 $end
   $var wire 32 5% toparea_tx_headtemp [31:0] $end
   $var wire  1 c$ toparea_tx_senddatatriger $end
   $var wire  1 w" toparea_tx_sendtriger $end
   $var wire  1 g" toparea_tx_triger [0:0] $end
   $var wire  1 5! toparea_tx_triger_temp $end
   $var wire  1 Q# toparea_tx_triger_temp_delay_1 $end
   $var wire  1 Y# toparea_tx_triger_temp_delay_1_1 $end
   $var wire  1 i# toparea_tx_triger_temp_delay_1_2 $end
   $var wire  1 a# toparea_tx_triger_temp_delay_2 $end
   $var wire  1 q# toparea_tx_triger_temp_delay_2_1 $end
   $var wire  1 y# toparea_tx_triger_temp_delay_3 $end
   $var wire  8 a' tx_bram_addr [7:0] $end
   $var wire  1 Q' tx_bram_en $end
   $var wire 32 q' tx_bram_rddata [31:0] $end
   $var wire  4 Y' tx_bram_we [3:0] $end
   $var wire 32 i' tx_bram_wrdata [31:0] $end
   $var wire  1 C when_AuroraTop_l46 $end
   $scope module auroraArea_auroraRxBlockRam $end
    $var wire  1 C( clka $end
    $var wire  1 S( clkb $end
    $var wire  9 7* i [8:0] $end
    $var wire  8 +( ioA_addr [7:0] $end
    $var wire  1 y' ioA_en $end
    $var wire 32 ?" ioA_rddata [31:0] $end
    $var wire  4 #( ioA_we [3:0] $end
    $var wire 32 3( ioA_wrdata [31:0] $end
    $var wire  8 3$ ioB_addr [7:0] $end
    $var wire  1 #$ ioB_en $end
    $var wire 32 )# ioB_rddata [31:0] $end
    $var wire  4 +$ ioB_we [3:0] $end
    $var wire 32 A' ioB_wrdata [31:0] $end
    $var wire  1 K( reseta $end
    $var wire  1 K( resetb $end
   $upscope $end
   $scope module auroraArea_auroraTxBlockRam $end
    $var wire  1 S( clka $end
    $var wire  1 C( clkb $end
    $var wire  9 /* i [8:0] $end
    $var wire  8 c( ioA_addr [7:0] $end
    $var wire  1 ;$ ioA_en $end
    $var wire 32 !# ioA_rddata [31:0] $end
    $var wire  4 }) ioA_we [3:0] $end
    $var wire 32 '* ioA_wrdata [31:0] $end
    $var wire  8 a' ioB_addr [7:0] $end
    $var wire  1 Q' ioB_en $end
    $var wire 32 7" ioB_rddata [31:0] $end
    $var wire  4 Y' ioB_we [3:0] $end
    $var wire 32 i' ioB_wrdata [31:0] $end
    $var wire  1 K( reseta $end
    $var wire  1 K( resetb $end
   $upscope $end
   $scope module auroraArea_aurorarxcore $end
    $var wire  1 G" auroraRxArea_aurora_intrrupt $end
    $var wire 32 A# auroraRxArea_crc_data [31:0] $end
    $var wire  1 W" auroraRxArea_crc_status $end
    $var wire  8 9# auroraRxArea_data_cnt [7:0] $end
    $var wire  8 1# auroraRxArea_length [7:0] $end
    $var wire  8 3$ auroraRxArea_mem_addr [7:0] $end
    $var wire 32 O" auroraRxArea_mem_data [31:0] $end
    $var wire  1 #$ auroraRxArea_mem_wren $end
    $var wire  4 +$ auroraRxArea_mem_wrwe [3:0] $end
    $var wire  3 C$ auroraRxArea_stateMachine_state [2:0] $end
    $var wire 64 %! auroraRxArea_stateMachine_state_string [63:0] $end
    $var wire  1 S( aurora_userclk $end
    $var wire  1 1' axir_fire $end
    $var wire  1 1' axir_fire_1 $end
    $var wire  1 1' axir_fire_2 $end
    $var wire  1 1' axir_fire_3 $end
    $var wire  1 1' axir_fire_4 $end
    $var wire  1 1' axir_fire_5 $end
    $var wire  1 1' axir_fire_6 $end
    $var wire  1 1' axir_fire_7 $end
    $var wire  1 1' axir_fire_8 $end
    $var wire  1 1' axir_fire_9 $end
    $var wire 32 A' axir_payload_data [31:0] $end
    $var wire  1 I' axir_payload_last $end
    $var wire  1 u) axir_ready $end
    $var wire  1 1' axir_valid $end
    $var wire  8 3$ bram_addr [7:0] $end
    $var wire  1 S( bram_clkout $end
    $var wire  1 #$ bram_en $end
    $var wire 32 )# bram_rddata [31:0] $end
    $var wire  1 K( bram_resetout $end
    $var wire  4 +$ bram_we [3:0] $end
    $var wire 32 A' bram_wrdata [31:0] $end
    $var wire 32 K crc32_2_crc_o [31:0] $end
    $var wire  1 G" intrrupt $end
    $var wire  1 K( reset $end
    $var wire  1 E) when_Gtx_Rx_l100 $end
    $var wire  1 S when_Gtx_Rx_l106 $end
    $var wire  1 [ when_Gtx_Rx_l111 $end
    $var wire  1 M) when_Gtx_Rx_l113 $end
    $var wire  1 c when_Gtx_Rx_l120 $end
    $var wire  1 {( when_Gtx_Rx_l47 $end
    $var wire  1 %) when_Gtx_Rx_l54 $end
    $var wire  1 # when_Gtx_Rx_l70 $end
    $var wire  1 -) when_Gtx_Rx_l79 $end
    $var wire  1 5) when_Gtx_Rx_l88 $end
    $var wire  1 =) when_Gtx_Rx_l89 $end
    $var wire  1 K$ when_Gtx_Rx_l98 $end
    $scope module crc32_2 $end
     $var wire 32 A# crc_i [31:0] $end
     $var wire 32 K crc_o [31:0] $end
     $var wire 32 A' data_i [31:0] $end
    $upscope $end
   $upscope $end
   $scope module auroraArea_auroratxcore $end
    $var wire  1 S$ auroraTxArea_axi_last $end
    $var wire  1 k auroraTxArea_axi_last_1 $end
    $var wire  1 3 auroraTxArea_axi_last_2 $end
    $var wire 32 '* auroraTxArea_axi_txdata [31:0] $end
    $var wire 32 E! auroraTxArea_axi_txdata_1 [31:0] $end
    $var wire 32 =! auroraTxArea_axi_txdata_2 [31:0] $end
    $var wire 32 /" auroraTxArea_axi_txdata_3 [31:0] $end
    $var wire 32 '" auroraTxArea_axi_txdata_4 [31:0] $end
    $var wire 32 }! auroraTxArea_axi_txdata_5 [31:0] $end
    $var wire 32 u! auroraTxArea_axi_txdata_6 [31:0] $end
    $var wire 32 e! auroraTxArea_axi_txdata_7 [31:0] $end
    $var wire 32 k$ auroraTxArea_axi_txhead [31:0] $end
    $var wire 32 I# auroraTxArea_crc_data [31:0] $end
    $var wire  8 {$ auroraTxArea_data_cnt [7:0] $end
    $var wire  8 s$ auroraTxArea_length [7:0] $end
    $var wire  8 c( auroraTxArea_mem_addr [7:0] $end
    $var wire  8 [$ auroraTxArea_mem_addrtemp [7:0] $end
    $var wire 32 !# auroraTxArea_mem_data [31:0] $end
    $var wire  1 ;$ auroraTxArea_mem_rden $end
    $var wire  3 U% auroraTxArea_stateMachine_state [2:0] $end
    $var wire 64 M! auroraTxArea_stateMachine_state_string [63:0] $end
    $var wire  1 S( aurora_userclk $end
    $var wire  1 s axiw_fire $end
    $var wire  1 e) axiw_fire_1 $end
    $var wire  1 s axiw_fire_2 $end
    $var wire  1 s axiw_fire_3 $end
    $var wire  1 e) axiw_fire_4 $end
    $var wire  1 e) axiw_fire_5 $end
    $var wire  1 e) axiw_fire_6 $end
    $var wire  1 e) axiw_fire_7 $end
    $var wire  1 e) axiw_fire_8 $end
    $var wire 32 e! axiw_payload_data [31:0] $end
    $var wire  1 3 axiw_payload_last $end
    $var wire  1 w& axiw_ready $end
    $var wire  1 + axiw_valid $end
    $var wire  8 c( bram_addr [7:0] $end
    $var wire  1 S( bram_clkout $end
    $var wire  1 ;$ bram_en $end
    $var wire 32 !# bram_rddata [31:0] $end
    $var wire  1 K( bram_resetout $end
    $var wire  4 }) bram_we [3:0] $end
    $var wire 32 '* bram_wrdata [31:0] $end
    $var wire 32 m! crc32_2_crc_o [31:0] $end
    $var wire  1 K( reset $end
    $var wire 32 5% tx_head [31:0] $end
    $var wire  1 c$ tx_start $end
    $var wire  1 w" tx_trigger $end
    $var wire  1 -% when_Gtx_Tx_l104 $end
    $var wire  1 ]% when_Gtx_Tx_l124 $end
    $var wire  1 e% when_Gtx_Tx_l126 $end
    $var wire  1 m% when_Gtx_Tx_l128 $end
    $var wire  1 u% when_Gtx_Tx_l130 $end
    $var wire  1 }% when_Gtx_Tx_l132 $end
    $var wire  1 '& when_Gtx_Tx_l134 $end
    $var wire  1 { when_Gtx_Tx_l140 $end
    $var wire  1 ]% when_Gtx_Tx_l146 $end
    $var wire  1 m) when_Gtx_Tx_l148 $end
    $var wire  1 U) when_Gtx_Tx_l66 $end
    $var wire  1 ]) when_Gtx_Tx_l68 $end
    $var wire  1 %% when_Gtx_Tx_l81 $end
    $scope module crc32_2 $end
     $var wire 32 I# crc_i [31:0] $end
     $var wire 32 m! crc_o [31:0] $end
     $var wire 32 e! data_i [31:0] $end
    $upscope $end
   $upscope $end
  $upscope $end
 $upscope $end
$enddefinitions $end


#0
0#
0+
03
0;
0C
b10110010101101100001010110011111 K
0S
0[
0c
0k
0s
0{
b0100100101000100010011000100010100100000001000000010000000100000 %!
05!
b00000000000000000000000000000000 =!
b00000000000000000000000000000000 E!
b0100100101000100010011000100010100100000001000000010000000100000 M!
0]!
b00000000000000000000000000000000 e!
b01110001011001110001110000010010 m!
b00000000000000000000000000000000 u!
b00000000000000000000000000000000 }!
b00000000000000000000000000000000 '"
b00000000000000000000000000000000 /"
b10111101100100000000010011110101 7"
b00100001010010010101101001101000 ?"
0G"
b00000000000000000000000000000000 O"
0W"
0_"
0g"
0o"
0w"
b01001111010010011110011101100110 !#
b10101011111110011111011110101010 )#
b00010010 1#
b00011100 9#
b01011101110110011101100001010001 A#
b01110100010011101110010001001010 I#
0Q#
1Y#
0a#
0i#
1q#
1y#
0#$
b0000 +$
b00000000 3$
0;$
b000 C$
1K$
0S$
b00000000 [$
0c$
b01100100011111000100010111100001 k$
b10000011 s$
b00001101 {$
0%%
1-%
b01010001001111011010011110111111 5%
0=%
1E%
0M%
b000 U%
0]%
0e%
0m%
0u%
0}%
0'&
b00001110101000100100 /&
07&
0?&
1G&
0O&
b10001110100001001111100011101010 W&
b00000000000000000000000000000000 _&
0g&
0o&
0w&
b00000000000000000000000000000000 !'
0)'
11'
19'
b10011000100011000011100011110111 A'
1I'
1Q'
b0011 Y'
b01110100 a'
b11110010000011110011111011001100 i'
b10111101100100000000010011110101 q'
0y'
b0011 #(
b01001010 +(
b00011111101001010011001000100000 3(
b00100001010010010101101001101000 ;(
0C(
1K(
0S(
0[(
b11111111 c(
0k(
0s(
0{(
0%)
1-)
15)
0=)
0E)
0M)
0U)
0])
0e)
0m)
1u)
b0000 })
b00000000000000000000000000000000 '*
b001010010 /*
b010001110 7*
#160
0K(
#170
1w"
0Y#
1a#
0q#
1c$
0E%
1M%
1C(
1])
#175
0C(
#180
0a#
0y#
0M%
1C(
#185
0C(
#190
0w"
0c$
1C(
0])
#195
0C(
#200
1C(
#205
0C(
#210
1C(
#215
0C(
#220
1C(
#225
0C(
#230
1C(
#235
0C(
#240
1C(
#245
0C(
#250
1C(
#255
0C(
#260
1C(
#265
0C(
#270
1C(
#275
0C(
#280
1C(
#285
0C(
#290
1C(
#295
0C(
#300
1C(
#305
0C(
#310
1C(
#315
0C(
#320
1C(
#325
0C(
#330
1C(
#335
0C(
#340
b10100111101010001000001100000000 K
b11111111111111111111111111111111 A#
b01010001001111011010011110111111 k$
1C(
1S(
#345
0C(
#350
1C(
0S(
#355
0C(
#360
1C(
1S(
#365
0C(
#370
1C(
0S(
#375
0C(
#380
1C(
1S(
#385
0C(
#390
1C(
0S(
#395
0C(
#400
1C(
1S(
#405
0C(
#410
1C(
0S(
#415
0C(
#420
1C(
1S(
#425
0C(
#430
1C(
0S(
#435
0C(
#440
1C(
1S(
#445
0C(
#450
1C(
0S(
#455
0C(
#460
b00000000000000000000 /&
17&
1O&
b00000000000000000000001100000101 W&
1C(
1S(
#465
0C(
#470
1;
1?&
1C(
0S(
1k(
#475
0C(
#480
0;
b00000000000000000100 /&
0?&
b00000000000000000000000000000001 W&
1C(
1S(
0k(
#485
0C(
#490
1;
1?&
1C(
0S(
1k(
#495
0C(
#500
0;
0?&
b00000000000000000000000000000000 W&
1C(
1S(
0k(
#505
0C(
#510
1;
1?&
1C(
0S(
1k(
#515
0C(
#520
0;
b11111111001011001011 /&
07&
0O&
b11010111110110001010010010111001 W&
1C(
1S(
0k(
