SPINAL_TEST/simWorkspace/AuroraTop/test.vcd
$version Generated by VerilatedVcd $end
$date Thu Aug 12 15:25:51 2021
 $end
$timescale   1ns $end

 $scope module TOP $end
  $var wire 20 ]% apb_PADDR [19:0] $end
  $var wire  1 m% apb_PENABLE $end
  $var wire 32 /& apb_PRDATA [31:0] $end
  $var wire  1 u% apb_PREADY $end
  $var wire  1 e% apb_PSEL [0:0] $end
  $var wire  1 7& apb_PSLVERROR $end
  $var wire 32 '& apb_PWDATA [31:0] $end
  $var wire  1 }% apb_PWRITE $end
  $var wire  1 A' aurora_userclk $end
  $var wire  1 1' clk $end
  $var wire  1 9' reset $end
  $var wire  8 w& rx_bram_addr [7:0] $end
  $var wire  1 g& rx_bram_en $end
  $var wire 32 )' rx_bram_rddata [31:0] $end
  $var wire  4 o& rx_bram_we [3:0] $end
  $var wire 32 !' rx_bram_wrdata [31:0] $end
  $var wire  8 O& tx_bram_addr [7:0] $end
  $var wire  1 ?& tx_bram_en $end
  $var wire 32 _& tx_bram_rddata [31:0] $end
  $var wire  4 G& tx_bram_we [3:0] $end
  $var wire 32 W& tx_bram_wrdata [31:0] $end
  $scope module AuroraTop $end
   $var wire 20 ]% apb_PADDR [19:0] $end
   $var wire  1 m% apb_PENABLE $end
   $var wire 32 /& apb_PRDATA [31:0] $end
   $var wire  1 u% apb_PREADY $end
   $var wire  1 e% apb_PSEL [0:0] $end
   $var wire  1 7& apb_PSLVERROR $end
   $var wire 32 '& apb_PWDATA [31:0] $end
   $var wire  1 }% apb_PWRITE $end
   $var wire 32 G" auroraArea_auroraRxBlockRam_ioA_rddata [31:0] $end
   $var wire 32 o" auroraArea_auroraRxBlockRam_ioB_rddata [31:0] $end
   $var wire 32 g" auroraArea_auroraTxBlockRam_ioA_rddata [31:0] $end
   $var wire 32 ?" auroraArea_auroraTxBlockRam_ioB_rddata [31:0] $end
   $var wire  1 Y' auroraArea_aurorarxcore_axir_ready $end
   $var wire  8 I# auroraArea_aurorarxcore_bram_addr [7:0] $end
   $var wire  1 A' auroraArea_aurorarxcore_bram_clkout $end
   $var wire  1 9# auroraArea_aurorarxcore_bram_en $end
   $var wire  1 9' auroraArea_aurorarxcore_bram_resetout $end
   $var wire  4 A# auroraArea_aurorarxcore_bram_we [3:0] $end
   $var wire 32 U! auroraArea_aurorarxcore_bram_wrdata [31:0] $end
   $var wire  1 O" auroraArea_aurorarxcore_intrrupt $end
   $var wire 32 U! auroraArea_auroratxcore_axiw_payload_data [31:0] $end
   $var wire  1 K auroraArea_auroratxcore_axiw_payload_last $end
   $var wire  1 k$ auroraArea_auroratxcore_axiw_valid $end
   $var wire  8 y# auroraArea_auroratxcore_bram_addr [7:0] $end
   $var wire  1 A' auroraArea_auroratxcore_bram_clkout $end
   $var wire  1 Q# auroraArea_auroratxcore_bram_en $end
   $var wire  1 9' auroraArea_auroratxcore_bram_resetout $end
   $var wire  4 a' auroraArea_auroratxcore_bram_we [3:0] $end
   $var wire 32 i' auroraArea_auroratxcore_bram_wrdata [31:0] $end
   $var wire  1 S$ auroraArea_auroratxcore_tx_start $end
   $var wire  1 [$ auroraArea_auroratxcore_tx_trigger $end
   $var wire  1 A' aurora_userclk $end
   $var wire  1 1' clk $end
   $var wire  1 9' reset $end
   $var wire  8 w& rx_bram_addr [7:0] $end
   $var wire  1 g& rx_bram_en $end
   $var wire 32 )' rx_bram_rddata [31:0] $end
   $var wire  4 o& rx_bram_we [3:0] $end
   $var wire 32 !' rx_bram_wrdata [31:0] $end
   $var wire  1 Q' toparea_ctrl_askRead $end
   $var wire  1 I' toparea_ctrl_askWrite $end
   $var wire  1 Q' toparea_ctrl_doRead $end
   $var wire  1 M! toparea_ctrl_doWrite $end
   $var wire 32 c$ toparea_tx_ctrl [31:0] $end
   $var wire 32 U% toparea_tx_headtemp [31:0] $end
   $var wire  8 O& tx_bram_addr [7:0] $end
   $var wire  1 ?& tx_bram_en $end
   $var wire 32 _& tx_bram_rddata [31:0] $end
   $var wire  4 G& tx_bram_we [3:0] $end
   $var wire 32 W& tx_bram_wrdata [31:0] $end
   $scope module auroraArea_auroraRxBlockRam $end
    $var wire  1 1' clka $end
    $var wire  1 A' clkb $end
    $var wire  9 #( i [8:0] $end
    $var wire  8 w& ioA_addr [7:0] $end
    $var wire  1 g& ioA_en $end
    $var wire 32 G" ioA_rddata [31:0] $end
    $var wire  4 o& ioA_we [3:0] $end
    $var wire 32 !' ioA_wrdata [31:0] $end
    $var wire  8 I# ioB_addr [7:0] $end
    $var wire  1 9# ioB_en $end
    $var wire 32 o" ioB_rddata [31:0] $end
    $var wire  4 A# ioB_we [3:0] $end
    $var wire 32 U! ioB_wrdata [31:0] $end
    $var wire  1 9' reseta $end
    $var wire  1 9' resetb $end
   $upscope $end
   $scope module auroraArea_auroraTxBlockRam $end
    $var wire  1 A' clka $end
    $var wire  1 1' clkb $end
    $var wire  9 y' i [8:0] $end
    $var wire  8 y# ioA_addr [7:0] $end
    $var wire  1 Q# ioA_en $end
    $var wire 32 g" ioA_rddata [31:0] $end
    $var wire  4 a' ioA_we [3:0] $end
    $var wire 32 i' ioA_wrdata [31:0] $end
    $var wire  8 O& ioB_addr [7:0] $end
    $var wire  1 ?& ioB_en $end
    $var wire 32 ?" ioB_rddata [31:0] $end
    $var wire  4 G& ioB_we [3:0] $end
    $var wire 32 W& ioB_wrdata [31:0] $end
    $var wire  1 9' reseta $end
    $var wire  1 9' resetb $end
   $upscope $end
   $scope module auroraArea_aurorarxcore $end
    $var wire  1 O" auroraRxArea_aurora_intrrupt $end
    $var wire 32 )# auroraRxArea_crc_data [31:0] $end
    $var wire  1 _" auroraRxArea_crc_status $end
    $var wire  8 !# auroraRxArea_data_cnt [7:0] $end
    $var wire  8 w" auroraRxArea_length [7:0] $end
    $var wire  8 I# auroraRxArea_mem_addr [7:0] $end
    $var wire 32 W" auroraRxArea_mem_data [31:0] $end
    $var wire  1 9# auroraRxArea_mem_wren $end
    $var wire  4 A# auroraRxArea_mem_wrwe [3:0] $end
    $var wire  3 Y# auroraRxArea_stateMachine_state [2:0] $end
    $var wire 64 ; auroraRxArea_stateMachine_state_string [63:0] $end
    $var wire  1 A' aurora_userclk $end
    $var wire  1 k$ axir_fire $end
    $var wire  1 k$ axir_fire_1 $end
    $var wire  1 k$ axir_fire_2 $end
    $var wire  1 k$ axir_fire_3 $end
    $var wire  1 k$ axir_fire_4 $end
    $var wire  1 k$ axir_fire_5 $end
    $var wire  1 k$ axir_fire_6 $end
    $var wire  1 k$ axir_fire_7 $end
    $var wire  1 k$ axir_fire_8 $end
    $var wire  1 k$ axir_fire_9 $end
    $var wire 32 U! axir_payload_data [31:0] $end
    $var wire  1 K axir_payload_last $end
    $var wire  1 Y' axir_ready $end
    $var wire  1 k$ axir_valid $end
    $var wire  8 I# bram_addr [7:0] $end
    $var wire  1 A' bram_clkout $end
    $var wire  1 9# bram_en $end
    $var wire 32 o" bram_rddata [31:0] $end
    $var wire  1 9' bram_resetout $end
    $var wire  4 A# bram_we [3:0] $end
    $var wire 32 U! bram_wrdata [31:0] $end
    $var wire 32 ]! crc32_2_crc_o [31:0] $end
    $var wire  1 O" intrrupt $end
    $var wire  1 9' reset $end
    $var wire  1 #$ when_Gtx_Rx_l100 $end
    $var wire  1 [ when_Gtx_Rx_l106 $end
    $var wire  1 c when_Gtx_Rx_l111 $end
    $var wire  1 m! when_Gtx_Rx_l113 $end
    $var wire  1 k when_Gtx_Rx_l120 $end
    $var wire  1 E! when_Gtx_Rx_l47 $end
    $var wire  1 e! when_Gtx_Rx_l54 $end
    $var wire  1 + when_Gtx_Rx_l70 $end
    $var wire  1 3 when_Gtx_Rx_l79 $end
    $var wire  1 S when_Gtx_Rx_l88 $end
    $var wire  1 # when_Gtx_Rx_l89 $end
    $var wire  1 a# when_Gtx_Rx_l98 $end
    $scope module crc32_2 $end
     $var wire 32 )# crc_i [31:0] $end
     $var wire 32 ]! crc_o [31:0] $end
     $var wire 32 U! data_i [31:0] $end
    $upscope $end
   $upscope $end
   $scope module auroraArea_auroratxcore $end
    $var wire  1 i# auroraTxArea_axi_last $end
    $var wire  1 s auroraTxArea_axi_last_1 $end
    $var wire  1 K auroraTxArea_axi_last_2 $end
    $var wire 32 i' auroraTxArea_axi_txdata [31:0] $end
    $var wire 32 %! auroraTxArea_axi_txdata_1 [31:0] $end
    $var wire 32 { auroraTxArea_axi_txdata_2 [31:0] $end
    $var wire 32 7" auroraTxArea_axi_txdata_3 [31:0] $end
    $var wire 32 /" auroraTxArea_axi_txdata_4 [31:0] $end
    $var wire 32 '" auroraTxArea_axi_txdata_5 [31:0] $end
    $var wire 32 }! auroraTxArea_axi_txdata_6 [31:0] $end
    $var wire 32 U! auroraTxArea_axi_txdata_7 [31:0] $end
    $var wire 32 +$ auroraTxArea_axi_txhead [31:0] $end
    $var wire 32 1# auroraTxArea_crc_data [31:0] $end
    $var wire  8 ;$ auroraTxArea_data_cnt [7:0] $end
    $var wire  8 3$ auroraTxArea_length [7:0] $end
    $var wire  8 y# auroraTxArea_mem_addr [7:0] $end
    $var wire  8 q# auroraTxArea_mem_addrtemp [7:0] $end
    $var wire 32 g" auroraTxArea_mem_data [31:0] $end
    $var wire  1 Q# auroraTxArea_mem_rden $end
    $var wire  3 s$ auroraTxArea_stateMachine_state [2:0] $end
    $var wire 64 5! auroraTxArea_stateMachine_state_string [63:0] $end
    $var wire  1 A' aurora_userclk $end
    $var wire  1 k$ axiw_fire $end
    $var wire  1 k$ axiw_fire_1 $end
    $var wire  1 k$ axiw_fire_2 $end
    $var wire  1 k$ axiw_fire_3 $end
    $var wire  1 k$ axiw_fire_4 $end
    $var wire  1 k$ axiw_fire_5 $end
    $var wire  1 k$ axiw_fire_6 $end
    $var wire  1 k$ axiw_fire_7 $end
    $var wire  1 k$ axiw_fire_8 $end
    $var wire 32 U! axiw_payload_data [31:0] $end
    $var wire  1 K axiw_payload_last $end
    $var wire  1 Y' axiw_ready $end
    $var wire  1 k$ axiw_valid $end
    $var wire  8 y# bram_addr [7:0] $end
    $var wire  1 A' bram_clkout $end
    $var wire  1 Q# bram_en $end
    $var wire 32 g" bram_rddata [31:0] $end
    $var wire  1 9' bram_resetout $end
    $var wire  4 a' bram_we [3:0] $end
    $var wire 32 i' bram_wrdata [31:0] $end
    $var wire 32 u! crc32_2_crc_o [31:0] $end
    $var wire  1 9' reset $end
    $var wire 32 U% tx_head [31:0] $end
    $var wire  1 S$ tx_start $end
    $var wire  1 [$ tx_trigger $end
    $var wire  1 K$ when_Gtx_Tx_l104 $end
    $var wire  1 {$ when_Gtx_Tx_l124 $end
    $var wire  1 %% when_Gtx_Tx_l126 $end
    $var wire  1 -% when_Gtx_Tx_l128 $end
    $var wire  1 5% when_Gtx_Tx_l130 $end
    $var wire  1 =% when_Gtx_Tx_l132 $end
    $var wire  1 E% when_Gtx_Tx_l134 $end
    $var wire  1 -! when_Gtx_Tx_l140 $end
    $var wire  1 {$ when_Gtx_Tx_l146 $end
    $var wire  1 M% when_Gtx_Tx_l148 $end
    $var wire  1 S$ when_Gtx_Tx_l66 $end
    $var wire  1 q' when_Gtx_Tx_l68 $end
    $var wire  1 C$ when_Gtx_Tx_l81 $end
    $scope module crc32_2 $end
     $var wire 32 1# crc_i [31:0] $end
     $var wire 32 u! crc_o [31:0] $end
     $var wire 32 U! data_i [31:0] $end
    $upscope $end
   $upscope $end
  $upscope $end
 $upscope $end
$enddefinitions $end


#0
0#
1+
13
b0100100101000100010011000100010100100000001000000010000000100000 ;
0K
0S
0[
0c
0k
0s
b00000000000000000000000000000000 {
b00000000000000000000000000000000 %!
0-!
b0100100101000100010011000100010100100000001000000010000000100000 5!
0E!
0M!
b00000000000000000000000000000000 U!
b01010001111111011010101010111101 ]!
0e!
1m!
b01001000110111100101010011100111 u!
b00000000000000000000000000000000 }!
b00000000000000000000000000000000 '"
b00000000000000000000000000000000 /"
b00000000000000000000000000000000 7"
b10110010101010010010011000001100 ?"
b01000111001100010000110011010110 G"
0O"
b00000000000000000000000000000000 W"
0_"
b10010110010011000010010100110000 g"
b11010111110000101000101001011001 o"
b10110110 w"
b10100111 !#
b00000110111100001000111010101101 )#
b01001101110011010000001111011101 1#
09#
b0000 A#
b00000000 I#
0Q#
b000 Y#
1a#
0i#
b00000000 q#
b11111111 y#
0#$
b10110110011101110100011101000000 +$
b11111010 3$
b11001110 ;$
0C$
1K$
0S$
0[$
b00000000000000000000000000000000 c$
0k$
b000 s$
0{$
0%%
0-%
05%
0=%
0E%
0M%
b00111110101101101011101110001011 U%
b01101001001100100010 ]%
0e%
0m%
1u%
0}%
b01110111001001011101110111000000 '&
b00000000000000000000000000000000 /&
07&
1?&
b0010 G&
b10000000 O&
b01000000000111000010111111111100 W&
b10110010101010010010011000001100 _&
0g&
b1110 o&
b01111100 w&
b01100101110011100111011101101100 !'
b01000111001100010000110011010110 )'
01'
19'
0A'
0I'
0Q'
1Y'
b0000 a'
b00000000000000000000000000000000 i'
0q'
b111010011 y'
b000010000 #(
#160
09'
#170
11'
#175
01'
#180
11'
#185
01'
#190
11'
#195
01'
#200
11'
#205
01'
#210
11'
#215
01'
#220
11'
#225
01'
#230
11'
#235
01'
#240
11'
#245
01'
#250
11'
#255
01'
#260
11'
#265
01'
#270
11'
#275
01'
#280
11'
#285
01'
#290
11'
#295
01'
#300
11'
#305
01'
#310
11'
#315
01'
#320
11'
#325
01'
#330
11'
#335
01'
#340
b11000111000001001101110101111011 ]!
b11111111111111111111111111111111 )#
b00111110101101101011101110001011 +$
11'
1A'
#345
01'
#350
11'
0A'
#355
01'
#360
11'
1A'
#365
01'
#370
11'
0A'
#375
01'
#380
11'
1A'
#385
01'
#390
11'
0A'
#395
01'
#400
11'
1A'
#405
01'
#410
11'
0A'
#415
01'
#420
11'
1A'
#425
01'
#430
11'
0A'
#435
01'
#440
11'
1A'
#445
01'
#450
11'
0A'
#455
01'
#460
b00000000000000000000 ]%
1e%
1}%
b00000000000000000000001100000101 '&
11'
1A'
#465
01'
#470
1M!
1m%
11'
0A'
1I'
#475
01'
#480
0M!
b00000000000000000100 ]%
0m%
b00000000000000000000000000000001 '&
11'
1A'
0I'
#485
01'
#490
1M!
1m%
11'
0A'
1I'
#495
01'
#500
0M!
0m%
b00000000000000000000000000000000 '&
11'
1A'
0I'
#505
01'
#510
1M!
1m%
11'
0A'
1I'
#515
01'
#520
0M!
b00101010100010010001 ]%
0e%
0m%
0}%
b01000011101010110101001011000100 '&
11'
1A'
0I'
