SPINAL_TEST/simWorkspace/AuroraTop/test.vcd
$version Generated by VerilatedVcd $end
$date Fri Aug 13 10:40:22 2021
 $end
$timescale   1ns $end

 $scope module TOP $end
  $var wire 20 {$ apb_PADDR [19:0] $end
  $var wire  1 -% apb_PENABLE $end
  $var wire 32 M% apb_PRDATA [31:0] $end
  $var wire  1 5% apb_PREADY $end
  $var wire  1 %% apb_PSEL [0:0] $end
  $var wire  1 U% apb_PSLVERROR $end
  $var wire 32 E% apb_PWDATA [31:0] $end
  $var wire  1 =% apb_PWRITE $end
  $var wire  1 A' aurora_userclk $end
  $var wire 32 /& axir_payload_data [31:0] $end
  $var wire  1 7& axir_payload_last $end
  $var wire  1 '& axir_ready $end
  $var wire  1 }% axir_valid $end
  $var wire 32 m% axiw_payload_data [31:0] $end
  $var wire  1 u% axiw_payload_last $end
  $var wire  1 e% axiw_ready $end
  $var wire  1 ]% axiw_valid $end
  $var wire  1 1' clk $end
  $var wire  1 I' intrrupt $end
  $var wire  1 9' reset $end
  $var wire  8 w& rx_bram_addr [7:0] $end
  $var wire  1 g& rx_bram_en $end
  $var wire 32 )' rx_bram_rddata [31:0] $end
  $var wire  4 o& rx_bram_we [3:0] $end
  $var wire 32 !' rx_bram_wrdata [31:0] $end
  $var wire  8 O& tx_bram_addr [7:0] $end
  $var wire  1 ?& tx_bram_en $end
  $var wire 32 _& tx_bram_rddata [31:0] $end
  $var wire  4 G& tx_bram_we [3:0] $end
  $var wire 32 W& tx_bram_wrdata [31:0] $end
  $scope module AuroraTop $end
   $var wire 20 {$ apb_PADDR [19:0] $end
   $var wire  1 -% apb_PENABLE $end
   $var wire 32 M% apb_PRDATA [31:0] $end
   $var wire  1 5% apb_PREADY $end
   $var wire  1 %% apb_PSEL [0:0] $end
   $var wire  1 U% apb_PSLVERROR $end
   $var wire 32 E% apb_PWDATA [31:0] $end
   $var wire  1 =% apb_PWRITE $end
   $var wire 32 '" auroraArea_auroraRxBlockRam_ioA_rddata [31:0] $end
   $var wire 32 O" auroraArea_auroraRxBlockRam_ioB_rddata [31:0] $end
   $var wire 32 G" auroraArea_auroraTxBlockRam_ioA_rddata [31:0] $end
   $var wire 32 }! auroraArea_auroraTxBlockRam_ioB_rddata [31:0] $end
   $var wire  1 c( auroraArea_aurorarxcore_axir_ready $end
   $var wire  8 )# auroraArea_aurorarxcore_bram_addr [7:0] $end
   $var wire  1 A' auroraArea_aurorarxcore_bram_clkout $end
   $var wire  1 w" auroraArea_aurorarxcore_bram_en $end
   $var wire  1 9' auroraArea_aurorarxcore_bram_resetout $end
   $var wire  4 !# auroraArea_aurorarxcore_bram_we [3:0] $end
   $var wire 32 /& auroraArea_aurorarxcore_bram_wrdata [31:0] $end
   $var wire  1 /" auroraArea_aurorarxcore_intrrupt $end
   $var wire 32 M! auroraArea_auroratxcore_axiw_payload_data [31:0] $end
   $var wire  1 3 auroraArea_auroratxcore_axiw_payload_last $end
   $var wire  1 + auroraArea_auroratxcore_axiw_valid $end
   $var wire  8 Q' auroraArea_auroratxcore_bram_addr [7:0] $end
   $var wire  1 A' auroraArea_auroratxcore_bram_clkout $end
   $var wire  1 1# auroraArea_auroratxcore_bram_en $end
   $var wire  1 9' auroraArea_auroratxcore_bram_resetout $end
   $var wire  4 k( auroraArea_auroratxcore_bram_we [3:0] $end
   $var wire 32 s( auroraArea_auroratxcore_bram_wrdata [31:0] $end
   $var wire  1 #$ auroraArea_auroratxcore_tx_start $end
   $var wire  1 +$ auroraArea_auroratxcore_tx_trigger $end
   $var wire  1 A' aurora_userclk $end
   $var wire 32 /& axir_payload_data [31:0] $end
   $var wire  1 7& axir_payload_last $end
   $var wire  1 '& axir_ready $end
   $var wire  1 }% axir_valid $end
   $var wire 32 m% axiw_payload_data [31:0] $end
   $var wire  1 u% axiw_payload_last $end
   $var wire  1 e% axiw_ready $end
   $var wire  1 ]% axiw_valid $end
   $var wire  1 1' clk $end
   $var wire  1 I' intrrupt $end
   $var wire  1 9' reset $end
   $var wire  8 w& rx_bram_addr [7:0] $end
   $var wire  1 g& rx_bram_en $end
   $var wire 32 )' rx_bram_rddata [31:0] $end
   $var wire  4 o& rx_bram_we [3:0] $end
   $var wire 32 !' rx_bram_wrdata [31:0] $end
   $var wire  1 a' toparea_ctrl_askRead $end
   $var wire  1 Y' toparea_ctrl_askWrite $end
   $var wire  1 a' toparea_ctrl_doRead $end
   $var wire  1 ; toparea_ctrl_doWrite $end
   $var wire 32 3$ toparea_tx_ctrl [31:0] $end
   $var wire 32 s$ toparea_tx_headtemp [31:0] $end
   $var wire  8 O& tx_bram_addr [7:0] $end
   $var wire  1 ?& tx_bram_en $end
   $var wire 32 _& tx_bram_rddata [31:0] $end
   $var wire  4 G& tx_bram_we [3:0] $end
   $var wire 32 W& tx_bram_wrdata [31:0] $end
   $scope module auroraArea_auroraRxBlockRam $end
    $var wire  1 1' clka $end
    $var wire  1 A' clkb $end
    $var wire  9 %) i [8:0] $end
    $var wire  8 w& ioA_addr [7:0] $end
    $var wire  1 g& ioA_en $end
    $var wire 32 '" ioA_rddata [31:0] $end
    $var wire  4 o& ioA_we [3:0] $end
    $var wire 32 !' ioA_wrdata [31:0] $end
    $var wire  8 )# ioB_addr [7:0] $end
    $var wire  1 w" ioB_en $end
    $var wire 32 O" ioB_rddata [31:0] $end
    $var wire  4 !# ioB_we [3:0] $end
    $var wire 32 /& ioB_wrdata [31:0] $end
    $var wire  1 9' reseta $end
    $var wire  1 9' resetb $end
   $upscope $end
   $scope module auroraArea_auroraTxBlockRam $end
    $var wire  1 A' clka $end
    $var wire  1 1' clkb $end
    $var wire  9 {( i [8:0] $end
    $var wire  8 Q' ioA_addr [7:0] $end
    $var wire  1 1# ioA_en $end
    $var wire 32 G" ioA_rddata [31:0] $end
    $var wire  4 k( ioA_we [3:0] $end
    $var wire 32 s( ioA_wrdata [31:0] $end
    $var wire  8 O& ioB_addr [7:0] $end
    $var wire  1 ?& ioB_en $end
    $var wire 32 }! ioB_rddata [31:0] $end
    $var wire  4 G& ioB_we [3:0] $end
    $var wire 32 W& ioB_wrdata [31:0] $end
    $var wire  1 9' reseta $end
    $var wire  1 9' resetb $end
   $upscope $end
   $scope module auroraArea_aurorarxcore $end
    $var wire  1 /" auroraRxArea_aurora_intrrupt $end
    $var wire 32 g" auroraRxArea_crc_data [31:0] $end
    $var wire  1 ?" auroraRxArea_crc_status $end
    $var wire  8 _" auroraRxArea_data_cnt [7:0] $end
    $var wire  8 W" auroraRxArea_length [7:0] $end
    $var wire  8 )# auroraRxArea_mem_addr [7:0] $end
    $var wire 32 7" auroraRxArea_mem_data [31:0] $end
    $var wire  1 w" auroraRxArea_mem_wren $end
    $var wire  4 !# auroraRxArea_mem_wrwe [3:0] $end
    $var wire  3 9# auroraRxArea_stateMachine_state [2:0] $end
    $var wire 64 { auroraRxArea_stateMachine_state_string [63:0] $end
    $var wire  1 A' aurora_userclk $end
    $var wire  1 }% axir_fire $end
    $var wire  1 }% axir_fire_1 $end
    $var wire  1 }% axir_fire_2 $end
    $var wire  1 }% axir_fire_3 $end
    $var wire  1 }% axir_fire_4 $end
    $var wire  1 }% axir_fire_5 $end
    $var wire  1 }% axir_fire_6 $end
    $var wire  1 }% axir_fire_7 $end
    $var wire  1 }% axir_fire_8 $end
    $var wire  1 }% axir_fire_9 $end
    $var wire 32 /& axir_payload_data [31:0] $end
    $var wire  1 7& axir_payload_last $end
    $var wire  1 c( axir_ready $end
    $var wire  1 }% axir_valid $end
    $var wire  8 )# bram_addr [7:0] $end
    $var wire  1 A' bram_clkout $end
    $var wire  1 w" bram_en $end
    $var wire 32 O" bram_rddata [31:0] $end
    $var wire  1 9' bram_resetout $end
    $var wire  4 !# bram_we [3:0] $end
    $var wire 32 /& bram_wrdata [31:0] $end
    $var wire 32 C crc32_2_crc_o [31:0] $end
    $var wire  1 /" intrrupt $end
    $var wire  1 9' reset $end
    $var wire  1 3( when_Gtx_Rx_l100 $end
    $var wire  1 K when_Gtx_Rx_l106 $end
    $var wire  1 S when_Gtx_Rx_l111 $end
    $var wire  1 ;( when_Gtx_Rx_l113 $end
    $var wire  1 [ when_Gtx_Rx_l120 $end
    $var wire  1 i' when_Gtx_Rx_l47 $end
    $var wire  1 q' when_Gtx_Rx_l54 $end
    $var wire  1 # when_Gtx_Rx_l70 $end
    $var wire  1 y' when_Gtx_Rx_l79 $end
    $var wire  1 #( when_Gtx_Rx_l88 $end
    $var wire  1 +( when_Gtx_Rx_l89 $end
    $var wire  1 A# when_Gtx_Rx_l98 $end
    $scope module crc32_2 $end
     $var wire 32 g" crc_i [31:0] $end
     $var wire 32 C crc_o [31:0] $end
     $var wire 32 /& data_i [31:0] $end
    $upscope $end
   $upscope $end
   $scope module auroraArea_auroratxcore $end
    $var wire  1 I# auroraTxArea_axi_last $end
    $var wire  1 c auroraTxArea_axi_last_1 $end
    $var wire  1 3 auroraTxArea_axi_last_2 $end
    $var wire 32 s( auroraTxArea_axi_txdata [31:0] $end
    $var wire 32 5! auroraTxArea_axi_txdata_1 [31:0] $end
    $var wire 32 -! auroraTxArea_axi_txdata_2 [31:0] $end
    $var wire 32 u! auroraTxArea_axi_txdata_3 [31:0] $end
    $var wire 32 m! auroraTxArea_axi_txdata_4 [31:0] $end
    $var wire 32 e! auroraTxArea_axi_txdata_5 [31:0] $end
    $var wire 32 ]! auroraTxArea_axi_txdata_6 [31:0] $end
    $var wire 32 M! auroraTxArea_axi_txdata_7 [31:0] $end
    $var wire 32 Y# auroraTxArea_axi_txhead [31:0] $end
    $var wire 32 o" auroraTxArea_crc_data [31:0] $end
    $var wire  8 i# auroraTxArea_data_cnt [7:0] $end
    $var wire  8 a# auroraTxArea_length [7:0] $end
    $var wire  8 Q' auroraTxArea_mem_addr [7:0] $end
    $var wire  8 Q# auroraTxArea_mem_addrtemp [7:0] $end
    $var wire 32 G" auroraTxArea_mem_data [31:0] $end
    $var wire  1 1# auroraTxArea_mem_rden $end
    $var wire  3 ;$ auroraTxArea_stateMachine_state [2:0] $end
    $var wire 64 =! auroraTxArea_stateMachine_state_string [63:0] $end
    $var wire  1 A' aurora_userclk $end
    $var wire  1 k axiw_fire $end
    $var wire  1 S( axiw_fire_1 $end
    $var wire  1 k axiw_fire_2 $end
    $var wire  1 k axiw_fire_3 $end
    $var wire  1 S( axiw_fire_4 $end
    $var wire  1 S( axiw_fire_5 $end
    $var wire  1 S( axiw_fire_6 $end
    $var wire  1 S( axiw_fire_7 $end
    $var wire  1 S( axiw_fire_8 $end
    $var wire 32 M! axiw_payload_data [31:0] $end
    $var wire  1 3 axiw_payload_last $end
    $var wire  1 e% axiw_ready $end
    $var wire  1 + axiw_valid $end
    $var wire  8 Q' bram_addr [7:0] $end
    $var wire  1 A' bram_clkout $end
    $var wire  1 1# bram_en $end
    $var wire 32 G" bram_rddata [31:0] $end
    $var wire  1 9' bram_resetout $end
    $var wire  4 k( bram_we [3:0] $end
    $var wire 32 s( bram_wrdata [31:0] $end
    $var wire 32 U! crc32_2_crc_o [31:0] $end
    $var wire  1 9' reset $end
    $var wire 32 s$ tx_head [31:0] $end
    $var wire  1 #$ tx_start $end
    $var wire  1 +$ tx_trigger $end
    $var wire  1 y# when_Gtx_Tx_l104 $end
    $var wire  1 C$ when_Gtx_Tx_l124 $end
    $var wire  1 K$ when_Gtx_Tx_l126 $end
    $var wire  1 S$ when_Gtx_Tx_l128 $end
    $var wire  1 [$ when_Gtx_Tx_l130 $end
    $var wire  1 c$ when_Gtx_Tx_l132 $end
    $var wire  1 k$ when_Gtx_Tx_l134 $end
    $var wire  1 s when_Gtx_Tx_l140 $end
    $var wire  1 C$ when_Gtx_Tx_l146 $end
    $var wire  1 [( when_Gtx_Tx_l148 $end
    $var wire  1 C( when_Gtx_Tx_l66 $end
    $var wire  1 K( when_Gtx_Tx_l68 $end
    $var wire  1 q# when_Gtx_Tx_l81 $end
    $scope module crc32_2 $end
     $var wire 32 o" crc_i [31:0] $end
     $var wire 32 U! crc_o [31:0] $end
     $var wire 32 M! data_i [31:0] $end
    $upscope $end
   $upscope $end
  $upscope $end
 $upscope $end
$enddefinitions $end


#0
1#
0+
03
0;
b01101111000110011100000001010011 C
0K
0S
0[
0c
0k
0s
b0100100101000100010011000100010100100000001000000010000000100000 {
b00000000000000000000000000000000 -!
b00000000000000000000000000000000 5!
b0100100101000100010011000100010100100000001000000010000000100000 =!
b00000000000000000000000000000000 M!
b11010111100100101100001000001100 U!
b00000000000000000000000000000000 ]!
b00000000000000000000000000000000 e!
b00000000000000000000000000000000 m!
b00000000000000000000000000000000 u!
b00001010110010110000100001000001 }!
b01110010000101000111101000111111 '"
0/"
b00000000000000000000000000000000 7"
0?"
b00011010000110010101110010010101 G"
b10101010010100001100101010100010 O"
b10101101 W"
b10000000 _"
b00100100111111010011111000111011 g"
b11001111111101110100001010011111 o"
0w"
b0000 !#
b00000000 )#
01#
b000 9#
1A#
0I#
b00000000 Q#
b00010001100110100100110001001111 Y#
b11101001 a#
b11010101 i#
0q#
1y#
0#$
0+$
b00000000000000000000000000000000 3$
b000 ;$
0C$
0K$
0S$
0[$
0c$
0k$
b01100111111100110000000111001100 s$
b00101100101001000011 {$
1%%
0-%
15%
0=%
b10111111011010011011111100000001 E%
b00000000000000000000000000000000 M%
0U%
0]%
1e%
b00000000000000000000000000000000 m%
0u%
1}%
1'&
b11010000010000110110011110001000 /&
07&
1?&
b0001 G&
b11010010 O&
b10011110101111100101010110101111 W&
b00001010110010110000100001000001 _&
0g&
b0111 o&
b01101001 w&
b01111111110100011100101111100110 !'
b01110010000101000111101000111111 )'
01'
19'
0A'
0I'
b11111111 Q'
0Y'
0a'
0i'
0q'
1y'
0#(
0+(
03(
0;(
0C(
0K(
0S(
0[(
1c(
b0000 k(
b00000000000000000000000000000000 s(
b100101110 {(
b011100000 %)
#160
09'
#170
11'
#175
01'
#180
11'
#185
01'
#190
11'
#195
01'
#200
11'
#205
01'
#210
11'
#215
01'
#220
11'
#225
01'
#230
11'
#235
01'
#240
11'
#245
01'
#250
11'
#255
01'
#260
11'
#265
01'
#270
11'
#275
01'
#280
11'
#285
01'
#290
11'
#295
01'
#300
11'
#305
01'
#310
11'
#315
01'
#320
11'
#325
01'
#330
11'
#335
01'
#340
b00101010100010011010000010011111 C
b11111111111111111111111111111111 g"
b01100111111100110000000111001100 Y#
11'
1A'
#345
01'
#350
11'
0A'
#355
01'
#360
11'
1A'
#365
01'
#370
11'
0A'
#375
01'
#380
11'
1A'
#385
01'
#390
11'
0A'
#395
01'
#400
11'
1A'
#405
01'
#410
11'
0A'
#415
01'
#420
11'
1A'
#425
01'
#430
11'
0A'
#435
01'
#440
11'
1A'
#445
01'
#450
11'
0A'
#455
01'
#460
b00000000000000000000 {$
1=%
b00000000000000000000001100000101 E%
11'
1A'
#465
01'
#470
1;
1-%
11'
0A'
1Y'
#475
01'
#480
0;
b00000000000000000100 {$
0-%
b00000000000000000000000000000001 E%
11'
1A'
0Y'
#485
01'
#490
1;
1-%
11'
0A'
1Y'
#495
01'
#500
0;
0-%
b00000000000000000000000000000000 E%
11'
1A'
0Y'
#505
01'
#510
1;
1-%
11'
0A'
1Y'
#515
01'
#520
0;
b11100101111101000101 {$
0%%
0=%
b00011110001101000110100001110000 E%
11'
1A'
0Y'
