SPINAL_TEST/simWorkspace/AuroraTop/test.vcd
$version Generated by VerilatedVcd $end
$date Thu Aug 12 13:34:27 2021
 $end
$timescale   1ns $end

 $scope module TOP $end
  $var wire 20 M% apb_PADDR [19:0] $end
  $var wire  1 ]% apb_PENABLE $end
  $var wire 32 }% apb_PRDATA [31:0] $end
  $var wire  1 e% apb_PREADY $end
  $var wire  1 U% apb_PSEL [0:0] $end
  $var wire  1 '& apb_PSLVERROR $end
  $var wire 32 u% apb_PWDATA [31:0] $end
  $var wire  1 m% apb_PWRITE $end
  $var wire  1 1' aurora_userclk $end
  $var wire  1 !' clk $end
  $var wire  1 )' reset $end
  $var wire  8 g& rx_bram_addr [7:0] $end
  $var wire  1 W& rx_bram_en $end
  $var wire 32 w& rx_bram_rddata [31:0] $end
  $var wire  4 _& rx_bram_we [3:0] $end
  $var wire 32 o& rx_bram_wrdata [31:0] $end
  $var wire  8 ?& tx_bram_addr [7:0] $end
  $var wire  1 /& tx_bram_en $end
  $var wire 32 O& tx_bram_rddata [31:0] $end
  $var wire  4 7& tx_bram_we [3:0] $end
  $var wire 32 G& tx_bram_wrdata [31:0] $end
  $scope module AuroraTop $end
   $var wire 20 M% apb_PADDR [19:0] $end
   $var wire  1 ]% apb_PENABLE $end
   $var wire 32 }% apb_PRDATA [31:0] $end
   $var wire  1 e% apb_PREADY $end
   $var wire  1 U% apb_PSEL [0:0] $end
   $var wire  1 '& apb_PSLVERROR $end
   $var wire 32 u% apb_PWDATA [31:0] $end
   $var wire  1 m% apb_PWRITE $end
   $var wire 32 ?" auroraArea_auroraRxBlockRam_ioA_rddata [31:0] $end
   $var wire 32 _" auroraArea_auroraRxBlockRam_ioB_rddata [31:0] $end
   $var wire 32 W" auroraArea_auroraTxBlockRam_ioA_rddata [31:0] $end
   $var wire 32 7" auroraArea_auroraTxBlockRam_ioB_rddata [31:0] $end
   $var wire  1 I' auroraArea_aurorarxcore_axir_ready $end
   $var wire  8 9# auroraArea_aurorarxcore_bram_addr [7:0] $end
   $var wire  1 1' auroraArea_aurorarxcore_bram_clkout $end
   $var wire  1 )# auroraArea_aurorarxcore_bram_en $end
   $var wire  1 )' auroraArea_aurorarxcore_bram_resetout $end
   $var wire  4 1# auroraArea_aurorarxcore_bram_we [3:0] $end
   $var wire 32 M! auroraArea_aurorarxcore_bram_wrdata [31:0] $end
   $var wire 32 M! auroraArea_auroratxcore_axiw_payload_data [31:0] $end
   $var wire  1 C auroraArea_auroratxcore_axiw_payload_last $end
   $var wire  1 [$ auroraArea_auroratxcore_axiw_valid $end
   $var wire  8 i# auroraArea_auroratxcore_bram_addr [7:0] $end
   $var wire  1 1' auroraArea_auroratxcore_bram_clkout $end
   $var wire  1 A# auroraArea_auroratxcore_bram_en $end
   $var wire  1 )' auroraArea_auroratxcore_bram_resetout $end
   $var wire  4 Q' auroraArea_auroratxcore_bram_we [3:0] $end
   $var wire 32 Y' auroraArea_auroratxcore_bram_wrdata [31:0] $end
   $var wire  1 C$ auroraArea_auroratxcore_tx_start $end
   $var wire  1 K$ auroraArea_auroratxcore_tx_trigger $end
   $var wire  1 1' aurora_userclk $end
   $var wire  1 !' clk $end
   $var wire  1 )' reset $end
   $var wire  8 g& rx_bram_addr [7:0] $end
   $var wire  1 W& rx_bram_en $end
   $var wire 32 w& rx_bram_rddata [31:0] $end
   $var wire  4 _& rx_bram_we [3:0] $end
   $var wire 32 o& rx_bram_wrdata [31:0] $end
   $var wire  1 A' toparea_ctrl_askRead $end
   $var wire  1 9' toparea_ctrl_askWrite $end
   $var wire  1 A' toparea_ctrl_doRead $end
   $var wire  1 E! toparea_ctrl_doWrite $end
   $var wire 32 S$ toparea_tx_ctrl [31:0] $end
   $var wire 32 E% toparea_tx_headtemp [31:0] $end
   $var wire  8 ?& tx_bram_addr [7:0] $end
   $var wire  1 /& tx_bram_en $end
   $var wire 32 O& tx_bram_rddata [31:0] $end
   $var wire  4 7& tx_bram_we [3:0] $end
   $var wire 32 G& tx_bram_wrdata [31:0] $end
   $scope module auroraArea_auroraRxBlockRam $end
    $var wire  1 !' clka $end
    $var wire  1 1' clkb $end
    $var wire  9 q' i [8:0] $end
    $var wire  8 g& ioA_addr [7:0] $end
    $var wire  1 W& ioA_en $end
    $var wire 32 ?" ioA_rddata [31:0] $end
    $var wire  4 _& ioA_we [3:0] $end
    $var wire 32 o& ioA_wrdata [31:0] $end
    $var wire  8 9# ioB_addr [7:0] $end
    $var wire  1 )# ioB_en $end
    $var wire 32 _" ioB_rddata [31:0] $end
    $var wire  4 1# ioB_we [3:0] $end
    $var wire 32 M! ioB_wrdata [31:0] $end
    $var wire  1 )' reseta $end
    $var wire  1 )' resetb $end
   $upscope $end
   $scope module auroraArea_auroraTxBlockRam $end
    $var wire  1 1' clka $end
    $var wire  1 !' clkb $end
    $var wire  9 i' i [8:0] $end
    $var wire  8 i# ioA_addr [7:0] $end
    $var wire  1 A# ioA_en $end
    $var wire 32 W" ioA_rddata [31:0] $end
    $var wire  4 Q' ioA_we [3:0] $end
    $var wire 32 Y' ioA_wrdata [31:0] $end
    $var wire  8 ?& ioB_addr [7:0] $end
    $var wire  1 /& ioB_en $end
    $var wire 32 7" ioB_rddata [31:0] $end
    $var wire  4 7& ioB_we [3:0] $end
    $var wire 32 G& ioB_wrdata [31:0] $end
    $var wire  1 )' reseta $end
    $var wire  1 )' resetb $end
   $upscope $end
   $scope module auroraArea_aurorarxcore $end
    $var wire 32 w" auroraRxArea_crc_data [31:0] $end
    $var wire  1 O" auroraRxArea_crc_status $end
    $var wire  8 o" auroraRxArea_data_cnt [7:0] $end
    $var wire  8 g" auroraRxArea_length [7:0] $end
    $var wire  8 9# auroraRxArea_mem_addr [7:0] $end
    $var wire 32 G" auroraRxArea_mem_data [31:0] $end
    $var wire  1 )# auroraRxArea_mem_wren $end
    $var wire  4 1# auroraRxArea_mem_wrwe [3:0] $end
    $var wire  3 I# auroraRxArea_stateMachine_state [2:0] $end
    $var wire 64 3 auroraRxArea_stateMachine_state_string [63:0] $end
    $var wire  1 1' aurora_userclk $end
    $var wire  1 [$ axir_fire $end
    $var wire  1 [$ axir_fire_1 $end
    $var wire  1 [$ axir_fire_2 $end
    $var wire  1 [$ axir_fire_3 $end
    $var wire  1 [$ axir_fire_4 $end
    $var wire  1 [$ axir_fire_5 $end
    $var wire  1 [$ axir_fire_6 $end
    $var wire  1 [$ axir_fire_7 $end
    $var wire  1 [$ axir_fire_8 $end
    $var wire  1 [$ axir_fire_9 $end
    $var wire 32 M! axir_payload_data [31:0] $end
    $var wire  1 C axir_payload_last $end
    $var wire  1 I' axir_ready $end
    $var wire  1 [$ axir_valid $end
    $var wire  8 9# bram_addr [7:0] $end
    $var wire  1 1' bram_clkout $end
    $var wire  1 )# bram_en $end
    $var wire 32 _" bram_rddata [31:0] $end
    $var wire  1 )' bram_resetout $end
    $var wire  4 1# bram_we [3:0] $end
    $var wire 32 M! bram_wrdata [31:0] $end
    $var wire 32 U! crc32_2_crc_o [31:0] $end
    $var wire  1 )' reset $end
    $var wire  1 [ when_Gtx_Rx_l104 $end
    $var wire  1 e! when_Gtx_Rx_l106 $end
    $var wire  1 c when_Gtx_Rx_l113 $end
    $var wire  1 =! when_Gtx_Rx_l44 $end
    $var wire  1 ]! when_Gtx_Rx_l50 $end
    $var wire  1 # when_Gtx_Rx_l66 $end
    $var wire  1 + when_Gtx_Rx_l75 $end
    $var wire  1 K when_Gtx_Rx_l84 $end
    $var wire  1 Q# when_Gtx_Rx_l91 $end
    $var wire  1 q# when_Gtx_Rx_l93 $end
    $var wire  1 S when_Gtx_Rx_l99 $end
    $scope module crc32_2 $end
     $var wire 32 w" crc_i [31:0] $end
     $var wire 32 U! crc_o [31:0] $end
     $var wire 32 M! data_i [31:0] $end
    $upscope $end
   $upscope $end
   $scope module auroraArea_auroratxcore $end
    $var wire  1 Y# auroraTxArea_axi_last $end
    $var wire  1 k auroraTxArea_axi_last_1 $end
    $var wire  1 C auroraTxArea_axi_last_2 $end
    $var wire 32 Y' auroraTxArea_axi_txdata [31:0] $end
    $var wire 32 { auroraTxArea_axi_txdata_1 [31:0] $end
    $var wire 32 s auroraTxArea_axi_txdata_2 [31:0] $end
    $var wire 32 /" auroraTxArea_axi_txdata_3 [31:0] $end
    $var wire 32 '" auroraTxArea_axi_txdata_4 [31:0] $end
    $var wire 32 }! auroraTxArea_axi_txdata_5 [31:0] $end
    $var wire 32 u! auroraTxArea_axi_txdata_6 [31:0] $end
    $var wire 32 M! auroraTxArea_axi_txdata_7 [31:0] $end
    $var wire 32 y# auroraTxArea_axi_txhead [31:0] $end
    $var wire 32 !# auroraTxArea_crc_data [31:0] $end
    $var wire  8 +$ auroraTxArea_data_cnt [7:0] $end
    $var wire  8 #$ auroraTxArea_length [7:0] $end
    $var wire  8 i# auroraTxArea_mem_addr [7:0] $end
    $var wire  8 a# auroraTxArea_mem_addrtemp [7:0] $end
    $var wire 32 W" auroraTxArea_mem_data [31:0] $end
    $var wire  1 A# auroraTxArea_mem_rden $end
    $var wire  3 c$ auroraTxArea_stateMachine_state [2:0] $end
    $var wire 64 -! auroraTxArea_stateMachine_state_string [63:0] $end
    $var wire  1 1' aurora_userclk $end
    $var wire  1 [$ axiw_fire $end
    $var wire  1 [$ axiw_fire_1 $end
    $var wire  1 [$ axiw_fire_2 $end
    $var wire  1 [$ axiw_fire_3 $end
    $var wire  1 [$ axiw_fire_4 $end
    $var wire  1 [$ axiw_fire_5 $end
    $var wire  1 [$ axiw_fire_6 $end
    $var wire  1 [$ axiw_fire_7 $end
    $var wire  1 [$ axiw_fire_8 $end
    $var wire 32 M! axiw_payload_data [31:0] $end
    $var wire  1 C axiw_payload_last $end
    $var wire  1 I' axiw_ready $end
    $var wire  1 [$ axiw_valid $end
    $var wire  8 i# bram_addr [7:0] $end
    $var wire  1 1' bram_clkout $end
    $var wire  1 A# bram_en $end
    $var wire 32 W" bram_rddata [31:0] $end
    $var wire  1 )' bram_resetout $end
    $var wire  4 Q' bram_we [3:0] $end
    $var wire 32 Y' bram_wrdata [31:0] $end
    $var wire 32 m! crc32_2_crc_o [31:0] $end
    $var wire  1 )' reset $end
    $var wire 32 E% tx_head [31:0] $end
    $var wire  1 C$ tx_start $end
    $var wire  1 K$ tx_trigger $end
    $var wire  1 ;$ when_Gtx_Tx_l104 $end
    $var wire  1 k$ when_Gtx_Tx_l124 $end
    $var wire  1 s$ when_Gtx_Tx_l126 $end
    $var wire  1 {$ when_Gtx_Tx_l128 $end
    $var wire  1 %% when_Gtx_Tx_l130 $end
    $var wire  1 -% when_Gtx_Tx_l132 $end
    $var wire  1 5% when_Gtx_Tx_l134 $end
    $var wire  1 %! when_Gtx_Tx_l140 $end
    $var wire  1 k$ when_Gtx_Tx_l146 $end
    $var wire  1 =% when_Gtx_Tx_l148 $end
    $var wire  1 C$ when_Gtx_Tx_l66 $end
    $var wire  1 a' when_Gtx_Tx_l68 $end
    $var wire  1 3$ when_Gtx_Tx_l81 $end
    $scope module crc32_2 $end
     $var wire 32 !# crc_i [31:0] $end
     $var wire 32 m! crc_o [31:0] $end
     $var wire 32 M! data_i [31:0] $end
    $upscope $end
   $upscope $end
  $upscope $end
 $upscope $end
$enddefinitions $end


#0
0#
1+
b0100100101000100010011000100010100100000001000000010000000100000 3
0C
0K
0S
0[
0c
0k
b00000000000000000000000000000000 s
b00000000000000000000000000000000 {
0%!
b0100100101000100010011000100010100100000001000000010000000100000 -!
0=!
0E!
b00000000000000000000000000000000 M!
b00010010011001111111010100001001 U!
0]!
1e!
b00100011011100001001101100000001 m!
b00000000000000000000000000000000 u!
b00000000000000000000000000000000 }!
b00000000000000000000000000000000 '"
b00000000000000000000000000000000 /"
b11111010001110011111001110001001 7"
b01001100100010111011111010111011 ?"
b00000000000000000000000000000000 G"
0O"
b00100111101001101000111000000101 W"
b01111110011101100111111100011101 _"
b00001011 g"
b01101111 o"
b01111001111011101000100101101000 w"
b01111010010111011001111110100101 !#
0)#
b0000 1#
b00000000 9#
0A#
b000 I#
1Q#
0Y#
b00000000 a#
b11111111 i#
0q#
b01100111010000100010001011110011 y#
b10100101 #$
b01111100 +$
03$
1;$
0C$
0K$
b00000000000000000000000000000000 S$
0[$
b000 c$
0k$
0s$
0{$
0%%
0-%
05%
0=%
b01011101101001101000101110000000 E%
b10001101010100011010 M%
1U%
0]%
1e%
0m%
b11101111001110100000101110110010 u%
b00000000000000000000000000000000 }%
0'&
0/&
b0010 7&
b01010001 ?&
b01011000010111111000010111100110 G&
b11111010001110011111001110001001 O&
1W&
b1001 _&
b00011010 g&
b10010010110010101111110110110010 o&
b01001100100010111011111010111011 w&
0!'
1)'
01'
09'
0A'
1I'
b0000 Q'
b00000000000000000000000000000000 Y'
0a'
b001100110 i'
b000110010 q'
#160
0)'
#170
1!'
#175
0!'
#180
1!'
#185
0!'
#190
1!'
#195
0!'
#200
1!'
#205
0!'
#210
1!'
#215
0!'
#220
1!'
#225
0!'
#230
1!'
#235
0!'
#240
1!'
#245
0!'
#250
1!'
#255
0!'
#260
1!'
#265
0!'
#270
1!'
#275
0!'
#280
1!'
#285
0!'
#290
1!'
#295
0!'
#300
1!'
#305
0!'
#310
1!'
#315
0!'
#320
1!'
#325
0!'
#330
1!'
#335
0!'
#340
b11000111000001001101110101111011 U!
b11111111111111111111111111111111 w"
b01011101101001101000101110000000 y#
1!'
11'
#345
0!'
#350
1!'
01'
#355
0!'
#360
1!'
11'
#365
0!'
#370
1!'
01'
#375
0!'
#380
1!'
11'
#385
0!'
#390
1!'
01'
#395
0!'
#400
1!'
11'
#405
0!'
#410
1!'
01'
#415
0!'
#420
1!'
11'
#425
0!'
#430
1!'
01'
#435
0!'
#440
1!'
11'
#445
0!'
#450
1!'
01'
#455
0!'
#460
b00000000000000000000 M%
1m%
b00000000000000000000001100000101 u%
b01011101101001101000101110000000 }%
1!'
11'
#465
0!'
#470
1E!
1]%
1!'
01'
19'
#475
0!'
#480
0E!
b00000000000000000000001100000101 E%
b00000000000000000100 M%
0]%
b00000000000000000000000000000001 u%
b00000000000000000000000000000000 }%
1!'
11'
09'
#485
0!'
#490
1E!
1]%
1!'
01'
19'
#495
0!'
#500
0E!
b00000000000000000000001100000101 y#
1C$
b00000000000000000000000000000001 S$
0]%
b00000000000000000000000000000000 u%
b00000000000000000000000000000001 }%
1!'
11'
09'
#505
0!'
#510
1E!
1]%
1!'
01'
19'
#515
0!'
#520
b00000000000000001111111110111100 s
b00000000000000001111111110111100 {
b0101001101010100010000010101001001010100001000000010000000100000 -!
1=!
0E!
b00000000000000001111111110111100 M!
b00000001100010011110111110101000 U!
0e!
b11100101111111011010100111010010 m!
b00000000000000001111111110111100 u!
b00000000000000001111111110111100 }!
b00000000000000001111111110111100 '"
b00000000000000001111111110111100 /"
b00000000 i#
0C$
b00000000000000000000000000000000 S$
1[$
b010 c$
1k$
b01000011010000010111 M%
0U%
b00011001010101011000000101000101 u%
b00000000000000000000000000000000 }%
1!'
11'
09'
#525
0!'
#530
1!'
01'
#535
0!'
#540
b0100010001000101010101100100100101000011010001010100100101000100 3
1S
b00000000000000000000000000000001 s
b00000000000000000000000000000000 {
b0100010001000101010101100100100101000011010001010100100101000100 -!
0=!
b00000000000000000000000000000001 M!
b11000011110001011100000011001100 U!
1]!
1e!
b11000011110001011100000011001100 m!
b00000000000000000000000000000001 u!
b00000000000000000000000000000001 }!
b00000000000000000000000000000001 '"
b00000000000000000000000000000001 /"
b11111111111111111111111111111111 !#
1A#
b011 I#
0Q#
b00000011 a#
b00000011 i#
1q#
b00000101 #$
0;$
b011 c$
0k$
1s$
1=%
1!'
11'
#545
0!'
#550
1!'
01'
#555
0!'
#560
b0100110001000101010011100100011101010100010010000010000000100000 3
0S
1[
b00000000000000000000000000000000 s
b0100110001000101010011100100011101010100010010000010000000100000 -!
b00000000000000000000001100000101 M!
b01000101001001111110100001101100 U!
0]!
0e!
b01000101001001111110100001101100 m!
b00000000000000000000001100000101 u!
b00000000000000000000001100000101 }!
b00000000000000000000001100000101 '"
b00000000000000000000001100000101 /"
b00000000000000000000000000000001 G"
b11111011001101000110100000010011 W"
b11000011110001011100000011001100 w"
b11000011110001011100000011001100 !#
1)#
b1111 1#
b100 I#
b100 c$
0s$
1{$
1!'
11'
#565
0!'
#570
1!'
01'
#575
0!'
#580
1#
b0100010001000001010101000100000100100000001000000010000000100000 3
0[
1c
b0100010001000001010101000100000100100000001000000010000000100000 -!
b11111011001101000110100000010011 M!
b11000111100010101110111110100010 U!
b11000111100010101110111110100010 m!
b11111011001101000110100000010011 u!
b11111011001101000110100000010011 }!
b11111011001101000110100000010011 '"
b00000000000000000000000000000000 /"
b00000000000000000000001100000101 G"
b00000101 g"
b00000000 o"
b01000101001001111110100001101100 w"
b01000101001001111110100001101100 !#
b00000011 9#
b101 I#
b00000100 a#
b00000100 i#
b00000000 +$
1;$
b101 c$
0{$
1%%
1!'
11'
#585
0!'
#590
1!'
01'
#595
0!'
#600
b00110110100101110111110010110011 M!
b00001011011101100011010011100001 U!
b00001011011101100011010011100001 m!
b00110110100101110111110010110011 u!
b00110110100101110111110010110011 }!
b00110110100101110111110010110011 '"
b11111011001101000110100000010011 G"
b00110110100101110111110010110011 W"
b00000001 o"
b11000111100010101110111110100010 w"
b11000111100010101110111110100010 !#
b00000100 9#
b00000101 a#
b00000101 i#
b00000001 +$
1!'
11'
#605
0!'
#610
1!'
01'
#615
0!'
#620
b00011101011011101111110010000001 M!
b11000001100100111101010000100110 U!
b11000001100100111101010000100110 m!
b00011101011011101111110010000001 u!
b00011101011011101111110010000001 }!
b00011101011011101111110010000001 '"
b00110110100101110111110010110011 G"
b00011101011011101111110010000001 W"
b00000010 o"
b00001011011101100011010011100001 w"
b00001011011101100011010011100001 !#
b00000101 9#
b00000110 a#
b00000110 i#
b00000010 +$
1!'
11'
#625
0!'
#630
1!'
01'
#635
0!'
#640
b01111110110001111010000000010011 M!
b11000101110101111000110110101001 U!
b11000101110101111000110110101001 m!
b01111110110001111010000000010011 u!
b01111110110001111010000000010011 }!
b01111110110001111010000000010011 '"
b00011101011011101111110010000001 G"
b01111110110001111010000000010011 W"
b00000011 o"
b11000001100100111101010000100110 w"
b11000001100100111101010000100110 !#
b00000110 9#
b00000111 a#
b00000111 i#
b00000011 +$
1!'
11'
#645
0!'
#650
1!'
01'
#655
0!'
#660
0#
0c
b10001111010011110010101101011111 M!
b10111111001111010010111011101101 U!
b10111111001111010010111011101101 m!
b10001111010011110010101101011111 u!
b10001111010011110010101101011111 }!
b10001111010011110010101101011111 '"
b01111110110001111010000000010011 G"
b10001111010011110010101101011111 W"
b00000100 o"
b11000101110101111000110110101001 w"
b11000101110101111000110110101001 !#
b00000111 9#
b00001000 a#
b00001000 i#
b00000100 +$
0;$
1!'
11'
#665
0!'
#670
1!'
01'
#675
0!'
#680
0+
b0100001101010010010000110010000000100000001000000010000000100000 3
b0100001101010010010000110010000000100000001000000010000000100000 -!
b10111111001111010010111011101101 M!
b00000000000000000000000000000000 U!
b00000000000000000000000000000000 m!
b10111111001111010010111011101101 u!
b10111111001111010010111011101101 }!
b00000000000000000000000000000000 '"
b01101101010001111101100011111011 W"
b10111111001111010010111011101101 w"
b10111111001111010010111011101101 !#
0)#
b0000 1#
b110 I#
0q#
b00000101 +$
b110 c$
0%%
1-%
0=%
1!'
11'
#685
0!'
#690
1!'
01'
#695
0!'
#700
1+
b0101001101010100010011110101000000100000001000000010000000100000 3
1C
1K
1k
1%!
b0101001101010100010011110101000000100000001000000010000000100000 -!
b00000000000000001111111110111101 M!
b00001001100001100101011100000001 U!
b00001001100001100101011100000001 m!
b00000000000000001111111110111101 u!
b00000000000000000000000000000000 }!
b111 I#
b111 c$
0-%
15%
1!'
11'
#705
0!'
#710
1!'
01'
#715
0!'
#720
b0100100101000100010011000100010100100000001000000010000000100000 3
0C
0K
0k
0%!
b0100100101000100010011000100010100100000001000000010000000100000 -!
b00000000000000000000000000000000 M!
b11001011110010100111100001100101 U!
1e!
b11001011110010100111100001100101 m!
b00000000000000000000000000000000 u!
b000 I#
1Q#
b00000111 i#
0[$
b000 c$
05%
1!'
11'
#725
0!'
#730
1!'
01'
#735
0!'
#740
b11000111000001001101110101111011 U!
b10001111010011110010101101011111 W"
b11111111111111111111111111111111 w"
1!'
11'
