PHPA82/simWorkspace/Emif_Ctrl_test/test.vcd
$version Generated by VerilatedVcd $end
$date Wed Jul 21 10:18:41 2021
 $end
$timescale   1ns $end

 $scope module TOP $end
  $var wire  1 I/ clk $end
  $var wire  1 Q/ reset $end
  $var wire 32 W. top_emif_emif_addr [31:0] $end
  $var wire  1 w. top_emif_emif_cs $end
  $var wire 32 _. top_emif_emif_data_read [31:0] $end
  $var wire 32 g. top_emif_emif_data_write [31:0] $end
  $var wire  1 o. top_emif_emif_data_writeEnable $end
  $var wire  1 )/ top_emif_emif_oe $end
  $var wire  1 !/ top_emif_emif_we $end
  $var wire 16 1/ top_gpioA_read [15:0] $end
  $var wire 16 9/ top_gpioA_write [15:0] $end
  $var wire 16 A/ top_gpioA_writeEnable [15:0] $end
  $scope module Emif_Ctrl_test $end
   $var wire 32 _& area_emif_Ctrl_emif_emif_data_write [31:0] $end
   $var wire  1 Y/ area_emif_Ctrl_emif_emif_data_writeEnable $end
   $var wire 16 g& area_emif_Ctrl_gpioA_write [15:0] $end
   $var wire 16 W* area_emif_Ctrl_gpioA_writeEnable [15:0] $end
   $var wire  1 _* area_emif_Ctrl_uart_txd $end
   $var wire  1 _* area_temp $end
   $var wire  1 o& area_tt $end
   $var wire  1 I/ clk $end
   $var wire  1 Q/ reset $end
   $var wire 32 W. top_emif_emif_addr [31:0] $end
   $var wire  1 w. top_emif_emif_cs $end
   $var wire 32 _. top_emif_emif_data_read [31:0] $end
   $var wire 32 g. top_emif_emif_data_write [31:0] $end
   $var wire  1 o. top_emif_emif_data_writeEnable $end
   $var wire  1 )/ top_emif_emif_oe $end
   $var wire  1 !/ top_emif_emif_we $end
   $var wire 16 1/ top_gpioA_read [15:0] $end
   $var wire 16 9/ top_gpioA_write [15:0] $end
   $var wire 16 A/ top_gpioA_writeEnable [15:0] $end
   $scope module area_emif_Ctrl $end
    $var wire 32 C apb3Router_1_io_input_PRDATA [31:0] $end
    $var wire  1 [0 apb3Router_1_io_input_PREADY $end
    $var wire  1 S0 apb3Router_1_io_input_PSLVERROR $end
    $var wire 32 W. apb3Router_1_io_outputs_0_PADDR [31:0] $end
    $var wire  1 w" apb3Router_1_io_outputs_0_PENABLE $end
    $var wire  1 [ apb3Router_1_io_outputs_0_PSEL [0:0] $end
    $var wire 32 _. apb3Router_1_io_outputs_0_PWDATA [31:0] $end
    $var wire  1 # apb3Router_1_io_outputs_0_PWRITE $end
    $var wire 32 W. apb3Router_1_io_outputs_1_PADDR [31:0] $end
    $var wire  1 w" apb3Router_1_io_outputs_1_PENABLE $end
    $var wire  1 c apb3Router_1_io_outputs_1_PSEL [0:0] $end
    $var wire 32 _. apb3Router_1_io_outputs_1_PWDATA [31:0] $end
    $var wire  1 # apb3Router_1_io_outputs_1_PWRITE $end
    $var wire 32 C apb_decoder_io_input_PRDATA [31:0] $end
    $var wire  1 ; apb_decoder_io_input_PREADY $end
    $var wire  1 K apb_decoder_io_input_PSLVERROR $end
    $var wire 32 W. apb_decoder_io_output_PADDR [31:0] $end
    $var wire  1 w" apb_decoder_io_output_PENABLE $end
    $var wire  2 S apb_decoder_io_output_PSEL [1:0] $end
    $var wire 32 _. apb_decoder_io_output_PWDATA [31:0] $end
    $var wire  1 # apb_decoder_io_output_PWRITE $end
    $var wire 32 W. area_emif_interface_apb_PADDR [31:0] $end
    $var wire  1 w" area_emif_interface_apb_PENABLE $end
    $var wire  1 q/ area_emif_interface_apb_PSEL [0:0] $end
    $var wire 32 _. area_emif_interface_apb_PWDATA [31:0] $end
    $var wire  1 # area_emif_interface_apb_PWRITE $end
    $var wire 32 _& area_emif_interface_emif_emif_data_write [31:0] $end
    $var wire  1 Y/ area_emif_interface_emif_emif_data_writeEnable $end
    $var wire  4 a/ area_gpioACtrl_io_apb_PADDR [3:0] $end
    $var wire 32 + area_gpioACtrl_io_apb_PRDATA [31:0] $end
    $var wire  1 K0 area_gpioACtrl_io_apb_PREADY $end
    $var wire  1 S0 area_gpioACtrl_io_apb_PSLVERROR $end
    $var wire 16 g& area_gpioACtrl_io_gpio_write [15:0] $end
    $var wire 16 W* area_gpioACtrl_io_gpio_writeEnable [15:0] $end
    $var wire 16 w& area_gpioACtrl_io_value [15:0] $end
    $var wire  5 i/ area_uartCtrl_io_apb_PADDR [4:0] $end
    $var wire 32 3 area_uartCtrl_io_apb_PRDATA [31:0] $end
    $var wire  1 K0 area_uartCtrl_io_apb_PREADY $end
    $var wire  1 U% area_uartCtrl_io_interrupt $end
    $var wire  1 _* area_uartCtrl_io_uart_txd $end
    $var wire  1 I/ clk $end
    $var wire 32 W. emif_emif_addr [31:0] $end
    $var wire  1 w. emif_emif_cs $end
    $var wire 32 _. emif_emif_data_read [31:0] $end
    $var wire 32 _& emif_emif_data_write [31:0] $end
    $var wire  1 Y/ emif_emif_data_writeEnable $end
    $var wire  1 )/ emif_emif_oe $end
    $var wire  1 !/ emif_emif_we $end
    $var wire 16 1/ gpioA_read [15:0] $end
    $var wire 16 g& gpioA_write [15:0] $end
    $var wire 16 W* gpioA_writeEnable [15:0] $end
    $var wire  1 Q/ reset $end
    $var wire  1 _* uart_rxd $end
    $var wire  1 _* uart_txd $end
    $scope module apb3Router_1 $end
     $var wire  1 I/ clk $end
     $var wire 32 W. io_input_PADDR [31:0] $end
     $var wire  1 w" io_input_PENABLE $end
     $var wire 32 C io_input_PRDATA [31:0] $end
     $var wire  1 [0 io_input_PREADY $end
     $var wire  2 S io_input_PSEL [1:0] $end
     $var wire  1 S0 io_input_PSLVERROR $end
     $var wire 32 _. io_input_PWDATA [31:0] $end
     $var wire  1 # io_input_PWRITE $end
     $var wire 32 W. io_outputs_0_PADDR [31:0] $end
     $var wire  1 w" io_outputs_0_PENABLE $end
     $var wire 32 + io_outputs_0_PRDATA [31:0] $end
     $var wire  1 K0 io_outputs_0_PREADY $end
     $var wire  1 [ io_outputs_0_PSEL [0:0] $end
     $var wire  1 S0 io_outputs_0_PSLVERROR $end
     $var wire 32 _. io_outputs_0_PWDATA [31:0] $end
     $var wire  1 # io_outputs_0_PWRITE $end
     $var wire 32 W. io_outputs_1_PADDR [31:0] $end
     $var wire  1 w" io_outputs_1_PENABLE $end
     $var wire 32 3 io_outputs_1_PRDATA [31:0] $end
     $var wire  1 K0 io_outputs_1_PREADY $end
     $var wire  1 c io_outputs_1_PSEL [0:0] $end
     $var wire  1 S0 io_outputs_1_PSLVERROR $end
     $var wire 32 _. io_outputs_1_PWDATA [31:0] $end
     $var wire  1 # io_outputs_1_PWRITE $end
     $var wire  1 Q/ reset $end
     $var wire  1 O* selIndex [0:0] $end
    $upscope $end
    $scope module apb_decoder $end
     $var wire 32 W. io_input_PADDR [31:0] $end
     $var wire  1 w" io_input_PENABLE $end
     $var wire 32 C io_input_PRDATA [31:0] $end
     $var wire  1 ; io_input_PREADY $end
     $var wire  1 q/ io_input_PSEL [0:0] $end
     $var wire  1 K io_input_PSLVERROR $end
     $var wire 32 _. io_input_PWDATA [31:0] $end
     $var wire  1 # io_input_PWRITE $end
     $var wire 32 W. io_output_PADDR [31:0] $end
     $var wire  1 w" io_output_PENABLE $end
     $var wire 32 C io_output_PRDATA [31:0] $end
     $var wire  1 [0 io_output_PREADY $end
     $var wire  2 S io_output_PSEL [1:0] $end
     $var wire  1 S0 io_output_PSLVERROR $end
     $var wire 32 _. io_output_PWDATA [31:0] $end
     $var wire  1 # io_output_PWRITE $end
     $var wire  1 /" when_Apb3Decoder_l84 $end
    $upscope $end
    $scope module area_emif_interface $end
     $var wire 32 W. apb_PADDR [31:0] $end
     $var wire  1 w" apb_PENABLE $end
     $var wire 32 C apb_PRDATA [31:0] $end
     $var wire 32 _& apb_PRDATA_regNextWhen [31:0] $end
     $var wire  1 ; apb_PREADY $end
     $var wire  1 q/ apb_PSEL [0:0] $end
     $var wire  1 K apb_PSLVERROR $end
     $var wire 32 _. apb_PWDATA [31:0] $end
     $var wire  1 # apb_PWRITE $end
     $var wire  1 I/ clk $end
     $var wire 32 W. emif_emif_addr [31:0] $end
     $var wire  1 w. emif_emif_cs $end
     $var wire 32 _. emif_emif_data_read [31:0] $end
     $var wire 32 _& emif_emif_data_write [31:0] $end
     $var wire  1 Y/ emif_emif_data_writeEnable $end
     $var wire  1 )/ emif_emif_oe $end
     $var wire  1 !/ emif_emif_we $end
     $var wire  1 g* penable $end
     $var wire  1 !' penable_regNext $end
     $var wire  1 Q/ reset $end
     $var wire  1 Y/ when_Emif_Ctrl_l71 $end
    $upscope $end
    $scope module area_gpioACtrl $end
     $var wire  1 I/ clk $end
     $var wire  1 ?" ctrl_askRead $end
     $var wire  1 7" ctrl_askWrite $end
     $var wire  1 ?" ctrl_doRead $end
     $var wire  1 k ctrl_doWrite $end
     $var wire  4 a/ io_apb_PADDR [3:0] $end
     $var wire  1 w" io_apb_PENABLE $end
     $var wire 32 + io_apb_PRDATA [31:0] $end
     $var wire  1 K0 io_apb_PREADY $end
     $var wire  1 [ io_apb_PSEL [0:0] $end
     $var wire  1 S0 io_apb_PSLVERROR $end
     $var wire 32 _. io_apb_PWDATA [31:0] $end
     $var wire  1 # io_apb_PWRITE $end
     $var wire 16 1/ io_gpio_read [15:0] $end
     $var wire 16 w& io_gpio_read_buffercc_io_dataOut [15:0] $end
     $var wire 16 g& io_gpio_write [15:0] $end
     $var wire 16 W* io_gpio_writeEnable [15:0] $end
     $var wire 16 W* io_gpio_writeEnable_driver [15:0] $end
     $var wire 16 g& io_gpio_write_driver [15:0] $end
     $var wire 16 w& io_value [15:0] $end
     $var wire  1 Q/ reset $end
     $scope module io_gpio_read_buffercc $end
      $var wire 16 )' buffers_0 [15:0] $end
      $var wire 16 w& buffers_1 [15:0] $end
      $var wire  1 I/ clk $end
      $var wire 16 1/ io_dataIn [15:0] $end
      $var wire 16 w& io_dataOut [15:0] $end
      $var wire  1 Q/ reset $end
     $upscope $end
    $upscope $end
    $scope module area_uartCtrl $end
     $var wire  1 U% bridge_interruptCtrl_interrupt $end
     $var wire  1 }% bridge_interruptCtrl_readInt $end
     $var wire  1 !+ bridge_interruptCtrl_readIntEnable $end
     $var wire  1 i# bridge_interruptCtrl_writeInt $end
     $var wire  1 w* bridge_interruptCtrl_writeIntEnable $end
     $var wire  1 9+ bridge_misc_breakDetected $end
     $var wire  1 A+ bridge_misc_doBreak $end
     $var wire  1 )+ bridge_misc_readError $end
     $var wire  1 1+ bridge_misc_readOverflowError $end
     $var wire  8 A' bridge_read_streamBreaked_payload [7:0] $end
     $var wire  1 -! bridge_read_streamBreaked_ready $end
     $var wire  1 u% bridge_read_streamBreaked_valid $end
     $var wire 20 s0 bridge_uartConfigReg_clockDivider [19:0] $end
     $var wire  3 c0 bridge_uartConfigReg_frame_dataLength [2:0] $end
     $var wire  2 k0 bridge_uartConfigReg_frame_parity [1:0] $end
     $var wire 32 %1 bridge_uartConfigReg_frame_parity_string [31:0] $end
     $var wire  1 S0 bridge_uartConfigReg_frame_stop [0:0] $end
     $var wire 24 {0 bridge_uartConfigReg_frame_stop_string [23:0] $end
     $var wire  8 y/ bridge_write_streamUnbuffered_payload [7:0] $end
     $var wire  5 A# bridge_write_streamUnbuffered_queueWithOccupancy_io_availability [4:0] $end
     $var wire  5 9# bridge_write_streamUnbuffered_queueWithOccupancy_io_occupancy [4:0] $end
     $var wire  8 9' bridge_write_streamUnbuffered_queueWithOccupancy_io_pop_payload [7:0] $end
     $var wire  1 1# bridge_write_streamUnbuffered_queueWithOccupancy_io_pop_valid $end
     $var wire  1 )# bridge_write_streamUnbuffered_queueWithOccupancy_io_push_ready $end
     $var wire  1 )# bridge_write_streamUnbuffered_ready $end
     $var wire  1 %! bridge_write_streamUnbuffered_valid $end
     $var wire  1 O" busCtrl_askRead $end
     $var wire  1 G" busCtrl_askWrite $end
     $var wire  1 O" busCtrl_doRead $end
     $var wire  1 { busCtrl_doWrite $end
     $var wire  1 I/ clk $end
     $var wire  5 i/ io_apb_PADDR [4:0] $end
     $var wire  1 w" io_apb_PENABLE $end
     $var wire 32 3 io_apb_PRDATA [31:0] $end
     $var wire  1 K0 io_apb_PREADY $end
     $var wire  1 c io_apb_PSEL [0:0] $end
     $var wire 32 _. io_apb_PWDATA [31:0] $end
     $var wire  1 # io_apb_PWRITE $end
     $var wire  1 U% io_interrupt $end
     $var wire  1 _* io_uart_rxd $end
     $var wire  1 _* io_uart_txd $end
     $var wire  1 Q/ reset $end
     $var wire  1 G. uartCtrl_1_io_readBreak $end
     $var wire  1 e- uartCtrl_1_io_readBreak_regNext $end
     $var wire  1 !# uartCtrl_1_io_readError $end
     $var wire  1 q# uartCtrl_1_io_read_isStall $end
     $var wire  8 1' uartCtrl_1_io_read_payload [7:0] $end
     $var wire  5 a# uartCtrl_1_io_read_queueWithOccupancy_io_availability [4:0] $end
     $var wire  5 Y# uartCtrl_1_io_read_queueWithOccupancy_io_occupancy [4:0] $end
     $var wire  8 A' uartCtrl_1_io_read_queueWithOccupancy_io_pop_payload [7:0] $end
     $var wire  1 s uartCtrl_1_io_read_queueWithOccupancy_io_pop_ready $end
     $var wire  1 Q# uartCtrl_1_io_read_queueWithOccupancy_io_pop_valid $end
     $var wire  1 I# uartCtrl_1_io_read_queueWithOccupancy_io_push_ready $end
     $var wire  1 o* uartCtrl_1_io_read_valid $end
     $var wire  1 _* uartCtrl_1_io_uart_txd $end
     $var wire  1 m% uartCtrl_1_io_write_ready $end
     $var wire  1 5! when_BusSlaveFactory_l335 $end
     $var wire  1 =! when_BusSlaveFactory_l335_1 $end
     $var wire  1 E! when_BusSlaveFactory_l335_2 $end
     $var wire  1 U! when_BusSlaveFactory_l335_3 $end
     $var wire  1 #0 when_BusSlaveFactory_l337 $end
     $var wire  1 +0 when_BusSlaveFactory_l337_1 $end
     $var wire  1 30 when_BusSlaveFactory_l337_2 $end
     $var wire  1 C0 when_BusSlaveFactory_l337_3 $end
     $var wire  1 M! when_BusSlaveFactory_l366 $end
     $var wire  1 ;0 when_BusSlaveFactory_l368 $end
     $var wire  1 ?. when_UartCtrl_l154 $end
     $scope module bridge_write_streamUnbuffered_queueWithOccupancy $end
      $var wire  1 I/ clk $end
      $var wire  5 A# io_availability [4:0] $end
      $var wire  1 S0 io_flush $end
      $var wire  5 9# io_occupancy [4:0] $end
      $var wire  8 9' io_pop_payload [7:0] $end
      $var wire  1 m% io_pop_ready $end
      $var wire  1 1# io_pop_valid $end
      $var wire  8 y/ io_push_payload [7:0] $end
      $var wire  1 )# io_push_ready $end
      $var wire  1 %! io_push_valid $end
      $var wire  1 k$ logic_empty $end
      $var wire  1 s$ logic_full $end
      $var wire  4 k, logic_popPtr_value [3:0] $end
      $var wire  4 O& logic_popPtr_valueNext [3:0] $end
      $var wire  1 S0 logic_popPtr_willClear $end
      $var wire  1 G& logic_popPtr_willIncrement $end
      $var wire  1 e% logic_popPtr_willOverflow $end
      $var wire  1 s, logic_popPtr_willOverflowIfInc $end
      $var wire  1 W& logic_popping $end
      $var wire  4 %- logic_ptrDif [3:0] $end
      $var wire  1 c$ logic_ptrMatch $end
      $var wire  4 [, logic_pushPtr_value [3:0] $end
      $var wire  4 e! logic_pushPtr_valueNext [3:0] $end
      $var wire  1 S0 logic_pushPtr_willClear $end
      $var wire  1 ]! logic_pushPtr_willIncrement $end
      $var wire  1 W" logic_pushPtr_willOverflow $end
      $var wire  1 c, logic_pushPtr_willOverflowIfInc $end
      $var wire  1 m! logic_pushing $end
      $var wire  8 i' logic_ram(0) [7:0] $end
      $var wire  8 j' logic_ram(1) [7:0] $end
      $var wire  8 s' logic_ram(10) [7:0] $end
      $var wire  8 t' logic_ram(11) [7:0] $end
      $var wire  8 u' logic_ram(12) [7:0] $end
      $var wire  8 v' logic_ram(13) [7:0] $end
      $var wire  8 w' logic_ram(14) [7:0] $end
      $var wire  8 x' logic_ram(15) [7:0] $end
      $var wire  8 k' logic_ram(2) [7:0] $end
      $var wire  8 l' logic_ram(3) [7:0] $end
      $var wire  8 m' logic_ram(4) [7:0] $end
      $var wire  8 n' logic_ram(5) [7:0] $end
      $var wire  8 o' logic_ram(6) [7:0] $end
      $var wire  8 p' logic_ram(7) [7:0] $end
      $var wire  8 q' logic_ram(8) [7:0] $end
      $var wire  8 r' logic_ram(9) [7:0] $end
      $var wire  1 {, logic_risingOccupancy $end
      $var wire  1 Q/ reset $end
      $var wire  1 o" when_Stream_l933 $end
     $upscope $end
     $scope module uartCtrl_1 $end
      $var wire  1 I/ clk $end
      $var wire 20 Q+ clockDivider_counter [19:0] $end
      $var wire  1 Y+ clockDivider_tick $end
      $var wire 20 s0 io_config_clockDivider [19:0] $end
      $var wire  3 c0 io_config_frame_dataLength [2:0] $end
      $var wire  2 k0 io_config_frame_parity [1:0] $end
      $var wire 32 %1 io_config_frame_parity_string [31:0] $end
      $var wire  1 S0 io_config_frame_stop [0:0] $end
      $var wire 24 {0 io_config_frame_stop_string [23:0] $end
      $var wire  1 G. io_readBreak $end
      $var wire  1 !# io_readError $end
      $var wire  8 1' io_read_payload [7:0] $end
      $var wire  1 I# io_read_ready $end
      $var wire  1 o* io_read_valid $end
      $var wire  1 _* io_uart_rxd $end
      $var wire  1 _* io_uart_txd $end
      $var wire  1 A+ io_writeBreak $end
      $var wire  8 9' io_write_payload [7:0] $end
      $var wire  1 m% io_write_ready $end
      $var wire  8 9' io_write_thrown_payload [7:0] $end
      $var wire  1 '& io_write_thrown_ready $end
      $var wire  1 /& io_write_thrown_valid $end
      $var wire  1 1# io_write_valid $end
      $var wire  1 Q/ reset $end
      $var wire  1 G. rx_io_break $end
      $var wire  1 !# rx_io_error $end
      $var wire  8 1' rx_io_read_payload [7:0] $end
      $var wire  1 o* rx_io_read_valid $end
      $var wire  1 I+ rx_io_rts $end
      $var wire  1 _* tx_io_txd $end
      $var wire  1 '& tx_io_write_ready $end
      $scope module rx $end
       $var wire  3 '. bitCounter_value [2:0] $end
       $var wire  3 Q' bitTimer_counter [2:0] $end
       $var wire  1 C$ bitTimer_tick $end
       $var wire  7 O. break_counter [6:0] $end
       $var wire  1 G. break_valid $end
       $var wire  1 I/ clk $end
       $var wire  1 G. io_break $end
       $var wire  3 c0 io_configFrame_dataLength [2:0] $end
       $var wire  2 k0 io_configFrame_parity [1:0] $end
       $var wire 32 %1 io_configFrame_parity_string [31:0] $end
       $var wire  1 S0 io_configFrame_stop [0:0] $end
       $var wire 24 {0 io_configFrame_stop_string [23:0] $end
       $var wire  1 !# io_error $end
       $var wire  8 1' io_read_payload [7:0] $end
       $var wire  1 I# io_read_ready $end
       $var wire  1 o* io_read_valid $end
       $var wire  1 I+ io_rts $end
       $var wire  1 _* io_rxd $end
       $var wire  1 y+ io_rxd_buffercc_io_dataOut $end
       $var wire  1 Y+ io_samplingTick $end
       $var wire  1 Q/ reset $end
       $var wire  1 y+ sampler_samples_0 $end
       $var wire  1 #, sampler_samples_1 $end
       $var wire  1 +, sampler_samples_2 $end
       $var wire  1 y+ sampler_synchroniser $end
       $var wire  1 ;, sampler_tick $end
       $var wire  1 3, sampler_value $end
       $var wire  1 a' stateMachine_parity $end
       $var wire  8 1' stateMachine_shifter [7:0] $end
       $var wire  3 C, stateMachine_state [2:0] $end
       $var wire 48 S$ stateMachine_state_string [47:0] $end
       $var wire  1 o* stateMachine_validReg $end
       $var wire  1 3, when_UartCtrlRx_l103 $end
       $var wire  1 /. when_UartCtrlRx_l111 $end
       $var wire  1 K0 when_UartCtrlRx_l113 $end
       $var wire  1 K$ when_UartCtrlRx_l125 $end
       $var wire  1 K, when_UartCtrlRx_l136 $end
       $var wire  1 7. when_UartCtrlRx_l139 $end
       $var wire  1 Y' when_UartCtrlRx_l43 $end
       $var wire  1 ]- when_UartCtrlRx_l69 $end
       $var wire  1 ?& when_UartCtrlRx_l93 $end
       $scope module io_rxd_buffercc $end
        $var wire  1 S, buffers_0 $end
        $var wire  1 y+ buffers_1 $end
        $var wire  1 I/ clk $end
        $var wire  1 _* io_dataIn $end
        $var wire  1 y+ io_dataOut $end
        $var wire  1 Q/ reset $end
       $upscope $end
      $upscope $end
      $scope module tx $end
       $var wire  1 I/ clk $end
       $var wire  3 a+ clockDivider_counter_value [2:0] $end
       $var wire  3 #$ clockDivider_counter_valueNext [2:0] $end
       $var wire  1 S0 clockDivider_counter_willClear $end
       $var wire  1 y# clockDivider_counter_willIncrement $end
       $var wire  1 +$ clockDivider_counter_willOverflow $end
       $var wire  1 i+ clockDivider_counter_willOverflowIfInc $end
       $var wire  1 A+ io_break $end
       $var wire  3 c0 io_configFrame_dataLength [2:0] $end
       $var wire  2 k0 io_configFrame_parity [1:0] $end
       $var wire 32 %1 io_configFrame_parity_string [31:0] $end
       $var wire  1 S0 io_configFrame_stop [0:0] $end
       $var wire 24 {0 io_configFrame_stop_string [23:0] $end
       $var wire  1 S0 io_cts $end
       $var wire  1 Y+ io_samplingTick $end
       $var wire  1 _* io_txd $end
       $var wire  8 9' io_write_payload [7:0] $end
       $var wire  1 '& io_write_ready $end
       $var wire  1 /& io_write_valid $end
       $var wire  1 Q/ reset $end
       $var wire  1 I' stateMachine_parity $end
       $var wire  3 q+ stateMachine_state [2:0] $end
       $var wire 48 3$ stateMachine_state_string [47:0] $end
       $var wire  1 7& stateMachine_txd $end
       $var wire  3 m- tickCounter_value [2:0] $end
       $var wire  1 ]% when_UartCtrlTx_l58 $end
       $var wire  1 u- when_UartCtrlTx_l73 $end
       $var wire  1 K0 when_UartCtrlTx_l76 $end
       $var wire  1 }- when_UartCtrlTx_l93 $end
      $upscope $end
     $upscope $end
     $scope module uartCtrl_1_io_read_queueWithOccupancy $end
      $var wire  1 I/ clk $end
      $var wire  5 a# io_availability [4:0] $end
      $var wire  1 S0 io_flush $end
      $var wire  5 Y# io_occupancy [4:0] $end
      $var wire  8 A' io_pop_payload [7:0] $end
      $var wire  1 s io_pop_ready $end
      $var wire  1 Q# io_pop_valid $end
      $var wire  8 1' io_push_payload [7:0] $end
      $var wire  1 I# io_push_ready $end
      $var wire  1 o* io_push_valid $end
      $var wire  1 E% logic_empty $end
      $var wire  1 M% logic_full $end
      $var wire  4 =- logic_popPtr_value [3:0] $end
      $var wire  4 }! logic_popPtr_valueNext [3:0] $end
      $var wire  1 S0 logic_popPtr_willClear $end
      $var wire  1 u! logic_popPtr_willIncrement $end
      $var wire  1 _" logic_popPtr_willOverflow $end
      $var wire  1 E- logic_popPtr_willOverflowIfInc $end
      $var wire  1 '" logic_popping $end
      $var wire  4 U- logic_ptrDif [3:0] $end
      $var wire  1 5% logic_ptrMatch $end
      $var wire  4 -- logic_pushPtr_value [3:0] $end
      $var wire  4 %% logic_pushPtr_valueNext [3:0] $end
      $var wire  1 S0 logic_pushPtr_willClear $end
      $var wire  1 {$ logic_pushPtr_willIncrement $end
      $var wire  1 -% logic_pushPtr_willOverflow $end
      $var wire  1 5- logic_pushPtr_willOverflowIfInc $end
      $var wire  1 =% logic_pushing $end
      $var wire  8 -) logic_ram(0) [7:0] $end
      $var wire  8 .) logic_ram(1) [7:0] $end
      $var wire  8 7) logic_ram(10) [7:0] $end
      $var wire  8 8) logic_ram(11) [7:0] $end
      $var wire  8 9) logic_ram(12) [7:0] $end
      $var wire  8 :) logic_ram(13) [7:0] $end
      $var wire  8 ;) logic_ram(14) [7:0] $end
      $var wire  8 <) logic_ram(15) [7:0] $end
      $var wire  8 /) logic_ram(2) [7:0] $end
      $var wire  8 0) logic_ram(3) [7:0] $end
      $var wire  8 1) logic_ram(4) [7:0] $end
      $var wire  8 2) logic_ram(5) [7:0] $end
      $var wire  8 3) logic_ram(6) [7:0] $end
      $var wire  8 4) logic_ram(7) [7:0] $end
      $var wire  8 5) logic_ram(8) [7:0] $end
      $var wire  8 6) logic_ram(9) [7:0] $end
      $var wire  1 M- logic_risingOccupancy $end
      $var wire  1 Q/ reset $end
      $var wire  1 g" when_Stream_l933 $end
     $upscope $end
    $upscope $end
   $upscope $end
  $upscope $end
 $upscope $end
$enddefinitions $end


#0
0#
b00000000000000000101011111001111 +
b00000000000000000000000000100111 3
1;
b00000000000000000000000000100111 C
0K
b00 S
0[
0c
0k
0s
0{
0%!
0-!
05!
0=!
0E!
0M!
0U!
0]!
b0000 e!
0m!
0u!
b0000 }!
0'"
0/"
07"
0?"
0G"
0O"
0W"
0_"
0g"
0o"
0w"
0!#
1)#
01#
b00000 9#
b10000 A#
1I#
0Q#
b00000 Y#
b10000 a#
0i#
0q#
1y#
b001 #$
0+$
b010010010100010001001100010001010010000000100000 3$
0C$
0K$
b010010010100010001001100010001010010000000100000 S$
1c$
1k$
0s$
0{$
b0000 %%
0-%
15%
0=%
1E%
0M%
0U%
0]%
0e%
0m%
0u%
0}%
0'&
0/&
17&
0?&
0G&
b0000 O&
0W&
b00001110100101100111100010010111 _&
b0010100001110110 g&
1o&
b0101011111001111 w&
1!'
b1110011110010010 )'
b10011110 1'
b01001011 9'
b00100111 A'
1I'
b100 Q'
0Y'
0a'
b00100110 i'
b10011110 j'
b00100101 k'
b11000110 l'
b01101100 m'
b10001010 n'
b10110011 o'
b00000110 p'
b01001101 q'
b00101001 r'
b01010101 s'
b01000011 t'
b01000000 u'
b10010011 v'
b11111110 w'
b10001011 x'
b10100111 -)
b00000001 .)
b01111000 /)
b01100111 0)
b10110000 1)
b01111101 2)
b00011001 3)
b00101000 4)
b10100001 5)
b01111100 6)
b10110100 7)
b00110111 8)
b01010010 9)
b10000111 :)
b11111001 ;)
b01011100 <)
1O*
b0000000000000000 W*
1_*
0g*
0o*
0w*
0!+
0)+
01+
09+
0A+
0I+
b00000000000000000000 Q+
1Y+
b000 a+
0i+
b000 q+
0y+
1#,
1+,
13,
0;,
b000 C,
0K,
0S,
b0000 [,
0c,
b0000 k,
0s,
0{,
b0000 %-
b0000 --
05-
b0000 =-
0E-
0M-
b0000 U-
1]-
1e-
b000 m-
0u-
1}-
b100 '.
0/.
07.
0?.
0G.
b0000000 O.
b00000000000000000000000000000000 W.
b00011111010010100110010111001001 _.
b00001110100101100111100010010111 g.
0o.
1w.
1!/
1)/
b1000111000111111 1/
b0010100001110110 9/
b0000000000000000 A/
0I/
1Q/
0Y/
b0000 a/
b00000 i/
0q/
b11001001 y/
1#0
0+0
030
1;0
0C0
1K0
0S0
1[0
b111 c0
b00 k0
b00000000000000000101 s0
b010011110100111001000101 {0
b01001110010011110100111001000101 %1
#160
0Q/
#170
b00000000000000001110011110010010 +
b00000000000000000000000010100111 3
b00000000000000001110011110010010 C
0y#
0o&
b1110011110010010 w&
0!'
b1000111000111111 )'
b00100110 9'
b10100111 A'
0O*
b00000000000000000101 Q+
0Y+
b001 a+
0#,
1;,
1S,
0]-
0e-
1I/
#175
0I/
#180
b00000000000000001000111000111111 +
b00000000000000001000111000111111 C
1K$
1o&
b1000111000111111 w&
b011 Q'
b00000000000000000100 Q+
1y+
03,
0;,
1K,
1I/
#185
0I/
#190
0K$
0o&
b00000000000000000011 Q+
13,
0K,
1I/
#195
0I/
#200
1o&
b00000000000000000010 Q+
1I/
#205
0I/
#210
0o&
b00000000000000000001 Q+
1I/
#215
0I/
#220
1y#
b010 #$
1o&
b00000000000000000000 Q+
1Y+
1]-
1I/
#225
0I/
#230
0y#
0o&
b00000000000000000101 Q+
0Y+
b010 a+
1#,
0+,
1;,
0]-
1I/
#235
0I/
#240
1o&
b010 Q'
b00000000000000000100 Q+
0;,
1I/
#245
0I/
#250
0o&
b00000000000000000011 Q+
1I/
#255
0I/
#260
1o&
b00000000000000000010 Q+
1I/
#265
0I/
#270
0o&
b00000000000000000001 Q+
1I/
#275
0I/
#280
b00000000000000000010100001110110 +
b00000000000100000000000000000000 3
b00000000000000000010100001110110 C
b01 S
1[
1y#
b011 #$
1o&
b00000000000000000000 Q+
1Y+
1]-
b00000000000000000000000000000100 W.
0w.
1I/
b0100 a/
b00100 i/
1q/
#285
0I/
#290
1#
0y#
0o&
b00000000000000000101 Q+
0Y+
b011 a+
1+,
1;,
0]-
b00000000000000000000000000001010 _.
0!/
1I/
b00001010 y/
0#0
1+0
0;0
#295
0I/
#300
1k
17"
1w"
1o&
b001 Q'
1g*
b00000000000000000100 Q+
0;,
1I/
#305
0I/
#310
0#
b00000000000000000000000000001010 +
b00000000000000000000000000001010 C
b00 S
0[
0k
07"
0w"
b0000000000001010 g&
0o&
1!'
b00000000000000000011 Q+
1w.
1!/
b0000000000001010 9/
1I/
0q/
#315
0I/
#320
1o&
0g*
b00000000000000000010 Q+
1I/
#325
0I/
#330
0o&
0!'
b00000000000000000001 Q+
1I/
#335
0I/
#340
b00000000000000001000111000111111 +
b00000000000000000000000010100111 3
b00000000000000001000111000111111 C
b01 S
1[
1y#
b100 #$
1o&
b00000000000000000000 Q+
1Y+
1]-
b00000000000000000000000000000000 W.
0w.
1I/
b0000 a/
b00000 i/
1q/
#345
0I/
#350
0y#
0o&
b00000000000000000101 Q+
0Y+
b100 a+
1i+
1;,
0]-
1o.
0)/
1I/
1Y/
#355
0I/
#360
1?"
1w"
b00000000000000001000111000111111 _&
1o&
b000 Q'
1Y'
1g*
b00000000000000000100 Q+
0;,
b00000000000000001000111000111111 g.
1I/
#365
0I/
#370
b00 S
0[
0?"
0w"
0o&
1!'
b00000000000000000011 Q+
0o.
1w.
1)/
1I/
0Y/
0q/
#375
0I/
#380
1o&
0g*
b00000000000000000010 Q+
1I/
#385
0I/
#390
0o&
0!'
b00000000000000000001 Q+
1I/
#395
0I/
#400
1y#
b000 #$
1+$
1o&
b00000000000000000000 Q+
1Y+
1]-
1I/
#405
0I/
#410
0y#
0+$
1C$
0o&
0I'
b00000000000000000101 Q+
0Y+
b000 a+
0i+
1;,
0]-
b001 m-
0}-
1I/
#415
0I/
