SPINAL_TEST/simWorkspace/Gtx_Top/test.vcd
$version Generated by VerilatedVcd $end
$date Tue Aug 10 11:28:29 2021
 $end
$timescale   1ns $end

 $scope module TOP $end
  $var wire 32 =! axiw_payload_data [31:0] $end
  $var wire  1 E! axiw_payload_last $end
  $var wire  1 5! axiw_ready $end
  $var wire  1 -! axiw_valid $end
  $var wire  1 e! clk $end
  $var wire  1 m! reset $end
  $var wire 32 M! tx_head [31:0] $end
  $var wire  1 U! tx_packet_req $end
  $var wire  1 ]! tx_packet_trigger $end
  $scope module Gtx_Top $end
   $var wire 32 =! axiw_payload_data [31:0] $end
   $var wire  1 E! axiw_payload_last $end
   $var wire  1 5! axiw_ready $end
   $var wire  1 -! axiw_valid $end
   $var wire  1 e! clk $end
   $var wire 32 [ gtxtx_crc_data [31:0] $end
   $var wire 32 3 gtxtx_s_axi_tx_tdata [31:0] $end
   $var wire  4 u! gtxtx_s_axi_tx_tkeep [3:0] $end
   $var wire  1 ; gtxtx_s_axi_tx_tlast $end
   $var wire  1 C gtxtx_s_axi_tx_tvalid $end
   $var wire  8 + gtxtx_tx_packet_addra [7:0] $end
   $var wire 32 k gtxtx_tx_packet_data [31:0] $end
   $var wire  1 s gtxtx_tx_packet_rden $end
   $var wire  1 m! reset $end
   $var wire 32 M! tx_head [31:0] $end
   $var wire  1 U! tx_packet_req $end
   $var wire  1 ]! tx_packet_trigger $end
   $scope module gtxtx $end
    $var wire  9 '" IDLE [8:0] $end
    $var wire  9 O" TX_CHECK [8:0] $end
    $var wire  9 G" TX_DATA [8:0] $end
    $var wire  9 W" TX_END [8:0] $end
    $var wire  9 7" TX_GTXID [8:0] $end
    $var wire  9 /" TX_HEAD [8:0] $end
    $var wire  9 ?" TX_LENGTH [8:0] $end
    $var wire  9 _" TX_TRIGGER [8:0] $end
    $var wire  9 g" TX_TRIGGER_END [8:0] $end
    $var wire 32 [ crc_data [31:0] $end
    $var wire  6 c current_beat_cnt [5:0] $end
    $var wire  9 { current_state [8:0] $end
    $var wire  1 S ireq_advance_condition $end
    $var wire  1 e! log_clk $end
    $var wire  1 m! log_rst_q $end
    $var wire  9 K next_state [8:0] $end
    $var wire 32 3 s_axi_tx_tdata [31:0] $end
    $var wire  4 u! s_axi_tx_tkeep [3:0] $end
    $var wire  1 ; s_axi_tx_tlast $end
    $var wire  1 5! s_axi_tx_tready $end
    $var wire  1 C s_axi_tx_tvalid $end
    $var wire  8 %! tx_addr_temp [7:0] $end
    $var wire  6 # tx_byte_cnt [5:0] $end
    $var wire  8 + tx_packet_addra [7:0] $end
    $var wire 32 k tx_packet_data [31:0] $end
    $var wire 32 }! tx_packet_gtxid [31:0] $end
    $var wire 32 M! tx_packet_head [31:0] $end
    $var wire  1 s tx_packet_rden $end
    $var wire  1 U! tx_packet_req $end
    $var wire  1 ]! tx_packet_trigger $end
   $upscope $end
  $upscope $end
 $upscope $end
$enddefinitions $end


#0
b000000 #
b11111111 +
b00000000000000000000000000000000 3
0;
0C
b000000000 K
0S
b11111111111111111111111111111111 [
b000000 c
b00101111111011010010011010011101 k
0s
b000000000 {
b00000000 %!
0-!
05!
b00000000000000000000000000000000 =!
0E!
b10001011000101001100011100101111 M!
0U!
0]!
0e!
1m!
b1111 u!
b00000000000000000000000000000001 }!
b000000000 '"
b000000001 /"
b000000010 7"
b000000100 ?"
b000001000 G"
b000010000 O"
b001000000 W"
b010000000 _"
b100000000 g"
#160
0m!
#170
1e!
#175
0e!
#180
1e!
#185
0e!
#190
1e!
#195
0e!
#200
1e!
#205
0e!
#210
1e!
#215
0e!
#220
1e!
#225
0e!
#230
1e!
#235
0e!
#240
1e!
#245
0e!
#250
1e!
#255
0e!
#260
b000000001 K
15!
b00000000000000000000000000010000 M!
1U!
1e!
#265
0e!
#270
b000001 #
b00000000 +
b00000000000000001111111110111100 3
1C
b000000010 K
1S
1s
b000000001 {
1-!
b00000000000000001111111110111100 =!
1e!
#275
0e!
#280
b11111111 +
b00000000000000000000000000000001 3
0C
0S
b000001 c
b00000000000000000000000000000001 k
b000000010 {
0-!
05!
b00000000000000000000000000000001 =!
0U!
1e!
#285
0e!
#290
b000010 #
b00000000 +
1C
b000000100 K
1S
b11000011110001011100000011001100 [
b00000000000000000000000100000000 k
1-!
15!
1e!
#295
0e!
#300
b00000000000000000000000000010000 3
0C
0S
b00100100110010001100000101100011 [
b000010 c
b00000000000000000000000000000001 k
b000000100 {
b00000001 %!
0-!
05!
b00000000000000000000000000010000 =!
1e!
#305
0e!
#310
b000011 #
b00000001 +
1C
b000001000 K
1S
b11111110100000000100001010111010 [
1-!
15!
1e!
#315
0e!
#320
b00000000000000000000000000000010 3
0C
0S
b10000000010010100000101111010111 [
b000011 c
b00000000000000000000000000000010 k
b000001000 {
b00000010 %!
0-!
05!
b00000000000000000000000000000010 =!
1e!
#325
0e!
#330
b000100 #
b00000010 +
1C
1S
1-!
15!
1e!
#335
0e!
#340
b00000000000000000000000000000011 3
0C
0S
b00100011010001000001110111101000 [
b000100 c
b00000000000000000000000000000011 k
b00000011 %!
0-!
05!
b00000000000000000000000000000011 =!
1e!
#345
0e!
#350
b000101 #
b00000011 +
1C
1S
1-!
15!
1e!
#355
0e!
#360
b00000000000000000000000000000100 3
0C
0S
b00011000000100011011001001101111 [
b000101 c
b00000000000000000000000000000100 k
b00000100 %!
0-!
05!
b00000000000000000000000000000100 =!
1e!
#365
0e!
#370
1e!
#375
0e!
#380
b000110 #
b00000100 +
1C
1S
1-!
15!
1e!
#385
0e!
#390
b000111 #
b00000101 +
b00000000000000000000000000000101 3
b10000111110011100011011100001010 [
b000110 c
b00000000000000000000000000000101 k
b00000101 %!
b00000000000000000000000000000101 =!
1e!
#395
0e!
#400
b00000000000000000000000000000110 3
0C
0S
b00010101011111010100000011101110 [
b000111 c
b00000000000000000000000000000110 k
b00000110 %!
0-!
05!
b00000000000000000000000000000110 =!
1e!
#405
0e!
#410
1e!
#415
0e!
#420
b001000 #
b00000110 +
1C
1S
1-!
15!
1e!
#425
0e!
#430
b00000000000000000000000000000111 3
0C
0S
b10101101101000000101111101101111 [
b001000 c
b00000000000000000000000000000111 k
b00000111 %!
0-!
05!
b00000000000000000000000000000111 =!
1e!
#435
0e!
#440
b001001 #
b00000111 +
1C
1S
1-!
15!
1e!
#445
0e!
#450
b00000000000000000000000000001000 3
0C
0S
b10100100000000110000011101101100 [
b001001 c
b00000000000000000000000000001000 k
b00001000 %!
0-!
05!
b00000000000000000000000000001000 =!
1e!
#455
0e!
#460
b001010 #
b00001000 +
1C
1S
1-!
15!
1e!
#465
0e!
#470
b00000000000000000000000000001001 3
0C
0S
b10111010111111010000110001010001 [
b001010 c
b00000000000000000000000000001001 k
b00001001 %!
0-!
05!
b00000000000000000000000000001001 =!
1e!
#475
0e!
#480
b001011 #
b00001001 +
1C
1S
1-!
15!
1e!
#485
0e!
#490
b00000000000000000000000000001010 3
0C
0S
b11011011100001011000001010101011 [
b001011 c
b00000000000000000000000000001010 k
b00001010 %!
0-!
05!
b00000000000000000000000000001010 =!
1e!
#495
0e!
#500
b001100 #
b00001010 +
1C
1S
1-!
15!
1e!
#505
0e!
#510
b001101 #
b00001011 +
b00000000000000000000000000001011 3
b00100100000000001111101010111010 [
b001100 c
b00000000000000000000000000001011 k
b00001011 %!
b00000000000000000000000000001011 =!
1e!
#515
0e!
#520
b001110 #
b00001100 +
b00000000000000000000000000001100 3
b11110110011000010101111010000001 [
b001101 c
b00000000000000000000000000001100 k
b00001100 %!
b00000000000000000000000000001100 =!
1e!
#525
0e!
#530
b00000000000000000000000000001101 3
0C
0S
b10000000010010011101001011110111 [
b001110 c
b00000000000000000000000000001101 k
b00001101 %!
0-!
05!
b00000000000000000000000000001101 =!
1e!
#535
0e!
#540
1e!
#545
0e!
#550
1e!
#555
0e!
#560
1e!
#565
0e!
#570
1e!
#575
0e!
#580
b001111 #
b00001101 +
1C
1S
1-!
15!
1e!
#585
0e!
#590
b010000 #
b00001110 +
b00000000000000000000000000001110 3
b00001010100010110100111001110101 [
b001111 c
b00000000000000000000000000001110 k
b00001110 %!
b00000000000000000000000000001110 =!
1e!
#595
0e!
#600
b00000000000000000000000000001111 3
0C
0S
b01000000001011010010010011011100 [
b010000 c
b00000000000000000000000000001111 k
b00001111 %!
0-!
05!
b00000000000000000000000000001111 =!
1e!
#605
0e!
#610
1e!
#615
0e!
#620
b010001 #
b00001111 +
1C
1S
1-!
15!
1e!
#625
0e!
#630
b010010 #
b00010000 +
b00000000000000000000000000010000 3
b10011011001001100000000010101001 [
b010001 c
b00000000000000000000000000010000 k
b00010000 %!
b00000000000000000000000000010000 =!
1e!
#635
0e!
#640
b010011 #
b00010001 +
b00000000000000000000000000010001 3
b000010000 K
b01101000010111100011110001011001 [
b010010 c
b00000000000000000000000000010001 k
b00010001 %!
b00000000000000000000000000010001 =!
1e!
#645
0e!
#650
b01001110101101110111101000110101 3
0C
0S
b01001110101101110111101000110101 [
b010011 c
b00000000000000000000000000010010 k
b000010000 {
b00010010 %!
0-!
05!
b01001110101101110111101000110101 =!
1e!
#655
0e!
#660
1e!
#665
0e!
#670
1e!
#675
0e!
#680
b010100 #
b00010010 +
1C
b001000000 K
1S
1-!
15!
1e!
#685
0e!
#690
b010101 #
b00000000000000001111111110111101 3
1;
b000000000 K
b010100 c
b00000000000000000000000000010011 k
b001000000 {
b00000000000000001111111110111101 =!
1E!
1e!
#695
0e!
#700
b000000 #
b00010001 +
b00000000000000000000000000000000 3
0;
0C
0S
b000000 c
0s
b000000000 {
0-!
b00000000000000000000000000000000 =!
0E!
1e!
#705
0e!
#710
b11111111111111111111111111111111 [
05!
1e!
#715
0e!
#720
15!
1e!
#725
0e!
#730
05!
1e!
#735
0e!
#740
15!
1e!
#745
0e!
#750
05!
1e!
#755
0e!
#760
15!
1e!
#765
0e!
#770
b000000001 K
b00000000000000000000001000010000 M!
1U!
1e!
#775
0e!
#780
b000001 #
b00010010 +
b00000000000000001111111110111100 3
1C
b000000010 K
1S
1s
b000000001 {
1-!
b00000000000000001111111110111100 =!
1e!
#785
0e!
#790
b000010 #
b00000000000000000000000000000001 3
b000000100 K
b000001 c
b000000010 {
b00000000000000000000000000000001 =!
0U!
1e!
#795
0e!
#800
b000011 #
b00000010 +
b00000000000000000000001000010000 3
b000001000 K
b11000011110001011100000011001100 [
b000010 c
b000000100 {
b00000010 %!
b00000000000000000000001000010000 =!
1e!
#805
0e!
#810
b000100 #
b00000011 +
b00000000000000000000000000000011 3
b11001100111010101001100110101011 [
b000011 c
b00000000000000000000000000000011 k
b000001000 {
b00000011 %!
b00000000000000000000000000000011 =!
1e!
#815
0e!
#820
b00000000000000000000000000000100 3
0C
0S
b01000011010111011100110001100010 [
b000100 c
b00000000000000000000000000000100 k
b00000100 %!
0-!
05!
b00000000000000000000000000000100 =!
1e!
#825
0e!
#830
1e!
#835
0e!
#840
b000101 #
b00000100 +
1C
1S
1-!
15!
1e!
#845
0e!
#850
b00000000000000000000000000000101 3
0C
0S
b01101000001111111110110000100010 [
b000101 c
b00000000000000000000000000000101 k
b00000101 %!
0-!
05!
b00000000000000000000000000000101 =!
1e!
#855
0e!
#860
1e!
#865
0e!
#870
b000110 #
b00000101 +
1C
1S
1-!
15!
1e!
#875
0e!
#880
b00000000000000000000000000000110 3
0C
0S
b01000101001000000011001101111111 [
b000110 c
b00000000000000000000000000000110 k
b00000110 %!
0-!
05!
b00000000000000000000000000000110 =!
1e!
#885
0e!
#890
1e!
#895
0e!
#900
b000111 #
b00000110 +
1C
1S
1-!
15!
1e!
#905
0e!
#910
b00000000000000000000000000000111 3
0C
0S
b11001010111110101100100100001001 [
b000111 c
b00000000000000000000000000000111 k
b00000111 %!
0-!
05!
b00000000000000000000000000000111 =!
1e!
#915
0e!
#920
1e!
#925
0e!
#930
1e!
#935
0e!
#940
b001000 #
b00000111 +
1C
1S
1-!
15!
1e!
#945
0e!
#950
b00000000000000000000000000001000 3
0C
0S
b00100100100001101000110000101101 [
b001000 c
b00000000000000000000000000001000 k
b00001000 %!
0-!
05!
b00000000000000000000000000001000 =!
1e!
#955
0e!
#960
1e!
#965
0e!
#970
b001001 #
b00001000 +
1C
1S
1-!
15!
1e!
#975
0e!
#980
b00000000000000000000000000001001 3
0C
0S
b10111100100111111100010110001110 [
b001001 c
b00000000000000000000000000001001 k
b00001001 %!
0-!
05!
b00000000000000000000000000001001 =!
1e!
#985
0e!
#990
b001010 #
b00001001 +
1C
1S
1-!
15!
1e!
#995
0e!
#1000
b00000000000000000000000000001010 3
0C
0S
b11100111101010101100111001010111 [
b001010 c
b00000000000000000000000000001010 k
b00001010 %!
0-!
05!
b00000000000000000000000000001010 =!
1e!
#1005
0e!
#1010
1e!
#1015
0e!
#1020
b001011 #
b00001010 +
1C
1S
1-!
15!
1e!
#1025
0e!
#1030
b001100 #
b00001011 +
b00000000000000000000000000001011 3
b10111110101001111001111001110000 [
b001011 c
b00000000000000000000000000001011 k
b00001011 %!
b00000000000000000000000000001011 =!
1e!
#1035
0e!
#1040
b00000000000000000000000000001100 3
0C
0S
b01100110111010100101011110010101 [
b001100 c
b00000000000000000000000000001100 k
b00001100 %!
0-!
05!
b00000000000000000000000000001100 =!
1e!
#1045
0e!
#1050
b001101 #
b00001100 +
1C
1S
1-!
15!
1e!
#1055
0e!
#1060
b00000000000000000000000000001101 3
0C
0S
b00110110000001010011111101011010 [
b001101 c
b00000000000000000000000000001101 k
b00001101 %!
0-!
05!
b00000000000000000000000000001101 =!
1e!
#1065
0e!
#1070
1e!
#1075
0e!
#1080
1e!
#1085
0e!
#1090
b001110 #
b00001101 +
1C
1S
1-!
15!
1e!
#1095
0e!
#1100
b001111 #
b00001110 +
b00000000000000000000000000001110 3
b00110000000011010111101000001010 [
b001110 c
b00000000000000000000000000001110 k
b00001110 %!
b00000000000000000000000000001110 =!
1e!
#1105
0e!
#1110
b010000 #
b00001111 +
b00000000000000000000000000001111 3
b01011101100010000111101100001001 [
b001111 c
b00000000000000000000000000001111 k
b00001111 %!
b00000000000000000000000000001111 =!
1e!
#1115
0e!
#1120
b00000000000000000000000000010000 3
0C
0S
b00001110011101110100010010111100 [
b010000 c
b00000000000000000000000000010000 k
b00010000 %!
0-!
05!
b00000000000000000000000000010000 =!
1e!
#1125
0e!
#1130
1e!
#1135
0e!
#1140
b010001 #
b00010000 +
1C
1S
1-!
15!
1e!
#1145
0e!
#1150
b010010 #
b00010001 +
b00000000000000000000000000010001 3
b10101100111110110100001010011100 [
b010001 c
b00000000000000000000000000010001 k
b00010001 %!
b00000000000000000000000000010001 =!
1e!
#1155
0e!
#1160
b010011 #
b00010010 +
b00000000000000000000000000010010 3
b000010000 K
b11000000001010111001000011111100 [
b010010 c
b00000000000000000000000000010010 k
b00010010 %!
b00000000000000000000000000010010 =!
1e!
#1165
0e!
#1170
b00101011101101100110100111100001 3
0C
0S
b00101011101101100110100111100001 [
b010011 c
b00000000000000000000000000010011 k
b000010000 {
b00010011 %!
0-!
05!
b00101011101101100110100111100001 =!
1e!
#1175
0e!
#1180
b010100 #
b00010011 +
1C
b001000000 K
1S
1-!
15!
1e!
#1185
0e!
#1190
b00010010 +
b00000000000000001111111110111101 3
1;
0C
0S
b010100 c
b00000000000000000000000000010100 k
b001000000 {
0-!
05!
b00000000000000001111111110111101 =!
1E!
1e!
#1195
0e!
#1200
b00000000000000000000000000010011 k
1e!
#1205
0e!
#1210
1e!
#1215
0e!
#1220
1e!
#1225
0e!
#1230
b010101 #
b00010011 +
1C
b000000000 K
1S
1-!
15!
1e!
#1235
0e!
#1240
b000000 #
b00010010 +
b00000000000000000000000000000000 3
0;
0C
0S
b000000 c
b00000000000000000000000000010100 k
0s
b000000000 {
0-!
b00000000000000000000000000000000 =!
0E!
1e!
#1245
0e!
#1250
b11111111111111111111111111111111 [
05!
1e!
