SPINAL_TEST/simWorkspace/post_cir_cordic/test.vcd
$version Generated by VerilatedVcd $end
$date Fri Jul 30 16:57:37 2021
 $end
$timescale   1ns $end

 $scope module TOP $end
  $var wire  1 Q' clk $end
  $var wire 16 I' cos_out [15:0] $end
  $var wire 17 9' data_in [16:0] $end
  $var wire  1 Y' reset $end
  $var wire 16 A' sin_out [15:0] $end
  $scope module post_cir_cordic $end
   $var wire  2 C cir_cordic_calculate_1_flag_out [1:0] $end
   $var wire 16 S cir_cordic_calculate_1_my_cos [15:0] $end
   $var wire 16 K cir_cordic_calculate_1_my_sin [15:0] $end
   $var wire  1 Q' clk $end
   $var wire 16 I' cos_out [15:0] $end
   $var wire 16 c cos_temp [15:0] $end
   $var wire 17 9' data_in [16:0] $end
   $var wire 17 3 pre_cir_cordic_1_alpha [16:0] $end
   $var wire  2 ; pre_cir_cordic_1_flag [1:0] $end
   $var wire  1 Y' reset $end
   $var wire 16 A' sin_out [15:0] $end
   $var wire 16 [ sin_temp [15:0] $end
   $var wire 16 a' zero [15:0] $end
   $scope module cir_cordic_calculate_1 $end
    $var wire 16 5! Xi_temp_0 [15:0] $end
    $var wire 16 =! Xi_temp_1 [15:0] $end
    $var wire 16 '" Xi_temp_10 [15:0] $end
    $var wire 16 /" Xi_temp_11 [15:0] $end
    $var wire 16 7" Xi_temp_12 [15:0] $end
    $var wire 16 ?" Xi_temp_13 [15:0] $end
    $var wire 16 S Xi_temp_14 [15:0] $end
    $var wire 16 E! Xi_temp_2 [15:0] $end
    $var wire 16 M! Xi_temp_3 [15:0] $end
    $var wire 16 U! Xi_temp_4 [15:0] $end
    $var wire 16 ]! Xi_temp_5 [15:0] $end
    $var wire 16 e! Xi_temp_6 [15:0] $end
    $var wire 16 m! Xi_temp_7 [15:0] $end
    $var wire 16 u! Xi_temp_8 [15:0] $end
    $var wire 16 }! Xi_temp_9 [15:0] $end
    $var wire 16 G" Yi_temp_0 [15:0] $end
    $var wire 16 O" Yi_temp_1 [15:0] $end
    $var wire 16 9# Yi_temp_10 [15:0] $end
    $var wire 16 A# Yi_temp_11 [15:0] $end
    $var wire 16 I# Yi_temp_12 [15:0] $end
    $var wire 16 Q# Yi_temp_13 [15:0] $end
    $var wire 16 K Yi_temp_14 [15:0] $end
    $var wire 16 W" Yi_temp_2 [15:0] $end
    $var wire 16 _" Yi_temp_3 [15:0] $end
    $var wire 16 g" Yi_temp_4 [15:0] $end
    $var wire 16 o" Yi_temp_5 [15:0] $end
    $var wire 16 w" Yi_temp_6 [15:0] $end
    $var wire 16 !# Yi_temp_7 [15:0] $end
    $var wire 16 )# Yi_temp_8 [15:0] $end
    $var wire 16 1# Yi_temp_9 [15:0] $end
    $var wire 17 Y# Zi_temp_0 [16:0] $end
    $var wire 17 a# Zi_temp_1 [16:0] $end
    $var wire 17 K$ Zi_temp_10 [16:0] $end
    $var wire 17 S$ Zi_temp_11 [16:0] $end
    $var wire 17 [$ Zi_temp_12 [16:0] $end
    $var wire 17 c$ Zi_temp_13 [16:0] $end
    $var wire 17 k$ Zi_temp_14 [16:0] $end
    $var wire 17 i# Zi_temp_2 [16:0] $end
    $var wire 17 q# Zi_temp_3 [16:0] $end
    $var wire 17 y# Zi_temp_4 [16:0] $end
    $var wire 17 #$ Zi_temp_5 [16:0] $end
    $var wire 17 +$ Zi_temp_6 [16:0] $end
    $var wire 17 3$ Zi_temp_7 [16:0] $end
    $var wire 17 ;$ Zi_temp_8 [16:0] $end
    $var wire 17 C$ Zi_temp_9 [16:0] $end
    $var wire 17 3 alpha_in [16:0] $end
    $var wire  1 Q' clk $end
    $var wire  2 ; flag_in [1:0] $end
    $var wire  2 C flag_out [1:0] $end
    $var wire  2 s$ flag_temp_0 [1:0] $end
    $var wire  2 {$ flag_temp_1 [1:0] $end
    $var wire  2 e% flag_temp_10 [1:0] $end
    $var wire  2 m% flag_temp_11 [1:0] $end
    $var wire  2 u% flag_temp_12 [1:0] $end
    $var wire  2 }% flag_temp_13 [1:0] $end
    $var wire  2 C flag_temp_14 [1:0] $end
    $var wire  2 %% flag_temp_2 [1:0] $end
    $var wire  2 -% flag_temp_3 [1:0] $end
    $var wire  2 5% flag_temp_4 [1:0] $end
    $var wire  2 =% flag_temp_5 [1:0] $end
    $var wire  2 E% flag_temp_6 [1:0] $end
    $var wire  2 M% flag_temp_7 [1:0] $end
    $var wire  2 U% flag_temp_8 [1:0] $end
    $var wire  2 ]% flag_temp_9 [1:0] $end
    $var wire 16 S my_cos [15:0] $end
    $var wire 16 K my_sin [15:0] $end
    $var wire 17 i' myarctan_0 [16:0] $end
    $var wire 17 q' myarctan_1 [16:0] $end
    $var wire 17 [( myarctan_10 [16:0] $end
    $var wire 17 c( myarctan_11 [16:0] $end
    $var wire 17 k( myarctan_12 [16:0] $end
    $var wire 17 s( myarctan_13 [16:0] $end
    $var wire 17 {( myarctan_14 [16:0] $end
    $var wire 17 y' myarctan_2 [16:0] $end
    $var wire 17 #( myarctan_3 [16:0] $end
    $var wire 17 +( myarctan_4 [16:0] $end
    $var wire 17 3( myarctan_5 [16:0] $end
    $var wire 17 ;( myarctan_6 [16:0] $end
    $var wire 17 C( myarctan_7 [16:0] $end
    $var wire 17 K( myarctan_8 [16:0] $end
    $var wire 17 S( myarctan_9 [16:0] $end
    $var wire  1 Y' reset $end
    $var wire  1 '& when_SinTest_l82 $end
    $var wire  1 /& when_SinTest_l82_1 $end
    $var wire  1 w& when_SinTest_l82_10 $end
    $var wire  1 !' when_SinTest_l82_11 $end
    $var wire  1 )' when_SinTest_l82_12 $end
    $var wire  1 1' when_SinTest_l82_13 $end
    $var wire  1 7& when_SinTest_l82_2 $end
    $var wire  1 ?& when_SinTest_l82_3 $end
    $var wire  1 G& when_SinTest_l82_4 $end
    $var wire  1 O& when_SinTest_l82_5 $end
    $var wire  1 W& when_SinTest_l82_6 $end
    $var wire  1 _& when_SinTest_l82_7 $end
    $var wire  1 g& when_SinTest_l82_8 $end
    $var wire  1 o& when_SinTest_l82_9 $end
   $upscope $end
   $scope module pre_cir_cordic_1 $end
    $var wire 17 -! NgPi_data [16:0] $end
    $var wire 17 %! Pi_data [16:0] $end
    $var wire 17 3 alpha [16:0] $end
    $var wire  1 Q' clk $end
    $var wire 17 k compare_data [16:0] $end
    $var wire 17 9' data_in [16:0] $end
    $var wire  2 ; flag [1:0] $end
    $var wire  2 ; flag_temp [1:0] $end
    $var wire 17 { input_data [16:0] $end
    $var wire  1 Y' reset $end
    $var wire 17 3 temp [16:0] $end
    $var wire  1 # when_SinTest_l30 $end
    $var wire  1 + when_SinTest_l33 $end
    $var wire 17 s zero [16:0] $end
   $upscope $end
  $upscope $end
 $upscope $end
$enddefinitions $end


#0
0#
1+
b10111111101001001 3
b10 ;
b11 C
b1000101001100010 K
b0100010111011110 S
b0011011000001100 [
b0001100011010011 c
b11100010101010111 k
b11111011110001101 s
b10100010011111100 {
b00100100111001010 %!
b00010000011110111 -!
b0111010100100100 5!
b0011100111110110 =!
b1010101101011100 E!
b0101010011110101 M!
b1000100110010111 U!
b0000001111111011 ]!
b0000010100101110 e!
b1110111100111001 m!
b0100100110010101 u!
b1100100101110010 }!
b1110000011110100 '"
b1000110111100111 /"
b1100010110000010 7"
b0000110111000000 ?"
b0010110000010011 G"
b1111111011111110 O"
b0010001101010101 W"
b1010101001110111 _"
b0101110100011010 g"
b0100010111011000 o"
b0010011110010111 w"
b0110101111100001 !#
b1011000001100100 )#
b0111100000000110 1#
b0100000111101110 9#
b1111011000101001 A#
b1100011001011010 I#
b0100100101100001 Q#
b01011001111010010 Y#
b01010010001000000 a#
b01011111111000100 i#
b11010101110111111 q#
b11000000111000000 y#
b01001010001110000 #$
b01001000001000100 +$
b11101101011101110 3$
b01101100001001111 ;$
b11011010110100000 C$
b01011011101001011 K$
b11100111010101100 S$
b01011100010111101 [$
b01010011101000100 c$
b00011110010000110 k$
b01 s$
b01 {$
b11 %%
b01 -%
b10 5%
b01 =%
b00 E%
b01 M%
b10 U%
b01 ]%
b10 e%
b01 m%
b00 u%
b00 }%
1'&
1/&
17&
0?&
0G&
1O&
1W&
0_&
1g&
0o&
1w&
0!'
1)'
11'
b01101110100010100 9'
b0011011000001100 A'
b0001100011010011 I'
0Q'
1Y'
b0000000000000000 a'
b00011001001000011 i'
b00001110110101100 q'
b00000111110101101 y'
b00000011111110101 #(
b00000001111111110 +(
b00000000111111111 3(
b00000000011111111 ;(
b00000000001111111 C(
b00000000000111111 K(
b00000000000011111 S(
b00000000000001111 [(
b00000000000001000 c(
b00000000000000011 k(
b00000000000000010 s(
b00000000000000000 {(
#160
0Y'
#170
1#
0+
b01101101111111011 3
b11 ;
b00 C
b0100100101100001 K
b0000110110111101 S
b1000101001100010 [
b1011101000100010 c
b00110010010000111 k
b00000000000000000 s
b01101110100010100 {
b01100100100001111 %!
b10011011011110001 -!
b0010011011011101 5!
b0100100100010001 =!
b0011101001110111 E!
b1010001010000110 M!
b0100101001000011 U!
b1000111101101000 ]!
b0000000111001100 e!
b0000010010001111 m!
b1111000000010000 u!
b0100100111100100 }!
b1100100110101110 '"
b1110000011100011 /"
b1000110111100101 7"
b1100010110000101 ?"
b0000000000000000 G"
b1010000100110111 O"
b0001101111111001 W"
b0000111000101100 _"
b1001111111011000 g"
b0110010010000000 o"
b0100010111110111 w"
b0010011110101011 !#
b0110110000000010 )#
b1011000010101101 1#
b0111100000100001 9#
b0100000111100110 A#
b1111011000110111 I#
b1100011001010110 Q#
b10111111101001001 Y#
b01000000110001111 a#
b01000011010010100 i#
b01011000000010111 q#
b11011001110110100 y#
b11000010110111110 #$
b01001001001110001 +$
b01000111101000101 3$
b11101101101101101 ;$
b01101100000010000 C$
b11011010110111111 K$
b01011011100111100 S$
b11100111010110100 [$
b01011100010111010 c$
b01010011101000010 k$
b10 s$
b01 %%
b11 -%
b01 5%
b10 =%
b01 E%
b00 M%
b01 U%
b10 ]%
b01 e%
b10 m%
b01 u%
0'&
1?&
0O&
1_&
0g&
1o&
0w&
1!'
0)'
b1000101001100010 A'
b1011101000100010 I'
1Q'
#175
0Q'
#180
b11110101111111011 3
b10 ;
b1100011001010100 K
b1100010110000110 S
b0100100101100001 [
b0000110110111101 c
b0010011011011101 =!
b0111100001110101 E!
b0011001101111000 M!
b1010000011000000 U!
b0100010001000000 ]!
b1001001010001100 e!
b0000000010110100 m!
b0000010000111111 u!
b1111000001111100 }!
b0100101000001011 '"
b1100100111001100 /"
b1110000011011010 7"
b1000110111100100 ?"
b1101100100100011 O"
b1100010110111111 W"
b0010101010010110 _"
b0000001001111100 g"
b1001101100110011 o"
b0110100000000100 w"
b0100010111111110 !#
b0010011110110100 )#
b0110110000010001 1#
b1011000011010001 9#
b0111100000101110 A#
b0100000111100010 I#
b1111011000111110 Q#
b01101101111111011 Y#
b11011000110001100 a#
b00110001111100011 i#
b00111011011100111 q#
b01010100000100010 y#
b11011011110110010 #$
b11000011110111101 +$
b01001000101110010 3$
b01000111011000110 ;$
b11101101110101100 C$
b01101011111110001 K$
b11011010111001110 S$
b01011011100110100 [$
b11100111010110111 c$
b01011100010111000 k$
b11 s$
b10 {$
b01 -%
b11 5%
b01 =%
b10 E%
b01 M%
b00 U%
b01 ]%
b10 e%
b01 m%
b10 u%
b01 }%
1'&
0/&
1G&
0W&
1g&
0o&
1w&
0!'
1)'
01'
b0100100101100001 A'
b0000110110111101 I'
1Q'
#185
0Q'
#190
b01 C
b1111011001000001 K
b1000110111100011 S
b1100011001010100 [
b1100010110000110 c
b0001001101101110 E!
b1000011100000101 M!
b0010111000100101 U!
b1010000010011000 ]!
b0100000100011001 e!
b1001010000101100 m!
b0000000000101000 u!
b0000010000010111 }!
b1111000010110010 '"
b0100101000011110 /"
b1100100111011011 7"
b1110000011010101 ?"
b0010011011011101 O"
b1100010110110100 W"
b1110001111011100 _"
b0011000100000101 g"
b1111110010001000 o"
b1001100100010001 w"
b0110100110111001 !#
b0100010111111111 )#
b0010011110111000 1#
b0110110000011000 9#
b1011000011100011 A#
b0111100000110100 I#
b0100000111100000 Q#
b11110101111111011 Y#
b01010100110111000 a#
b11100111100111000 i#
b00101010000110110 q#
b00110111011110010 y#
b01010010000100100 #$
b11011100110110001 +$
b11000100010111100 3$
b01001000011110011 ;$
b01000111010000111 C$
b11101101111001011 K$
b01101011111100010 S$
b11011010111010110 [$
b01011011100110001 c$
b11100111010111001 k$
b10 s$
b11 {$
b10 %%
b01 5%
b11 =%
b01 E%
b10 M%
b01 U%
b00 ]%
b01 e%
b10 m%
b01 u%
b10 }%
0'&
1/&
07&
1O&
0_&
1o&
0w&
1!'
0)'
11'
b1100011001010100 A'
b1100010110000110 I'
1Q'
#195
0Q'
#200
b10 C
b0100000111011111 K
b1110000011010010 S
b1111011001000001 [
b1000110111100011 c
b0000010011011011 M!
b1000101010001001 U!
b0010101100010100 ]!
b1010000010110011 e!
b0011111101111101 m!
b1001010011111111 u!
b1111111111100010 }!
b0000010000000011 '"
b1111000011001101 /"
b0100101000100111 7"
b1100100111100010 ?"
b1101100100100011 O"
b0011101001001011 W"
b1100000011011000 _"
b1101010010111100 g"
b0011001111100111 o"
b1111100110001100 w"
b1001100000001100 !#
b0110101010010000 )#
b0100010111111111 1#
b0010011110111010 9#
b0110110000011011 A#
b1011000011101100 I#
b0111100000110111 Q#
b00001111000111110 a#
b01000110000001100 i#
b11101111011100101 q#
b00100110001000001 y#
b00110101011110100 #$
b01010001000100101 +$
b11011101010110000 3$
b11000100100111011 ;$
b01001000010110100 C$
b01000111001101000 K$
b11101101111011010 S$
b01101011111011010 [$
b11011010111011001 c$
b01011011100101111 k$
b10 {$
b11 %%
b10 -%
b01 =%
b11 E%
b01 M%
b10 U%
b01 ]%
b00 e%
b01 m%
b10 u%
b01 }%
17&
0?&
1W&
0g&
1w&
0!'
1)'
01'
b1111011001000001 A'
b1000110111100011 I'
1Q'
#205
0Q'
#210
b01 C
b0111100000111000 K
b1100100111100101 S
b0100000111011111 [
b0001111100101110 c
b0011101001001011 E!
b1111110011110110 U!
b1000110100111101 ]!
b0010100101110100 e!
b1010000011001100 m!
b0011111010101101 u!
b1001010101101001 }!
b1111111110111111 '"
b0000001111111001 /"
b1111000011011010 7"
b0100101000101011 ?"
b1110110010010001 W"
b0011111100100110 _"
b1100000000111100 g"
b1100110101100100 o"
b0011010100111111 w"
b1111100000001110 !#
b1001011110001101 )#
b0110101011111011 1#
b0100010111111110 9#
b0010011110111011 A#
b0110110000011100 I#
b1011000011110000 Q#
b00000000010010010 i#
b00111110001011111 q#
b11110011011011010 y#
b00100100001000011 #$
b00110100011110101 +$
b01010000100100110 3$
b11011101100101111 ;$
b11000100101111010 C$
b01001000010010101 K$
b01000111001011001 S$
b11101101111100010 [$
b01101011111010111 c$
b11011010111011011 k$
b10 %%
b11 -%
b10 5%
b01 E%
b11 M%
b01 U%
b10 ]%
b01 e%
b00 m%
b01 u%
b10 }%
1?&
0G&
1_&
0o&
1!'
0)'
11'
b0100000111011111 A'
b0001111100101110 I'
1Q'
#215
0Q'
#220
b10 C
b1011000011110010 K
b0100101000101101 S
b0111100000111000 [
b1100100111100101 c
b0011111100100110 M!
b1111100011111001 ]!
b1000111011010001 e!
b0010100010011111 m!
b1010000011011011 u!
b0011111001000100 }!
b1001010110011110 '"
b1111111110101101 /"
b0000001111110100 7"
b1111000011100000 ?"
b1111101100100011 _"
b0011111111000001 g"
b1100000001101100 o"
b1100100111001101 w"
b0011010111100100 !#
b1111011101001111 )#
b1001011101001110 1#
b0110101100110000 9#
b0100010111111101 A#
b0010011110111011 I#
b0110110000011100 Q#
b11111000011100101 q#
b00111010001101010 y#
b11110101011011000 #$
b00100011001000100 +$
b00110011111110110 3$
b01010000010100111 ;$
b11011101101101110 C$
b11000100110011001 K$
b01001000010000110 S$
b01000111001010001 [$
b11101101111100101 c$
b01101011111010101 k$
b10 -%
b11 5%
b10 =%
b01 M%
b11 U%
b01 ]%
b10 e%
b01 m%
b00 u%
b01 }%
0?&
1G&
0O&
1g&
0w&
1)'
01'
b0111100000111000 A'
b1100100111100101 I'
1Q'
#225
0Q'
#230
b01 C
b0110110000011100 K
b1111000011100011 S
b1011000011110010 [
b1011010111010011 c
b0011111010001010 U!
b1111011011111100 e!
b1000111110101001 m!
b0010100000110011 u!
b1010000011100011 }!
b0011111000001111 '"
b1001010110111000 /"
b1111111110100100 7"
b0000001111110001 ?"
b1111001100111110 g"
b0011111110010000 o"
b1100000010100100 w"
b1100100000001000 !#
b0011011000110101 )#
b1111011011101111 1#
b1001011100101110 9#
b0110101101001010 A#
b0100010111111100 I#
b0010011110111011 Q#
b11111100011011010 y#
b00111000001101100 #$
b11110110011010111 +$
b00100010101000101 3$
b00110011101110111 ;$
b01010000001101000 C$
b11011101110001101 K$
b11000100110101000 S$
b01001000001111110 [$
b01000111001001110 c$
b11101101111100111 k$
b10 5%
b11 =%
b10 E%
b01 U%
b11 ]%
b01 e%
b10 m%
b01 u%
b00 }%
0G&
1O&
0W&
1o&
0!'
11'
b1011000011110010 A'
b1011010111010011 I'
1Q'
#235
0Q'
#240
b00 C
b0010011110111011 K
b0000001111101111 S
b0110110000011100 [
b1111000011100011 c
b0011110110111101 ]!
b1111010111111110 m!
b1001000000011000 u!
b0010011111111100 }!
b1010000011100111 '"
b0011110111110100 /"
b1001010111000101 7"
b1111111110011111 ?"
b1110111101010101 o"
b0011111101010111 w"
b1100000011001000 !#
b1100011100100111 )#
b0011011001011101 1#
b1111011010111111 9#
b1001011100011110 A#
b0110101101010111 I#
b0100010111111011 Q#
b11111110011011000 #$
b00110111001101101 +$
b11110110111010110 3$
b00100010011000110 ;$
b00110011100111000 C$
b01010000001001001 K$
b11011101110011100 S$
b11000100110110000 [$
b01001000001111011 c$
b01000111001001100 k$
b10 =%
b11 E%
b10 M%
b01 ]%
b11 e%
b01 m%
b10 u%
b01 }%
0O&
1W&
0_&
1w&
0)'
b0110110000011100 A'
b1111000011100011 I'
1Q'
#245
0Q'
#250
b01 C
b0100010111111010 K
b1111111110011100 S
b0010011110111011 [
b0000001111101111 c
b0011110100110111 e!
b1111010101111111 u!
b1001000001010000 }!
b0010011111100000 '"
b1010000011101001 /"
b0011110111100110 7"
b1001010111001011 ?"
b1110110101100111 w"
b0011111100110010 !#
b1100000011011100 )#
b1100011010110111 1#
b0011011001110000 9#
b1111011010100111 A#
b1001011100010110 I#
b0110101101011101 Q#
b11111111011010111 +$
b00110110101101110 3$
b11110111001010101 ;$
b00100010010000111 C$
b00110011100011001 K$
b01010000000111010 S$
b11011101110100100 [$
b11000100110110011 c$
b01001000001111001 k$
b10 E%
b11 M%
b10 U%
b01 e%
b11 m%
b01 u%
b10 }%
0W&
1_&
0g&
1!'
01'
b0010011110111011 A'
b0000001111101111 I'
1Q'
#255
0Q'
#260
b10 C
b0110101101100000 K
b1001010111001110 S
b0100010111111010 [
b1111111110011100 c
b0011110011101100 m!
b1111010100111111 }!
b1001000001101100 '"
b0010011111010010 /"
b1010000011101010 7"
b0011110111011111 ?"
b1110110001110010 !#
b0011111100011101 )#
b1100000011100110 1#
b1100011001111111 9#
b0011011001111001 A#
b1111011010011011 I#
b1001011100010010 Q#
b11111111111010110 3$
b00110110011101111 ;$
b11110111010010100 C$
b00100010001101000 K$
b00110011100001010 S$
b01010000000110010 [$
b11011101110100111 c$
b11000100110110101 k$
b10 M%
b11 U%
b10 ]%
b01 m%
b11 u%
b01 }%
0_&
1g&
0o&
1)'
b00011001001000011 9'
b0100010111111010 A'
b1111111110011100 I'
1Q'
#265
0Q'
#270
0#
b01 C
b1001011100010000 K
b0011110111011011 S
b0110101101100000 [
b0110101000110010 c
b00011001001000011 {
b0011110011000100 u!
b1111010100011111 '"
b1001000001111010 /"
b0010011111001011 7"
b1010000011101010 ?"
b1110101111111000 )#
b0011111100010010 1#
b1100000011101011 9#
b1100011001100011 A#
b0011011001111101 I#
b1111011010010101 Q#
b00000000001010101 ;$
b00110110010110000 C$
b11110111010110011 K$
b00100010001011001 S$
b00110011100000010 [$
b01010000000101111 c$
b11011101110101001 k$
b10 U%
b11 ]%
b10 e%
b01 u%
b11 }%
1o&
0w&
11'
b0110101101100000 A'
b0110101000110010 I'
1Q'
#275
0Q'
#280
b00011001001000011 3
b00 ;
b11 C
b1111011010010010 K
b1010000011101010 S
b1001011100010000 [
b0011110111011011 c
b0011110011011000 }!
b1111010100001111 /"
b1001000010000001 7"
b0010011111000111 ?"
b1110110000110100 1#
b0011111100001100 9#
b1100000011101101 A#
b1100011001010101 I#
b0011011001111111 Q#
b00000000000010110 C$
b00110110010010001 K$
b11110111011000010 S$
b00100010001010001 [$
b00110011011111111 c$
b01010000000101101 k$
b10 ]%
b11 e%
b10 m%
b01 }%
1w&
0!'
b1001011100010000 A'
b0011110111011011 I'
1Q'
#285
0Q'
#290
b01 C
b0011011010000000 K
b0010011111000101 S
b1111011010010010 [
b0101111100010110 c
b0011110011100001 '"
b1111010100000111 7"
b1001000010000100 ?"
b1110110001010010 9#
b0011111100001001 A#
b1100000011101110 I#
b1100011001001110 Q#
b00011001001000011 Y#
b11111111111110111 K$
b00110110010000010 S$
b11110111011001010 [$
b00100010001001110 c$
b00110011011111101 k$
b00 s$
b10 e%
b11 m%
b10 u%
1'&
0w&
1!'
0)'
b1111011010010010 A'
b0101111100010110 I'
1Q'
#295
0Q'
#300
b1100011001001010 K
b1001000010000101 S
b0011011010000000 [
b0010011111000101 c
b0011110011011100 /"
b1111010100000011 ?"
b0010011011011101 O"
b1110110001000010 A#
b0011111100000111 I#
b1100000011101110 Q#
b00000000000000000 a#
b00000000000000110 S$
b00110110001111010 [$
b11110111011001101 c$
b00100010001001100 k$
b00 {$
b10 m%
b11 u%
b10 }%
1)'
01'
b0011011010000000 A'
b0010011111000101 I'
1Q'
#305
0Q'
#310
b10 C
b1100000011101110 K
b1111010100000001 S
b1100011001001010 [
b1001000010000101 c
b0001001101101110 E!
b0011110011011110 7"
b0011101001001011 W"
b1110110001001001 I#
b0011111100000110 Q#
b11110001001010100 i#
b11111111111111110 [$
b00110110001110111 c$
b11110111011001111 k$
b00 %%
b10 u%
b11 }%
07&
0)'
11'
b1100011001001010 A'
b1001000010000101 I'
1Q'
#315
0Q'
#320
b11 C
b0011111100000101 K
b1100000011101110 [
b0000101011111111 c
b0010001000000000 M!
b0011110011011100 ?"
b0011010101101111 _"
b1110110001000101 Q#
b11111001000000001 q#
b00000000000000001 c$
b00110110001110101 k$
b00 -%
b10 }%
b1100000011101110 A'
b0000101011111111 I'
1Q'
#325
0Q'
#330
b10 C
b1110110001000110 K
b0011110011011100 S
b0011111100000101 [
b0010100010101101 U!
b0011000100101111 g"
b11111100111110110 y#
b11111111111111111 k$
b00 5%
b0011111100000101 A'
1Q'
#335
0Q'
#340
b1110110001000110 [
b1100001100100100 c
b0010101110111111 ]!
b0010111010100100 o"
b11111110111110100 #$
b00 =%
b1110110001000110 A'
b1100001100100100 I'
1Q'
#345
0Q'
#350
b0010110100110100 e!
b0010110101000110 w"
b11111111111110011 +$
b00 E%
1Q'
#355
0Q'
#360
b0010110111101001 m!
b0010110010010001 !#
b00000000011110010 3$
b00 M%
1_&
1Q'
#365
0Q'
#370
b0010110110001111 u!
b0010110011101100 )#
b00000000001110011 ;$
b00 U%
1Q'
#375
0Q'
#380
b0010110101100010 }!
b0010110100011001 1#
b00000000000110100 C$
b00 ]%
1Q'
#385
0Q'
#390
b0010110101001011 '"
b0010110100101111 9#
b00000000000010101 K$
b00 e%
1w&
1Q'
#395
0Q'
#400
b0010110100111111 /"
b0010110100111010 A#
b00 m%
1Q'
#405
0Q'
#410
b0010110100111001 7"
b0010110100111111 I#
b00 u%
1Q'
#415
0Q'
#420
b0010110100111011 ?"
b0010110100111100 Q#
b00 }%
1Q'
#425
0Q'
#430
b00 C
b0010110100111101 K
b0010110100111001 S
1Q'
#435
0Q'
#440
b0010110100111101 [
b0010110100111001 c
b0010110100111101 A'
b0010110100111001 I'
1Q'
#445
0Q'
#450
1Q'
#455
0Q'
#460
b00110010010001000 9'
1Q'
#465
0Q'
#470
1#
b00110010010001000 {
1Q'
#475
0Q'
#480
b00110010010000111 3
b10 ;
1Q'
#485
0Q'
#490
b00110010010000111 Y#
b10 s$
1Q'
#495
0Q'
#500
b00011001001000100 a#
b10 {$
1Q'
#505
0Q'
#510
b00001010010011000 i#
b10 %%
17&
1Q'
#515
0Q'
#520
b0000010011011011 M!
b0011111100100110 _"
b00000010011101011 q#
b10 -%
1?&
1Q'
#525
0Q'
#530
b1111110011110110 U!
b0011111111000001 g"
b11111110011110110 y#
b10 5%
1Q'
#535
0Q'
#540
b0000000011110010 ]!
b0011111111110001 o"
b00000000011110100 #$
b10 =%
1O&
1Q'
#545
0Q'
#550
b1111111011110010 e!
b0011111111111000 w"
b11111111011110101 +$
b10 E%
1Q'
#555
0Q'
#560
b1111111111110001 m!
b0011111111111100 !#
b11111111111110100 3$
b10 M%
0_&
1Q'
#565
0Q'
#570
b0000000001110000 u!
b0011111111111100 )#
b10 U%
1Q'
#575
0Q'
#580
b0000000000110000 }!
b0011111111111100 1#
b10 ]%
1Q'
#585
0Q'
#590
b0000000000010000 '"
b0011111111111100 9#
b10 e%
1Q'
#595
0Q'
#600
b0000000000000000 /"
b0011111111111100 A#
b10 m%
1Q'
#605
0Q'
#610
b1111111111111000 7"
b0011111111111100 I#
b10 u%
1Q'
#615
0Q'
#620
b1111111111111011 ?"
b0011111111111100 Q#
b10 }%
1Q'
#625
0Q'
#630
b10 C
b0011111111111011 K
b1111111111111001 S
1Q'
#635
0Q'
#640
b0011111111111011 [
b0000000000000111 c
b0011111111111011 A'
b0000000000000111 I'
1Q'
#645
0Q'
#650
1Q'
#655
0Q'
#660
b01001011011001100 9'
1Q'
#665
0Q'
#670
b01001011011001100 {
1Q'
#675
0Q'
#680
b00011001001000011 3
1Q'
#685
0Q'
#690
b00011001001000011 Y#
1Q'
#695
0Q'
#700
b00000000000000000 a#
1Q'
#705
0Q'
#710
b11110001001010100 i#
07&
1Q'
#715
0Q'
#720
b0010001000000000 M!
b0011010101101111 _"
b11111001000000001 q#
0?&
1Q'
#725
0Q'
#730
b0010100010101101 U!
b0011000100101111 g"
b11111100111110110 y#
1Q'
#735
0Q'
#740
b0010101110111111 ]!
b0010111010100100 o"
b11111110111110100 #$
0O&
1Q'
#745
0Q'
#750
b0010110100110100 e!
b0010110101000110 w"
b11111111111110011 +$
1Q'
#755
0Q'
#760
b0010110111101001 m!
b0010110010010001 !#
b00000000011110010 3$
1_&
1Q'
#765
0Q'
#770
b0010110110001111 u!
b0010110011101100 )#
1Q'
#775
0Q'
#780
b0010110101100010 }!
b0010110100011001 1#
1Q'
#785
0Q'
#790
b0010110101001011 '"
b0010110100101111 9#
1Q'
#795
0Q'
#800
b0010110100111111 /"
b0010110100111010 A#
1Q'
#805
0Q'
#810
b0010110100111001 7"
b0010110100111111 I#
1Q'
#815
0Q'
#820
b0010110100111011 ?"
b0010110100111100 Q#
1Q'
#825
0Q'
#830
b0010110100111101 K
b0010110100111001 S
1Q'
#835
0Q'
#840
b0010110100111101 [
b1101001011000111 c
b0010110100111101 A'
b1101001011000111 I'
1Q'
#845
0Q'
#850
1Q'
#855
0Q'
#860
b01100100011110101 9'
1Q'
#865
0Q'
#870
b01100100011110101 {
1Q'
#875
0Q'
#880
b00000000000011010 3
1Q'
#885
0Q'
#890
b00000000000011010 Y#
1Q'
#895
0Q'
#900
b11100110111010111 a#
0/&
1Q'
#905
0Q'
#910
b0011101001001011 E!
b0001001101101110 W"
b11110101110000011 i#
1Q'
#915
0Q'
#920
b0011111100100110 M!
b0000010011011011 _"
b11111101100110000 q#
1Q'
#925
0Q'
#930
b0011111111000001 U!
b1111110011110110 g"
b00000001100100101 y#
1G&
1Q'
#935
0Q'
#940
b0011111111110001 ]!
b0000000011110010 o"
b11111111100100111 #$
1Q'
#945
0Q'
#950
b0011111111111000 e!
b1111111011110010 w"
b00000000100100110 +$
1W&
1Q'
#955
0Q'
#960
b0011111111111100 m!
b1111111111110001 !#
b00000000000100111 3$
1Q'
#965
0Q'
#970
b0011111111111100 u!
b0000000001110000 )#
b11111111110101000 ;$
0g&
1Q'
#975
0Q'
#980
b0011111111111100 }!
b0000000000110000 1#
b11111111111100111 C$
0o&
1Q'
#985
0Q'
#990
b0011111111111100 '"
b0000000000010000 9#
b00000000000000110 K$
1Q'
#995
0Q'
#1000
b0011111111111011 /"
b0000000000011111 A#
b11111111111110111 S$
0!'
1Q'
#1005
0Q'
#1010
b0011111111111011 7"
b0000000000010111 I#
b11111111111111111 [$
1Q'
#1015
0Q'
#1020
b0011111111111011 ?"
b0000000000010011 Q#
b00000000000000010 c$
1Q'
#1025
0Q'
#1030
b0000000000010100 K
b0011111111111010 S
b00000000000000000 k$
1Q'
#1035
0Q'
#1040
b0000000000010100 [
b1100000000000110 c
b0000000000010100 A'
b1100000000000110 I'
1Q'
#1045
0Q'
#1050
1Q'
#1055
0Q'
#1060
b11100110100001000 9'
1Q'
#1065
0Q'
#1070
0#
b11100110100001000 {
1Q'
#1075
0Q'
#1080
b11100110100001000 3
b00 ;
1Q'
#1085
0Q'
#1090
b11100110100001000 Y#
b00 s$
0'&
1Q'
#1095
0Q'
#1100
b1101100100100011 O"
b11111111101001011 a#
b00 {$
1Q'
#1105
0Q'
#1110
b0001001101101110 E!
b1100010110110100 W"
b00001110011110111 i#
b00 %%
17&
1Q'
#1115
0Q'
#1120
b0010001000000001 M!
b1100101010001111 _"
b00000110101001010 q#
b00 -%
1?&
1Q'
#1125
0Q'
#1130
b0010100010101111 U!
b1100111011001111 g"
b00000010101010101 y#
b00 5%
1Q'
