SPINAL_TEST/simWorkspace/EmifToBram_test/test.vcd
$version Generated by VerilatedVcd $end
$date Mon Aug 09 17:41:12 2021
 $end
$timescale   1ns $end

 $scope module TOP $end
  $var wire  1 ]! clk $end
  $var wire 24 %! emif_emif_addr [23:0] $end
  $var wire  1 E! emif_emif_cs $end
  $var wire 16 -! emif_emif_data_read [15:0] $end
  $var wire 16 5! emif_emif_data_write [15:0] $end
  $var wire  1 =! emif_emif_data_writeEnable $end
  $var wire  1 U! emif_emif_oe $end
  $var wire  1 M! emif_emif_we $end
  $var wire  1 e! reset $end
  $scope module EmifToBram_test $end
   $var wire 32 [ apb3Router_1_io_input_PRDATA [31:0] $end
   $var wire  1 W" apb3Router_1_io_input_PREADY $end
   $var wire  1 _" apb3Router_1_io_input_PSLVERROR $end
   $var wire 20 }! apb3Router_1_io_outputs_0_PADDR [19:0] $end
   $var wire  1 s apb3Router_1_io_outputs_0_PENABLE $end
   $var wire  1 # apb3Router_1_io_outputs_0_PSEL [0:0] $end
   $var wire 32 7" apb3Router_1_io_outputs_0_PWDATA [31:0] $end
   $var wire  1 /" apb3Router_1_io_outputs_0_PWRITE $end
   $var wire 32 [ apb3tobram_1_io_apb_PRDATA [31:0] $end
   $var wire  1 W" apb3tobram_1_io_apb_PREADY $end
   $var wire  1 _" apb3tobram_1_io_apb_PSLVERROR $end
   $var wire  8 ?" apb3tobram_1_io_bram_addr [7:0] $end
   $var wire  1 # apb3tobram_1_io_bram_en $end
   $var wire 32 [ apb3tobram_1_io_bram_rddata [31:0] $end
   $var wire  4 + apb3tobram_1_io_bram_we [3:0] $end
   $var wire 32 7" apb3tobram_1_io_bram_wrdata [31:0] $end
   $var wire 32 [ apb_decoder_io_input_PRDATA [31:0] $end
   $var wire  1 3 apb_decoder_io_input_PREADY $end
   $var wire  1 ; apb_decoder_io_input_PSLVERROR $end
   $var wire 20 }! apb_decoder_io_output_PADDR [19:0] $end
   $var wire  1 s apb_decoder_io_output_PENABLE $end
   $var wire  1 C apb_decoder_io_output_PSEL [0:0] $end
   $var wire 32 7" apb_decoder_io_output_PWDATA [31:0] $end
   $var wire  1 /" apb_decoder_io_output_PWRITE $end
   $var wire  1 ]! clk $end
   $var wire 24 %! emif_emif_addr [23:0] $end
   $var wire  1 E! emif_emif_cs $end
   $var wire 16 -! emif_emif_data_read [15:0] $end
   $var wire 16 5! emif_emif_data_write [15:0] $end
   $var wire  1 =! emif_emif_data_writeEnable $end
   $var wire  1 U! emif_emif_oe $end
   $var wire  1 M! emif_emif_we $end
   $var wire 20 }! emiftoapb_1_apb_PADDR [19:0] $end
   $var wire  1 s emiftoapb_1_apb_PENABLE $end
   $var wire  1 '" emiftoapb_1_apb_PSEL [0:0] $end
   $var wire 32 7" emiftoapb_1_apb_PWDATA [31:0] $end
   $var wire  1 /" emiftoapb_1_apb_PWRITE $end
   $var wire 16 m! emiftoapb_1_emif_emif_data_write [15:0] $end
   $var wire  1 u! emiftoapb_1_emif_emif_data_writeEnable $end
   $var wire  1 e! reset $end
   $scope module apb3Router_1 $end
    $var wire  1 ]! clk $end
    $var wire 20 }! io_input_PADDR [19:0] $end
    $var wire  1 s io_input_PENABLE $end
    $var wire 32 [ io_input_PRDATA [31:0] $end
    $var wire  1 W" io_input_PREADY $end
    $var wire  1 C io_input_PSEL [0:0] $end
    $var wire  1 _" io_input_PSLVERROR $end
    $var wire 32 7" io_input_PWDATA [31:0] $end
    $var wire  1 /" io_input_PWRITE $end
    $var wire 20 }! io_outputs_0_PADDR [19:0] $end
    $var wire  1 s io_outputs_0_PENABLE $end
    $var wire 32 [ io_outputs_0_PRDATA [31:0] $end
    $var wire  1 W" io_outputs_0_PREADY $end
    $var wire  1 # io_outputs_0_PSEL [0:0] $end
    $var wire  1 _" io_outputs_0_PSLVERROR $end
    $var wire 32 7" io_outputs_0_PWDATA [31:0] $end
    $var wire  1 /" io_outputs_0_PWRITE $end
    $var wire  1 e! reset $end
   $upscope $end
   $scope module apb3tobram_1 $end
    $var wire 20 }! io_apb_PADDR [19:0] $end
    $var wire  1 s io_apb_PENABLE $end
    $var wire 32 [ io_apb_PRDATA [31:0] $end
    $var wire  1 W" io_apb_PREADY $end
    $var wire  1 # io_apb_PSEL [0:0] $end
    $var wire  1 _" io_apb_PSLVERROR $end
    $var wire 32 7" io_apb_PWDATA [31:0] $end
    $var wire  1 /" io_apb_PWRITE $end
    $var wire  8 ?" io_bram_addr [7:0] $end
    $var wire  1 # io_bram_en $end
    $var wire 32 [ io_bram_rddata [31:0] $end
    $var wire  4 + io_bram_we [3:0] $end
    $var wire 32 7" io_bram_wrdata [31:0] $end
    $var wire  1 K when_Apb3ToBram_l41 $end
   $upscope $end
   $scope module apb_decoder $end
    $var wire 20 }! io_input_PADDR [19:0] $end
    $var wire  1 s io_input_PENABLE $end
    $var wire 32 [ io_input_PRDATA [31:0] $end
    $var wire  1 3 io_input_PREADY $end
    $var wire  1 '" io_input_PSEL [0:0] $end
    $var wire  1 ; io_input_PSLVERROR $end
    $var wire 32 7" io_input_PWDATA [31:0] $end
    $var wire  1 /" io_input_PWRITE $end
    $var wire 20 }! io_output_PADDR [19:0] $end
    $var wire  1 s io_output_PENABLE $end
    $var wire 32 [ io_output_PRDATA [31:0] $end
    $var wire  1 W" io_output_PREADY $end
    $var wire  1 C io_output_PSEL [0:0] $end
    $var wire  1 _" io_output_PSLVERROR $end
    $var wire 32 7" io_output_PWDATA [31:0] $end
    $var wire  1 /" io_output_PWRITE $end
    $var wire  1 S when_Apb3Decoder_l84 $end
   $upscope $end
   $scope module emiftoapb_1 $end
    $var wire 20 }! apb_PADDR [19:0] $end
    $var wire  1 s apb_PENABLE $end
    $var wire 32 [ apb_PRDATA [31:0] $end
    $var wire  1 3 apb_PREADY $end
    $var wire  1 '" apb_PSEL [0:0] $end
    $var wire  1 ; apb_PSLVERROR $end
    $var wire 32 7" apb_PWDATA [31:0] $end
    $var wire  1 /" apb_PWRITE $end
    $var wire  1 ]! clk $end
    $var wire 24 %! emif_emif_addr [23:0] $end
    $var wire  1 E! emif_emif_cs $end
    $var wire 16 -! emif_emif_data_read [15:0] $end
    $var wire 16 m! emif_emif_data_write [15:0] $end
    $var wire  1 u! emif_emif_data_writeEnable $end
    $var wire  1 U! emif_emif_oe $end
    $var wire  1 M! emif_emif_we $end
    $var wire 16 c emifdatatemp [15:0] $end
    $var wire  1 { penable $end
    $var wire  1 k penable_regNext $end
    $var wire  1 e! reset $end
    $var wire  1 G" when_EmifToApb_l70 $end
    $var wire  1 O" when_EmifToApb_l80 $end
    $var wire  1 u! when_EmifToApb_l81 $end
    $var wire  1 u! when_EmifToApb_l83 $end
   $upscope $end
  $upscope $end
 $upscope $end
$enddefinitions $end


#0
0#
b0000 +
13
0;
0C
0K
0S
b11000110011100010000010010010010 [
b1110011010000111 c
0k
0s
0{
b000000000000000000000000 %!
b0101101101001101 -!
b1100101111010100 5!
0=!
1E!
1M!
1U!
0]!
1e!
b1100101111010100 m!
0u!
b00000000000000000000 }!
0'"
0/"
b01011011010011011110011010000111 7"
b00000000 ?"
0G"
0O"
1W"
0_"
#160
0e!
#170
1]!
#175
0]!
#180
1]!
#185
0]!
#190
1]!
#195
0]!
#200
1]!
#205
0]!
#210
1]!
#215
0]!
#220
1]!
#225
0]!
#230
1]!
#235
0]!
#240
1]!
#245
0]!
#250
1]!
#255
0]!
#260
1]!
#265
0]!
#270
1#
1C
b000000000000000000010110 %!
0E!
1]!
b00000000000000010110 }!
1'"
b00010110 ?"
#275
0]!
#280
b00101010100010010010011000010011 [
b0100000000100100 -!
0M!
1]!
b01000000001001001110011010000111 7"
1G"
#285
0]!
#290
b0100000000100100 c
1]!
b01000000001001000100000000100100 7"
#295
0]!
#300
0#
0C
1E!
1M!
1]!
0'"
0G"
#305
0]!
#310
1#
1C
b100000000000000000010110 %!
b1110010110101011 5!
0E!
1]!
b1110010110101011 m!
1'"
1O"
#315
0]!
#320
b0000000000000111 -!
0M!
1]!
1/"
b00000000000001110100000000100100 7"
#325
0]!
#330
b1111 +
1K
1s
1{
1]!
#335
0]!
#340
0#
b0000 +
0C
0K
1k
0s
1E!
1M!
1]!
0'"
0/"
#345
0]!
#350
1#
1C
0{
b000000000000000000010110 %!
b1100101111010100 5!
0E!
1]!
b1100101111010100 m!
1'"
0O"
#355
0]!
#360
b00000000000001110100000000100100 [
0k
1=!
0U!
1]!
1u!
#365
0]!
#370
b0100000000100100 5!
1]!
b0100000000100100 m!
#375
0]!
#380
0#
0C
0=!
1E!
1U!
1]!
0u!
0'"
#385
0]!
#390
1#
1C
b100000000000000000010110 %!
b0000000000000111 5!
0E!
1]!
b0000000000000111 m!
1'"
1O"
#395
0]!
#400
1=!
0U!
1]!
1u!
#405
0]!
#410
1s
1{
1]!
#415
0]!
#420
0#
0C
1k
0s
0=!
1E!
1U!
1]!
0u!
0'"
#425
0]!
#430
1#
1C
0{
b000000000000000001000110 %!
b0100000000100100 5!
0E!
1]!
b0100000000100100 m!
b00000000000001000110 }!
1'"
b01000110 ?"
0O"
#435
0]!
#440
b01101011011111100000110010110000 [
0k
b0110010010010110 -!
0M!
1]!
b01100100100101100100000000100100 7"
1G"
#445
0]!
#450
b0110010010010110 c
1]!
b01100100100101100110010010010110 7"
#455
0]!
#460
0#
0C
1E!
1M!
1]!
0'"
0G"
#465
0]!
#470
1#
1C
b100000000000000001000110 %!
b0000000000000111 5!
0E!
1]!
b0000000000000111 m!
1'"
1O"
#475
0]!
#480
b0000000000001001 -!
0M!
1]!
1/"
b00000000000010010110010010010110 7"
#485
0]!
#490
b1111 +
1K
1s
1{
1]!
#495
0]!
#500
0#
b0000 +
0C
0K
1k
0s
1E!
1M!
1]!
0'"
0/"
#505
0]!
#510
1#
1C
0{
b000000000000000001000110 %!
b0100000000100100 5!
0E!
1]!
b0100000000100100 m!
1'"
0O"
#515
0]!
#520
b00000000000010010110010010010110 [
0k
1=!
0U!
1]!
1u!
#525
0]!
#530
b0110010010010110 5!
1]!
b0110010010010110 m!
#535
0]!
#540
0#
0C
0=!
1E!
1U!
1]!
0u!
0'"
#545
0]!
#550
1#
1C
b100000000000000001000110 %!
b0000000000001001 5!
0E!
1]!
b0000000000001001 m!
1'"
1O"
#555
0]!
#560
1=!
0U!
1]!
1u!
#565
0]!
#570
1s
1{
1]!
#575
0]!
#580
0#
0C
1k
0s
0=!
1E!
1U!
1]!
0u!
0'"
#585
0]!
#590
1#
1C
0{
b000000000000000011001001 %!
b0110010010010110 5!
0E!
1]!
b0110010010010110 m!
b00000000000011001001 }!
1'"
b11001001 ?"
0O"
#595
0]!
#600
b01110110000011011100011111001110 [
0k
b0001111011010011 -!
0M!
1]!
b00011110110100110110010010010110 7"
1G"
#605
0]!
#610
b0001111011010011 c
1]!
b00011110110100110001111011010011 7"
#615
0]!
#620
0#
0C
1E!
1M!
1]!
0'"
0G"
#625
0]!
#630
1#
1C
b100000000000000011001001 %!
b0000000000001001 5!
0E!
1]!
b0000000000001001 m!
1'"
1O"
#635
0]!
#640
b0000000000000001 -!
0M!
1]!
1/"
b00000000000000010001111011010011 7"
#645
0]!
#650
b1111 +
1K
1s
1{
1]!
#655
0]!
#660
0#
b0000 +
0C
0K
1k
0s
1E!
1M!
1]!
0'"
0/"
#665
0]!
#670
1#
1C
0{
b000000000000000011001001 %!
b0110010010010110 5!
0E!
1]!
b0110010010010110 m!
1'"
0O"
#675
0]!
#680
b00000000000000010001111011010011 [
0k
1=!
0U!
1]!
1u!
#685
0]!
#690
b0001111011010011 5!
1]!
b0001111011010011 m!
#695
0]!
#700
0#
0C
0=!
1E!
1U!
1]!
0u!
0'"
#705
0]!
#710
1#
1C
b100000000000000011001001 %!
b0000000000000001 5!
0E!
1]!
b0000000000000001 m!
1'"
1O"
#715
0]!
#720
1=!
0U!
1]!
1u!
#725
0]!
#730
1s
1{
1]!
#735
0]!
#740
0#
0C
1k
0s
0=!
1E!
1U!
1]!
0u!
0'"
#745
0]!
#750
1#
1C
0{
b000000000000000000011100 %!
b0001111011010011 5!
0E!
1]!
b0001111011010011 m!
b00000000000000011100 }!
1'"
b00011100 ?"
0O"
#755
0]!
#760
b11000101001010011100110111001010 [
0k
b1011001101101110 -!
0M!
1]!
b10110011011011100001111011010011 7"
1G"
#765
0]!
#770
b1011001101101110 c
1]!
b10110011011011101011001101101110 7"
#775
0]!
#780
0#
0C
1E!
1M!
1]!
0'"
0G"
#785
0]!
#790
1#
1C
b100000000000000000011100 %!
b0000000000000001 5!
0E!
1]!
b0000000000000001 m!
1'"
1O"
#795
0]!
#800
b0000000000000110 -!
0M!
1]!
1/"
b00000000000001101011001101101110 7"
#805
0]!
#810
b1111 +
1K
1s
1{
1]!
#815
0]!
#820
0#
b0000 +
0C
0K
1k
0s
1E!
1M!
1]!
0'"
0/"
#825
0]!
#830
1#
1C
0{
b000000000000000000011100 %!
b0001111011010011 5!
0E!
1]!
b0001111011010011 m!
1'"
0O"
#835
0]!
#840
b00000000000001101011001101101110 [
0k
1=!
0U!
1]!
1u!
#845
0]!
#850
b1011001101101110 5!
1]!
b1011001101101110 m!
#855
0]!
#860
0#
0C
0=!
1E!
1U!
1]!
0u!
0'"
#865
0]!
#870
1#
1C
b100000000000000000011100 %!
b0000000000000110 5!
0E!
1]!
b0000000000000110 m!
1'"
1O"
#875
0]!
#880
1=!
0U!
1]!
1u!
#885
0]!
#890
1s
1{
1]!
#895
0]!
#900
0#
0C
1k
0s
0=!
1E!
1U!
1]!
0u!
0'"
#905
0]!
#910
1#
1C
0{
b000000000000000000100001 %!
b1011001101101110 5!
0E!
1]!
b1011001101101110 m!
b00000000000000100001 }!
1'"
b00100001 ?"
0O"
#915
0]!
#920
b01101000001011100011010100110000 [
0k
b0000010101111010 -!
0M!
1]!
b00000101011110101011001101101110 7"
1G"
#925
0]!
#930
b0000010101111010 c
1]!
b00000101011110100000010101111010 7"
#935
0]!
#940
0#
0C
1E!
1M!
1]!
0'"
0G"
#945
0]!
#950
1#
1C
b100000000000000000100001 %!
b0000000000000110 5!
0E!
1]!
b0000000000000110 m!
1'"
1O"
#955
0]!
#960
b0000000000000010 -!
0M!
1]!
1/"
b00000000000000100000010101111010 7"
#965
0]!
#970
b1111 +
1K
1s
1{
1]!
#975
0]!
#980
0#
b0000 +
0C
0K
1k
0s
1E!
1M!
1]!
0'"
0/"
#985
0]!
#990
1#
1C
0{
b000000000000000000100001 %!
b1011001101101110 5!
0E!
1]!
b1011001101101110 m!
1'"
0O"
#995
0]!
#1000
b00000000000000100000010101111010 [
0k
1=!
0U!
1]!
1u!
#1005
0]!
#1010
b0000010101111010 5!
1]!
b0000010101111010 m!
#1015
0]!
#1020
0#
0C
0=!
1E!
1U!
1]!
0u!
0'"
#1025
0]!
#1030
1#
1C
b100000000000000000100001 %!
b0000000000000010 5!
0E!
1]!
b0000000000000010 m!
1'"
1O"
#1035
0]!
#1040
1=!
0U!
1]!
1u!
#1045
0]!
#1050
1s
1{
1]!
#1055
0]!
#1060
0#
0C
1k
0s
0=!
1E!
1U!
1]!
0u!
0'"
#1065
0]!
#1070
1#
1C
0{
b000000000000000011100110 %!
b0000010101111010 5!
0E!
1]!
b0000010101111010 m!
b00000000000011100110 }!
1'"
b11100110 ?"
0O"
#1075
0]!
#1080
b01111011000000101001001011011100 [
0k
b1001011010101100 -!
0M!
1]!
b10010110101011000000010101111010 7"
1G"
#1085
0]!
#1090
b1001011010101100 c
1]!
b10010110101011001001011010101100 7"
#1095
0]!
#1100
0#
0C
1E!
1M!
1]!
0'"
0G"
#1105
0]!
#1110
1#
1C
b100000000000000011100110 %!
b0000000000000010 5!
0E!
1]!
b0000000000000010 m!
1'"
1O"
#1115
0]!
#1120
b0000000000001101 -!
0M!
1]!
1/"
b00000000000011011001011010101100 7"
#1125
0]!
#1130
b1111 +
1K
1s
1{
1]!
#1135
0]!
#1140
0#
b0000 +
0C
0K
1k
0s
1E!
1M!
1]!
0'"
0/"
#1145
0]!
#1150
1#
1C
0{
b000000000000000011100110 %!
b0000010101111010 5!
0E!
1]!
b0000010101111010 m!
1'"
0O"
#1155
0]!
#1160
b00000000000011011001011010101100 [
0k
1=!
0U!
1]!
1u!
#1165
0]!
#1170
b1001011010101100 5!
1]!
b1001011010101100 m!
#1175
0]!
#1180
0#
0C
0=!
1E!
1U!
1]!
0u!
0'"
#1185
0]!
#1190
1#
1C
b100000000000000011100110 %!
b0000000000001101 5!
0E!
1]!
b0000000000001101 m!
1'"
1O"
#1195
0]!
#1200
1=!
0U!
1]!
1u!
#1205
0]!
#1210
1s
1{
1]!
#1215
0]!
#1220
0#
0C
1k
0s
0=!
1E!
1U!
1]!
0u!
0'"
#1225
0]!
#1230
1#
1C
0{
b000000000000000000010111 %!
b1001011010101100 5!
0E!
1]!
b1001011010101100 m!
b00000000000000010111 }!
1'"
b00010111 ?"
0O"
#1235
0]!
#1240
b11001110001010100111100010110111 [
0k
b1010100100110001 -!
0M!
1]!
b10101001001100011001011010101100 7"
1G"
#1245
0]!
#1250
b1010100100110001 c
1]!
b10101001001100011010100100110001 7"
#1255
0]!
#1260
0#
0C
1E!
1M!
1]!
0'"
0G"
#1265
0]!
#1270
1#
1C
b100000000000000000010111 %!
b0000000000001101 5!
0E!
1]!
b0000000000001101 m!
1'"
1O"
#1275
0]!
#1280
b0000000000000111 -!
0M!
1]!
1/"
b00000000000001111010100100110001 7"
#1285
0]!
#1290
b1111 +
1K
1s
1{
1]!
#1295
0]!
#1300
0#
b0000 +
0C
0K
1k
0s
1E!
1M!
1]!
0'"
0/"
#1305
0]!
#1310
1#
1C
0{
b000000000000000000010111 %!
b1001011010101100 5!
0E!
1]!
b1001011010101100 m!
1'"
0O"
#1315
0]!
#1320
b00000000000001111010100100110001 [
0k
1=!
0U!
1]!
1u!
#1325
0]!
#1330
b1010100100110001 5!
1]!
b1010100100110001 m!
#1335
0]!
#1340
0#
0C
0=!
1E!
1U!
1]!
0u!
0'"
#1345
0]!
#1350
1#
1C
b100000000000000000010111 %!
b0000000000000111 5!
0E!
1]!
b0000000000000111 m!
1'"
1O"
#1355
0]!
#1360
1=!
0U!
1]!
1u!
#1365
0]!
#1370
1s
1{
1]!
#1375
0]!
#1380
0#
0C
1k
0s
0=!
1E!
1U!
1]!
0u!
0'"
#1385
0]!
#1390
1#
1C
0{
b000000000000000000101001 %!
b1010100100110001 5!
0E!
1]!
b1010100100110001 m!
b00000000000000101001 }!
1'"
b00101001 ?"
0O"
#1395
0]!
#1400
b10010001111111110001110110111000 [
0k
b0110101011010001 -!
0M!
1]!
b01101010110100011010100100110001 7"
1G"
#1405
0]!
#1410
b0110101011010001 c
1]!
b01101010110100010110101011010001 7"
#1415
0]!
#1420
0#
0C
1E!
1M!
1]!
0'"
0G"
#1425
0]!
#1430
1#
1C
b100000000000000000101001 %!
b0000000000000111 5!
0E!
1]!
b0000000000000111 m!
1'"
1O"
#1435
0]!
#1440
b0000000000001101 -!
0M!
1]!
1/"
b00000000000011010110101011010001 7"
#1445
0]!
#1450
b1111 +
1K
1s
1{
1]!
#1455
0]!
#1460
0#
b0000 +
0C
0K
1k
0s
1E!
1M!
1]!
0'"
0/"
#1465
0]!
#1470
1#
1C
0{
b000000000000000000101001 %!
b1010100100110001 5!
0E!
1]!
b1010100100110001 m!
1'"
0O"
#1475
0]!
#1480
b00000000000011010110101011010001 [
0k
1=!
0U!
1]!
1u!
#1485
0]!
#1490
b0110101011010001 5!
1]!
b0110101011010001 m!
#1495
0]!
#1500
0#
0C
0=!
1E!
1U!
1]!
0u!
0'"
#1505
0]!
#1510
1#
1C
b100000000000000000101001 %!
b0000000000001101 5!
0E!
1]!
b0000000000001101 m!
1'"
1O"
#1515
0]!
#1520
1=!
0U!
1]!
1u!
#1525
0]!
#1530
1s
1{
1]!
#1535
0]!
#1540
0#
0C
1k
0s
0=!
1E!
1U!
1]!
0u!
0'"
#1545
0]!
#1550
1#
1C
0{
b000000000000000011110100 %!
b0110101011010001 5!
0E!
1]!
b0110101011010001 m!
b00000000000011110100 }!
1'"
b11110100 ?"
0O"
#1555
0]!
#1560
b11001010110001000100100000101110 [
0k
b0100111000110000 -!
0M!
1]!
b01001110001100000110101011010001 7"
1G"
#1565
0]!
#1570
b0100111000110000 c
1]!
b01001110001100000100111000110000 7"
#1575
0]!
#1580
0#
0C
1E!
1M!
1]!
0'"
0G"
#1585
0]!
#1590
1#
1C
b100000000000000011110100 %!
b0000000000001101 5!
0E!
1]!
b0000000000001101 m!
1'"
1O"
#1595
0]!
#1600
b0000000000000100 -!
0M!
1]!
1/"
b00000000000001000100111000110000 7"
#1605
0]!
#1610
b1111 +
1K
1s
1{
1]!
#1615
0]!
#1620
0#
b0000 +
0C
0K
1k
0s
1E!
1M!
1]!
0'"
0/"
#1625
0]!
#1630
1#
1C
0{
b000000000000000011110100 %!
b0110101011010001 5!
0E!
1]!
b0110101011010001 m!
1'"
0O"
#1635
0]!
#1640
b00000000000001000100111000110000 [
0k
1=!
0U!
1]!
1u!
#1645
0]!
#1650
b0100111000110000 5!
1]!
b0100111000110000 m!
#1655
0]!
#1660
0#
0C
0=!
1E!
1U!
1]!
0u!
0'"
#1665
0]!
#1670
1#
1C
b100000000000000011110100 %!
b0000000000000100 5!
0E!
1]!
b0000000000000100 m!
1'"
1O"
#1675
0]!
#1680
1=!
0U!
1]!
1u!
#1685
0]!
#1690
1s
1{
1]!
#1695
0]!
#1700
0#
0C
1k
0s
0=!
1E!
1U!
1]!
0u!
0'"
#1705
0]!
#1710
1#
1C
0{
b000000000000000001111011 %!
b0100111000110000 5!
0E!
1]!
b0100111000110000 m!
b00000000000001111011 }!
1'"
b01111011 ?"
0O"
#1715
0]!
#1720
b00111111000101111011101101001000 [
0k
b1001111001000001 -!
0M!
1]!
b10011110010000010100111000110000 7"
1G"
#1725
0]!
#1730
b1001111001000001 c
1]!
b10011110010000011001111001000001 7"
#1735
0]!
#1740
0#
0C
1E!
1M!
1]!
0'"
0G"
#1745
0]!
#1750
1#
1C
b100000000000000001111011 %!
b0000000000000100 5!
0E!
1]!
b0000000000000100 m!
1'"
1O"
#1755
0]!
#1760
b0000000000001101 -!
0M!
1]!
1/"
b00000000000011011001111001000001 7"
#1765
0]!
#1770
b1111 +
1K
1s
1{
1]!
#1775
0]!
#1780
0#
b0000 +
0C
0K
1k
0s
1E!
1M!
1]!
0'"
0/"
#1785
0]!
#1790
1#
1C
0{
b000000000000000001111011 %!
b0100111000110000 5!
0E!
1]!
b0100111000110000 m!
1'"
0O"
#1795
0]!
#1800
b00000000000011011001111001000001 [
0k
1=!
0U!
1]!
1u!
#1805
0]!
#1810
b1001111001000001 5!
1]!
b1001111001000001 m!
#1815
0]!
#1820
0#
0C
0=!
1E!
1U!
1]!
0u!
0'"
#1825
0]!
#1830
1#
1C
b100000000000000001111011 %!
b0000000000001101 5!
0E!
1]!
b0000000000001101 m!
1'"
1O"
#1835
0]!
#1840
1=!
0U!
1]!
1u!
#1845
0]!
#1850
1s
1{
1]!
#1855
0]!
#1860
0#
0C
1k
0s
0=!
1E!
1U!
1]!
0u!
0'"
#1865
0]!
#1870
1#
1C
0{
b000000000000000010100101 %!
b1001111001000001 5!
0E!
1]!
b1001111001000001 m!
b00000000000010100101 }!
1'"
b10100101 ?"
0O"
#1875
0]!
#1880
b10001010111000110101110111011000 [
0k
b1001000101111101 -!
0M!
1]!
b10010001011111011001111001000001 7"
1G"
#1885
0]!
#1890
b1001000101111101 c
1]!
b10010001011111011001000101111101 7"
#1895
0]!
#1900
0#
0C
1E!
1M!
1]!
0'"
0G"
#1905
0]!
#1910
1#
1C
b100000000000000010100101 %!
b0000000000001101 5!
0E!
1]!
b0000000000001101 m!
1'"
1O"
#1915
0]!
#1920
b0000000000000001 -!
0M!
1]!
1/"
b00000000000000011001000101111101 7"
#1925
0]!
#1930
b1111 +
1K
1s
1{
1]!
#1935
0]!
#1940
0#
b0000 +
0C
0K
1k
0s
1E!
1M!
1]!
0'"
0/"
#1945
0]!
#1950
1#
1C
0{
b000000000000000010100101 %!
b1001111001000001 5!
0E!
1]!
b1001111001000001 m!
1'"
0O"
#1955
0]!
#1960
b00000000000000011001000101111101 [
0k
1=!
0U!
1]!
1u!
#1965
0]!
#1970
b1001000101111101 5!
1]!
b1001000101111101 m!
#1975
0]!
#1980
0#
0C
0=!
1E!
1U!
1]!
0u!
0'"
#1985
0]!
#1990
1#
1C
b100000000000000010100101 %!
b0000000000000001 5!
0E!
1]!
b0000000000000001 m!
1'"
1O"
#1995
0]!
#2000
1=!
0U!
1]!
1u!
#2005
0]!
#2010
1s
1{
1]!
#2015
0]!
#2020
0#
0C
1k
0s
0=!
1E!
1U!
1]!
0u!
0'"
#2025
0]!
#2030
1#
1C
0{
b000000000000000011100101 %!
b1001000101111101 5!
0E!
1]!
b1001000101111101 m!
b00000000000011100101 }!
1'"
b11100101 ?"
0O"
#2035
0]!
#2040
b00100101011010001110111111010100 [
0k
b0101001111111011 -!
0M!
1]!
b01010011111110111001000101111101 7"
1G"
#2045
0]!
#2050
b0101001111111011 c
1]!
b01010011111110110101001111111011 7"
#2055
0]!
#2060
0#
0C
1E!
1M!
1]!
0'"
0G"
#2065
0]!
#2070
1#
1C
b100000000000000011100101 %!
b0000000000000001 5!
0E!
1]!
b0000000000000001 m!
1'"
1O"
#2075
0]!
#2080
b0000000000000110 -!
0M!
1]!
1/"
b00000000000001100101001111111011 7"
#2085
0]!
#2090
b1111 +
1K
1s
1{
1]!
#2095
0]!
#2100
0#
b0000 +
0C
0K
1k
0s
1E!
1M!
1]!
0'"
0/"
#2105
0]!
#2110
1#
1C
0{
b000000000000000011100101 %!
b1001000101111101 5!
0E!
1]!
b1001000101111101 m!
1'"
0O"
#2115
0]!
#2120
b00000000000001100101001111111011 [
0k
1=!
0U!
1]!
1u!
#2125
0]!
#2130
b0101001111111011 5!
1]!
b0101001111111011 m!
#2135
0]!
#2140
0#
0C
0=!
1E!
1U!
1]!
0u!
0'"
#2145
0]!
#2150
1#
1C
b100000000000000011100101 %!
b0000000000000110 5!
0E!
1]!
b0000000000000110 m!
1'"
1O"
#2155
0]!
#2160
1=!
0U!
1]!
1u!
#2165
0]!
#2170
1s
1{
1]!
#2175
0]!
#2180
0#
0C
1k
0s
0=!
1E!
1U!
1]!
0u!
0'"
#2185
0]!
#2190
1#
1C
0{
b000000000000000000011010 %!
b0101001111111011 5!
0E!
1]!
b0101001111111011 m!
b00000000000000011010 }!
1'"
b00011010 ?"
0O"
#2195
0]!
#2200
b11101110100101000001110101010001 [
0k
b0000111101101111 -!
0M!
1]!
b00001111011011110101001111111011 7"
1G"
#2205
0]!
#2210
b0000111101101111 c
1]!
b00001111011011110000111101101111 7"
#2215
0]!
#2220
0#
0C
1E!
1M!
1]!
0'"
0G"
#2225
0]!
#2230
1#
1C
b100000000000000000011010 %!
b0000000000000110 5!
0E!
1]!
b0000000000000110 m!
1'"
1O"
#2235
0]!
#2240
b0000000000000110 -!
0M!
1]!
1/"
b00000000000001100000111101101111 7"
#2245
0]!
#2250
b1111 +
1K
1s
1{
1]!
#2255
0]!
#2260
0#
b0000 +
0C
0K
1k
0s
1E!
1M!
1]!
0'"
0/"
#2265
0]!
#2270
1#
1C
0{
b000000000000000000011010 %!
b0101001111111011 5!
0E!
1]!
b0101001111111011 m!
1'"
0O"
#2275
0]!
#2280
b00000000000001100000111101101111 [
0k
1=!
0U!
1]!
1u!
#2285
0]!
#2290
b0000111101101111 5!
1]!
b0000111101101111 m!
#2295
0]!
#2300
0#
0C
0=!
1E!
1U!
1]!
0u!
0'"
#2305
0]!
#2310
1#
1C
b100000000000000000011010 %!
b0000000000000110 5!
0E!
1]!
b0000000000000110 m!
1'"
1O"
#2315
0]!
#2320
1=!
0U!
1]!
1u!
#2325
0]!
#2330
1s
1{
1]!
#2335
0]!
#2340
0#
0C
1k
0s
0=!
1E!
1U!
1]!
0u!
0'"
#2345
0]!
#2350
1#
1C
0{
b000000000000000001000000 %!
b0000111101101111 5!
0E!
1]!
b0000111101101111 m!
b00000000000001000000 }!
1'"
b01000000 ?"
0O"
#2355
0]!
#2360
b10100110101100111000000010100101 [
0k
b0001010100110011 -!
0M!
1]!
b00010101001100110000111101101111 7"
1G"
#2365
0]!
#2370
b0001010100110011 c
1]!
b00010101001100110001010100110011 7"
#2375
0]!
#2380
0#
0C
1E!
1M!
1]!
0'"
0G"
#2385
0]!
#2390
1#
1C
b100000000000000001000000 %!
b0000000000000110 5!
0E!
1]!
b0000000000000110 m!
1'"
1O"
#2395
0]!
#2400
b0000000000000000 -!
0M!
1]!
1/"
b00000000000000000001010100110011 7"
#2405
0]!
#2410
b1111 +
1K
1s
1{
1]!
#2415
0]!
#2420
0#
b0000 +
0C
0K
1k
0s
1E!
1M!
1]!
0'"
0/"
#2425
0]!
#2430
1#
1C
0{
b000000000000000001000000 %!
b0000111101101111 5!
0E!
1]!
b0000111101101111 m!
1'"
0O"
#2435
0]!
#2440
b00000000000000000001010100110011 [
0k
1=!
0U!
1]!
1u!
#2445
0]!
#2450
b0001010100110011 5!
1]!
b0001010100110011 m!
#2455
0]!
#2460
0#
0C
0=!
1E!
1U!
1]!
0u!
0'"
#2465
0]!
#2470
1#
1C
b100000000000000001000000 %!
b0000000000000000 5!
0E!
1]!
b0000000000000000 m!
1'"
1O"
#2475
0]!
#2480
1=!
0U!
1]!
1u!
#2485
0]!
#2490
1s
1{
1]!
#2495
0]!
#2500
0#
0C
1k
0s
0=!
1E!
1U!
1]!
0u!
0'"
#2505
0]!
