SPINAL_TEST/simWorkspace/Apb3Test/test.vcd
$version Generated by VerilatedVcd $end
$date Mon Aug 09 11:16:05 2021
 $end
$timescale   1ns $end

 $scope module TOP $end
  $var wire 20 M! apb3_PADDR [19:0] $end
  $var wire  1 ]! apb3_PENABLE $end
  $var wire 32 }! apb3_PRDATA [31:0] $end
  $var wire  1 e! apb3_PREADY $end
  $var wire  1 U! apb3_PSEL [0:0] $end
  $var wire  1 '" apb3_PSLVERROR $end
  $var wire 32 u! apb3_PWDATA [31:0] $end
  $var wire  1 m! apb3_PWRITE $end
  $var wire  1 G" clk $end
  $var wire 32 /" gpio_read [31:0] $end
  $var wire 32 7" gpio_write [31:0] $end
  $var wire 32 ?" gpio_writeEnable [31:0] $end
  $var wire  1 O" reset $end
  $scope module Apb3Test $end
   $var wire 32 # apb3Router_1_io_input_PRDATA [31:0] $end
   $var wire  1 )# apb3Router_1_io_input_PREADY $end
   $var wire  1 1# apb3Router_1_io_input_PSLVERROR $end
   $var wire 20 M! apb3Router_1_io_outputs_0_PADDR [19:0] $end
   $var wire  1 ]! apb3Router_1_io_outputs_0_PENABLE $end
   $var wire  1 + apb3Router_1_io_outputs_0_PSEL [0:0] $end
   $var wire 32 u! apb3Router_1_io_outputs_0_PWDATA [31:0] $end
   $var wire  1 m! apb3Router_1_io_outputs_0_PWRITE $end
   $var wire 20 M! apb3Router_1_io_outputs_1_PADDR [19:0] $end
   $var wire  1 ]! apb3Router_1_io_outputs_1_PENABLE $end
   $var wire  1 [ apb3Router_1_io_outputs_1_PSEL [0:0] $end
   $var wire 32 u! apb3Router_1_io_outputs_1_PWDATA [31:0] $end
   $var wire  1 m! apb3Router_1_io_outputs_1_PWRITE $end
   $var wire 20 M! apb3_PADDR [19:0] $end
   $var wire  1 ]! apb3_PENABLE $end
   $var wire 32 }! apb3_PRDATA [31:0] $end
   $var wire  1 e! apb3_PREADY $end
   $var wire  1 U! apb3_PSEL [0:0] $end
   $var wire  1 '" apb3_PSLVERROR $end
   $var wire 32 u! apb3_PWDATA [31:0] $end
   $var wire  1 m! apb3_PWRITE $end
   $var wire 32 # apb3_decoder_io_input_PRDATA [31:0] $end
   $var wire  1 C apb3_decoder_io_input_PREADY $end
   $var wire  1 K apb3_decoder_io_input_PSLVERROR $end
   $var wire 20 M! apb3_decoder_io_output_PADDR [19:0] $end
   $var wire  1 ]! apb3_decoder_io_output_PENABLE $end
   $var wire  2 S apb3_decoder_io_output_PSEL [1:0] $end
   $var wire 32 u! apb3_decoder_io_output_PWDATA [31:0] $end
   $var wire  1 m! apb3_decoder_io_output_PWRITE $end
   $var wire 32 { apb3tobram_1_io_apb_PRDATA [31:0] $end
   $var wire  1 w" apb3tobram_1_io_apb_PREADY $end
   $var wire  1 !# apb3tobram_1_io_apb_PSLVERROR $end
   $var wire  8 _" apb3tobram_1_io_bram_addr [7:0] $end
   $var wire  1 + apb3tobram_1_io_bram_en $end
   $var wire 32 { apb3tobram_1_io_bram_rddata [31:0] $end
   $var wire  4 3 apb3tobram_1_io_bram_we [3:0] $end
   $var wire 32 u! apb3tobram_1_io_bram_wrdata [31:0] $end
   $var wire  1 G" clk $end
   $var wire  4 W" gpioCtrl_io_apb_PADDR [3:0] $end
   $var wire 32 ; gpioCtrl_io_apb_PRDATA [31:0] $end
   $var wire  1 w" gpioCtrl_io_apb_PREADY $end
   $var wire  1 !# gpioCtrl_io_apb_PSLVERROR $end
   $var wire 32 %! gpioCtrl_io_gpio_write [31:0] $end
   $var wire 32 E! gpioCtrl_io_gpio_writeEnable [31:0] $end
   $var wire 32 -! gpioCtrl_io_value [31:0] $end
   $var wire 32 /" gpio_read [31:0] $end
   $var wire 32 7" gpio_write [31:0] $end
   $var wire 32 ?" gpio_writeEnable [31:0] $end
   $var wire  1 O" reset $end
   $scope module apb3Router_1 $end
    $var wire  1 G" clk $end
    $var wire 20 M! io_input_PADDR [19:0] $end
    $var wire  1 ]! io_input_PENABLE $end
    $var wire 32 # io_input_PRDATA [31:0] $end
    $var wire  1 )# io_input_PREADY $end
    $var wire  2 S io_input_PSEL [1:0] $end
    $var wire  1 1# io_input_PSLVERROR $end
    $var wire 32 u! io_input_PWDATA [31:0] $end
    $var wire  1 m! io_input_PWRITE $end
    $var wire 20 M! io_outputs_0_PADDR [19:0] $end
    $var wire  1 ]! io_outputs_0_PENABLE $end
    $var wire 32 { io_outputs_0_PRDATA [31:0] $end
    $var wire  1 w" io_outputs_0_PREADY $end
    $var wire  1 + io_outputs_0_PSEL [0:0] $end
    $var wire  1 !# io_outputs_0_PSLVERROR $end
    $var wire 32 u! io_outputs_0_PWDATA [31:0] $end
    $var wire  1 m! io_outputs_0_PWRITE $end
    $var wire 20 M! io_outputs_1_PADDR [19:0] $end
    $var wire  1 ]! io_outputs_1_PENABLE $end
    $var wire 32 ; io_outputs_1_PRDATA [31:0] $end
    $var wire  1 w" io_outputs_1_PREADY $end
    $var wire  1 [ io_outputs_1_PSEL [0:0] $end
    $var wire  1 !# io_outputs_1_PSLVERROR $end
    $var wire 32 u! io_outputs_1_PWDATA [31:0] $end
    $var wire  1 m! io_outputs_1_PWRITE $end
    $var wire  1 O" reset $end
    $var wire  1 =! selIndex [0:0] $end
   $upscope $end
   $scope module apb3_decoder $end
    $var wire 20 M! io_input_PADDR [19:0] $end
    $var wire  1 ]! io_input_PENABLE $end
    $var wire 32 # io_input_PRDATA [31:0] $end
    $var wire  1 C io_input_PREADY $end
    $var wire  1 U! io_input_PSEL [0:0] $end
    $var wire  1 K io_input_PSLVERROR $end
    $var wire 32 u! io_input_PWDATA [31:0] $end
    $var wire  1 m! io_input_PWRITE $end
    $var wire 20 M! io_output_PADDR [19:0] $end
    $var wire  1 ]! io_output_PENABLE $end
    $var wire 32 # io_output_PRDATA [31:0] $end
    $var wire  1 )# io_output_PREADY $end
    $var wire  2 S io_output_PSEL [1:0] $end
    $var wire  1 1# io_output_PSLVERROR $end
    $var wire 32 u! io_output_PWDATA [31:0] $end
    $var wire  1 m! io_output_PWRITE $end
    $var wire  1 s when_Apb3Decoder_l84 $end
   $upscope $end
   $scope module apb3tobram_1 $end
    $var wire 20 M! io_apb_PADDR [19:0] $end
    $var wire  1 ]! io_apb_PENABLE $end
    $var wire 32 { io_apb_PRDATA [31:0] $end
    $var wire  1 w" io_apb_PREADY $end
    $var wire  1 + io_apb_PSEL [0:0] $end
    $var wire  1 !# io_apb_PSLVERROR $end
    $var wire 32 u! io_apb_PWDATA [31:0] $end
    $var wire  1 m! io_apb_PWRITE $end
    $var wire  8 _" io_bram_addr [7:0] $end
    $var wire  1 + io_bram_en $end
    $var wire 32 { io_bram_rddata [31:0] $end
    $var wire  4 3 io_bram_we [3:0] $end
    $var wire 32 u! io_bram_wrdata [31:0] $end
    $var wire  1 c when_Apb3ToBram_l42 $end
   $upscope $end
   $scope module gpioCtrl $end
    $var wire  1 G" clk $end
    $var wire  1 o" ctrl_askRead $end
    $var wire  1 g" ctrl_askWrite $end
    $var wire  1 o" ctrl_doRead $end
    $var wire  1 k ctrl_doWrite $end
    $var wire  4 W" io_apb_PADDR [3:0] $end
    $var wire  1 ]! io_apb_PENABLE $end
    $var wire 32 ; io_apb_PRDATA [31:0] $end
    $var wire  1 w" io_apb_PREADY $end
    $var wire  1 [ io_apb_PSEL [0:0] $end
    $var wire  1 !# io_apb_PSLVERROR $end
    $var wire 32 u! io_apb_PWDATA [31:0] $end
    $var wire  1 m! io_apb_PWRITE $end
    $var wire 32 /" io_gpio_read [31:0] $end
    $var wire 32 -! io_gpio_read_buffercc_io_dataOut [31:0] $end
    $var wire 32 %! io_gpio_write [31:0] $end
    $var wire 32 E! io_gpio_writeEnable [31:0] $end
    $var wire 32 E! io_gpio_writeEnable_driver [31:0] $end
    $var wire 32 %! io_gpio_write_driver [31:0] $end
    $var wire 32 -! io_value [31:0] $end
    $var wire  1 O" reset $end
    $scope module io_gpio_read_buffercc $end
     $var wire 32 5! buffers_0 [31:0] $end
     $var wire 32 -! buffers_1 [31:0] $end
     $var wire  1 G" clk $end
     $var wire 32 /" io_dataIn [31:0] $end
     $var wire 32 -! io_dataOut [31:0] $end
     $var wire  1 O" reset $end
    $upscope $end
   $upscope $end
  $upscope $end
 $upscope $end
$enddefinitions $end


#0
b00101101000100100101001001011110 #
0+
b0000 3
b00000000000000000000000000000000 ;
1C
1K
b00 S
0[
0c
0k
1s
b00101101000100100101001001011110 {
b11101110011100000011110111101000 %!
b00011010011100100011011000001001 -!
b00101000010011001010111000100010 5!
0=!
b00000000000000000000000000000000 E!
b01010111011011011100 M!
1U!
1]!
1e!
1m!
b10101011111010001010111000100011 u!
b00101101000100100101001001011110 }!
1'"
b00111011101011110101101011011010 /"
b11101110011100000011110111101000 7"
b00000000000000000000000000000000 ?"
0G"
1O"
b1100 W"
b11011100 _"
0g"
0o"
1w"
0!#
1)#
01#
#160
0O"
#170
b00101000010011001010111000100010 -!
b00111011101011110101101011011010 5!
1G"
#175
0G"
#180
b00111011101011110101101011011010 -!
1G"
#185
0G"
#190
1G"
#195
0G"
#200
1G"
#205
0G"
#210
1G"
#215
0G"
#220
1G"
#225
0G"
#230
1G"
#235
0G"
#240
1G"
#245
0G"
#250
1G"
#255
0G"
#260
1+
0K
b01 S
0s
b00000000000001010110 M!
0]!
b00000000000010100100100010111000 u!
0'"
1G"
b0110 W"
b01010110 _"
#265
0G"
#270
b10010011010100010111000001101001 #
b1111 3
1c
b10010011010100010111000001101001 {
1]!
b10010011010100010111000001101001 }!
1G"
#275
0G"
#280
b0000 3
0c
0]!
0m!
b10011100100111100101100101101000 u!
1G"
#285
0G"
#290
b00000000000010100100100010111000 #
b00000000000010100100100010111000 {
1]!
b00000000000010100100100010111000 }!
1G"
#295
0G"
#300
b00000000000010110110 M!
0]!
1m!
b00000000000001010011110001010010 u!
1G"
b10110110 _"
#305
0G"
#310
b10011111011111000110010101110010 #
b1111 3
1c
b10011111011111000110010101110010 {
1]!
b10011111011111000110010101110010 }!
1G"
#315
0G"
#320
b0000 3
0c
0]!
0m!
b11011100111100100001111111111101 u!
1G"
#325
0G"
#330
b00000000000001010011110001010010 #
b00000000000001010011110001010010 {
1]!
b00000000000001010011110001010010 }!
1G"
#335
0G"
#340
b00000000000001111101 M!
0]!
1m!
b00000000000011101110111001011010 u!
1G"
b1101 W"
b01111101 _"
#345
0G"
#350
b00110110110100101010010011010001 #
b1111 3
1c
b00110110110100101010010011010001 {
1]!
b00110110110100101010010011010001 }!
1G"
#355
0G"
#360
b0000 3
0c
0]!
0m!
b11100101110000001011101000000111 u!
1G"
#365
0G"
#370
b00000000000011101110111001011010 #
b00000000000011101110111001011010 {
1]!
b00000000000011101110111001011010 }!
1G"
#375
0G"
#380
b00000000000010011110 M!
0]!
1m!
b00000000000001001000111001001100 u!
1G"
b1110 W"
b10011110 _"
#385
0G"
#390
b11010111100010111111011011001100 #
b1111 3
1c
b11010111100010111111011011001100 {
1]!
b11010111100010111111011011001100 }!
1G"
#395
0G"
#400
b0000 3
0c
0]!
0m!
b10101101110110110001000101011011 u!
1G"
#405
0G"
#410
b00000000000001001000111001001100 #
b00000000000001001000111001001100 {
1]!
b00000000000001001000111001001100 }!
1G"
#415
0G"
#420
b00111011101011110101101011011010 ;
b00000000000011010000 M!
0]!
1m!
b00000000000000111101101100100101 u!
1G"
b0000 W"
b11010000 _"
#425
0G"
#430
b10111111111001100111010100001110 #
b1111 3
1c
b10111111111001100111010100001110 {
1]!
b10111111111001100111010100001110 }!
1G"
#435
0G"
#440
b0000 3
0c
0]!
0m!
b10100110110100011101100011000101 u!
1G"
#445
0G"
#450
b00000000000000111101101100100101 #
b00000000000000111101101100100101 {
1]!
b00000000000000111101101100100101 }!
1G"
#455
0G"
#460
b00000000000000000000000000000000 ;
b00000000000010100010 M!
0]!
1m!
b00000000000000011100000011111010 u!
1G"
b0010 W"
b10100010 _"
#465
0G"
#470
b01111010010111101110000110110110 #
b1111 3
1c
b01111010010111101110000110110110 {
1]!
b01111010010111101110000110110110 }!
1G"
#475
0G"
#480
b0000 3
0c
0]!
0m!
b00111110100001111111100001011111 u!
1G"
#485
0G"
#490
b00000000000000011100000011111010 #
b00000000000000011100000011111010 {
1]!
b00000000000000011100000011111010 }!
1G"
#495
0G"
#500
b00000000000011001010 M!
0]!
1m!
b00000000000001100010100001100110 u!
1G"
b1010 W"
b11001010 _"
#505
0G"
#510
b11001100000101010111000010110011 #
b1111 3
1c
b11001100000101010111000010110011 {
1]!
b11001100000101010111000010110011 }!
1G"
#515
0G"
#520
b0000 3
0c
0]!
0m!
b11100110010111011111001010110100 u!
1G"
#525
0G"
#530
b00000000000001100010100001100110 #
b00000000000001100010100001100110 {
1]!
b00000000000001100010100001100110 }!
1G"
#535
0G"
#540
b00000000000001000101 M!
0]!
1m!
b00000000000010011001011000100010 u!
1G"
b0101 W"
b01000101 _"
#545
0G"
#550
b10111010111000010111010011111111 #
b1111 3
1c
b10111010111000010111010011111111 {
1]!
b10111010111000010111010011111111 }!
1G"
#555
0G"
#560
b0000 3
0c
0]!
0m!
b10101010011001001001101100011101 u!
1G"
#565
0G"
#570
b00000000000010011001011000100010 #
b00000000000010011001011000100010 {
1]!
b00000000000010011001011000100010 }!
1G"
#575
0G"
#580
b00000000000000001101 M!
0]!
1m!
b00000000000010010000101001010111 u!
1G"
b1101 W"
b00001101 _"
#585
0G"
#590
b11011100011001010011011000110100 #
b1111 3
1c
b11011100011001010011011000110100 {
1]!
b11011100011001010011011000110100 }!
1G"
#595
0G"
#600
b0000 3
0c
0]!
0m!
b10011101010110100101000100010001 u!
1G"
#605
0G"
#610
b00000000000010010000101001010111 #
b00000000000010010000101001010111 {
1]!
b00000000000010010000101001010111 }!
1G"
#615
0G"
#620
b00000000000010111001 M!
0]!
1m!
b00000000000010101111110110110011 u!
1G"
b1001 W"
b10111001 _"
#625
0G"
#630
b01011011011101011110100001001101 #
b1111 3
1c
b01011011011101011110100001001101 {
1]!
b01011011011101011110100001001101 }!
1G"
#635
0G"
#640
b0000 3
0c
0]!
0m!
b01110100000011001101110101100101 u!
1G"
#645
0G"
#650
b00000000000010101111110110110011 #
b00000000000010101111110110110011 {
1]!
b00000000000010101111110110110011 }!
1G"
#655
0G"
#660
b00000000000000101100 M!
0]!
1m!
b00000000000010101011100001000011 u!
1G"
b1100 W"
b00101100 _"
#665
0G"
#670
b10101111010101000011011100011011 #
b1111 3
1c
b10101111010101000011011100011011 {
1]!
b10101111010101000011011100011011 }!
1G"
#675
0G"
#680
b0000 3
0c
0]!
0m!
b00100010100010000101010110110000 u!
1G"
#685
0G"
#690
b00000000000010101011100001000011 #
b00000000000010101011100001000011 {
1]!
b00000000000010101011100001000011 }!
1G"
#695
0G"
#700
b00000000000010001010 M!
0]!
1m!
b00000000000010000100010001111011 u!
1G"
b1010 W"
b10001010 _"
#705
0G"
#710
b10111001001110111100111001000011 #
b1111 3
1c
b10111001001110111100111001000011 {
1]!
b10111001001110111100111001000011 }!
1G"
#715
0G"
#720
b0000 3
0c
0]!
0m!
b10110111000101011101111101001010 u!
1G"
#725
0G"
#730
b00000000000010000100010001111011 #
b00000000000010000100010001111011 {
1]!
b00000000000010000100010001111011 }!
1G"
#735
0G"
#740
b00000000000010000111 M!
0]!
1m!
b00000000000001111000011111001010 u!
1G"
b0111 W"
b10000111 _"
#745
0G"
#750
b00001011101010011001100100000101 #
b1111 3
1c
b00001011101010011001100100000101 {
1]!
b00001011101010011001100100000101 }!
1G"
#755
0G"
#760
b0000 3
0c
0]!
0m!
b00011101100111000001111010100110 u!
1G"
#765
0G"
#770
b00000000000001111000011111001010 #
b00000000000001111000011111001010 {
1]!
b00000000000001111000011111001010 }!
1G"
#775
0G"
#780
b00000000000010001000 M!
0]!
1m!
b00000000000010001011000110111110 u!
1G"
b1000 W"
b10001000 _"
#785
0G"
#790
b01010010010110101001011100101111 #
b1111 3
1c
b01010010010110101001011100101111 {
1]!
b01010010010110101001011100101111 }!
1G"
#795
0G"
#800
b0000 3
0c
0]!
0m!
b11000000110001100110000011110001 u!
1G"
#805
0G"
#810
b00000000000010001011000110111110 #
b00000000000010001011000110111110 {
1]!
b00000000000010001011000110111110 }!
1G"
#815
0G"
#820
b00000000000010111011 M!
0]!
1m!
b00000000000000001001101010001010 u!
1G"
b1011 W"
b10111011 _"
#825
0G"
#830
b01010001110011000101000000001110 #
b1111 3
1c
b01010001110011000101000000001110 {
1]!
b01010001110011000101000000001110 }!
1G"
#835
0G"
#840
b0000 3
0c
0]!
0m!
b10101101100110100110110100111011 u!
1G"
#845
0G"
#850
b00000000000000001001101010001010 #
b00000000000000001001101010001010 {
1]!
b00000000000000001001101010001010 }!
1G"
#855
0G"
#860
b00000000000011100101 M!
0]!
1m!
b00000000000011001000001110101101 u!
1G"
b0101 W"
b11100101 _"
#865
0G"
#870
b11010011000010001101010110001011 #
b1111 3
1c
b11010011000010001101010110001011 {
1]!
b11010011000010001101010110001011 }!
1G"
#875
0G"
#880
b0000 3
0c
0]!
0m!
b00100000011100100011011110011100 u!
1G"
#885
0G"
#890
b00000000000011001000001110101101 #
b00000000000011001000001110101101 {
1]!
b00000000000011001000001110101101 }!
1G"
#895
0G"
#900
b00000000000011111100 M!
0]!
1m!
b00000000000010001001001000100001 u!
1G"
b1100 W"
b11111100 _"
#905
0G"
#910
b10010110001011010111110101110111 #
b1111 3
1c
b10010110001011010111110101110111 {
1]!
b10010110001011010111110101110111 }!
1G"
#915
0G"
#920
b0000 3
0c
0]!
0m!
b00100000001001001011110000010000 u!
1G"
#925
0G"
#930
b00000000000010001001001000100001 #
b00000000000010001001001000100001 {
1]!
b00000000000010001001001000100001 }!
1G"
#935
0G"
#940
b00111011101011110101101011011010 ;
b00000000000011010000 M!
0]!
1m!
b00000000000001010000010001111000 u!
1G"
b0000 W"
b11010000 _"
#945
0G"
#950
b00000000000000111101101100100101 #
b1111 3
1c
b00000000000000111101101100100101 {
1]!
b00000000000000111101101100100101 }!
1G"
#955
0G"
#960
b0000 3
0c
0]!
0m!
b11100110001111011101111111111000 u!
1G"
#965
0G"
#970
b00000000000001010000010001111000 #
b00000000000001010000010001111000 {
1]!
b00000000000001010000010001111000 }!
1G"
#975
0G"
#980
b00000000000000000000000000000000 ;
b00000000000000111100 M!
0]!
1m!
b00000000000010010001001101011001 u!
1G"
b1100 W"
b00111100 _"
#985
0G"
#990
b10001110101000001100001110110110 #
b1111 3
1c
b10001110101000001100001110110110 {
1]!
b10001110101000001100001110110110 }!
1G"
#995
0G"
#1000
b0000 3
0c
0]!
0m!
b11010000100110011011000010001101 u!
1G"
#1005
0G"
#1010
b00000000000010010001001101011001 #
b00000000000010010001001101011001 {
1]!
b00000000000010010001001101011001 }!
1G"
#1015
0G"
#1020
b00000000000001010010 M!
0]!
1m!
b00000000000011001100110011001001 u!
1G"
b0010 W"
b01010010 _"
#1025
0G"
#1030
b11101101011001010101001001011000 #
b1111 3
1c
b11101101011001010101001001011000 {
1]!
b11101101011001010101001001011000 }!
1G"
#1035
0G"
#1040
b0000 3
0c
0]!
0m!
b10000010001011000111100110100100 u!
1G"
#1045
0G"
#1050
b00000000000011001100110011001001 #
b00000000000011001100110011001001 {
1]!
b00000000000011001100110011001001 }!
1G"
#1055
0G"
#1060
b00000000000001111111 M!
0]!
1m!
b00000000000001110110011010101001 u!
1G"
b1111 W"
b01111111 _"
#1065
0G"
#1070
b10010011100111000011110101001100 #
b1111 3
1c
b10010011100111000011110101001100 {
1]!
b10010011100111000011110101001100 }!
1G"
#1075
0G"
#1080
b0000 3
0c
0]!
0m!
b10110101010010110101001110001110 u!
1G"
#1085
0G"
#1090
b00000000000001110110011010101001 #
b00000000000001110110011010101001 {
1]!
b00000000000001110110011010101001 }!
1G"
#1095
0G"
#1100
b00000000000010110110 M!
0]!
1m!
b00000000000011101011001011010110 u!
1G"
b0110 W"
b10110110 _"
#1105
0G"
#1110
b00000000000001010011110001010010 #
b1111 3
1c
b00000000000001010011110001010010 {
1]!
b00000000000001010011110001010010 }!
1G"
#1115
0G"
#1120
b0000 3
0c
0]!
0m!
b10100010110000111011100000000011 u!
1G"
#1125
0G"
#1130
b00000000000011101011001011010110 #
b00000000000011101011001011010110 {
1]!
b00000000000011101011001011010110 }!
1G"
#1135
0G"
#1140
b00000000000000001011 M!
0]!
1m!
b00000000000000010110101010011100 u!
1G"
b1011 W"
b00001011 _"
#1145
0G"
#1150
b11100110101001100111101100111101 #
b1111 3
1c
b11100110101001100111101100111101 {
1]!
b11100110101001100111101100111101 }!
1G"
#1155
0G"
#1160
b0000 3
0c
0]!
0m!
b00100001110100111011110101001111 u!
1G"
#1165
0G"
#1170
b00000000000000010110101010011100 #
b00000000000000010110101010011100 {
1]!
b00000000000000010110101010011100 }!
1G"
#1175
0G"
#1180
b00000000000010110001 M!
0]!
1m!
b00000000000001000011001111011011 u!
1G"
b0001 W"
b10110001 _"
#1185
0G"
#1190
b00100010001011100011111000010110 #
b1111 3
1c
b00100010001011100011111000010110 {
1]!
b00100010001011100011111000010110 }!
1G"
#1195
0G"
#1200
b0000 3
0c
0]!
0m!
b11111011100001101001010001000100 u!
1G"
#1205
0G"
#1210
b00000000000001000011001111011011 #
b00000000000001000011001111011011 {
1]!
b00000000000001000011001111011011 }!
1G"
#1215
0G"
#1220
b00000000000000011110 M!
0]!
1m!
b00000000000000010001100101011010 u!
1G"
b1110 W"
b00011110 _"
#1225
0G"
#1230
b10101000000111100000101011110101 #
b1111 3
1c
b10101000000111100000101011110101 {
1]!
b10101000000111100000101011110101 }!
1G"
#1235
0G"
#1240
b0000 3
0c
0]!
0m!
b00011111000001000010000010010110 u!
1G"
#1245
0G"
#1250
b00000000000000010001100101011010 #
b00000000000000010001100101011010 {
1]!
b00000000000000010001100101011010 }!
1G"
#1255
0G"
#1260
b11101110011100000011110111101000 ;
b00000000000000110100 M!
0]!
1m!
b00000000000011010010001111101010 u!
1G"
b0100 W"
b00110100 _"
#1265
0G"
#1270
b00011111000110110001111101111000 #
b1111 3
1c
b00011111000110110001111101111000 {
1]!
b00011111000110110001111101111000 }!
1G"
#1275
0G"
#1280
b0000 3
0c
0]!
0m!
b11110101010010001100110010101111 u!
1G"
#1285
0G"
#1290
b00000000000011010010001111101010 #
b00000000000011010010001111101010 {
1]!
b00000000000011010010001111101010 }!
1G"
#1295
0G"
#1300
b00000000000000000000000000000000 ;
b00000000000011111001 M!
0]!
1m!
b00000000000001001111101001001000 u!
1G"
b1001 W"
b11111001 _"
#1305
0G"
#1310
b10101000111111000001101111000111 #
b1111 3
1c
b10101000111111000001101111000111 {
1]!
b10101000111111000001101111000111 }!
1G"
#1315
0G"
#1320
b0000 3
0c
0]!
0m!
b11011110010010010110000100100000 u!
1G"
#1325
0G"
#1330
b00000000000001001111101001001000 #
b00000000000001001111101001001000 {
1]!
b00000000000001001111101001001000 }!
1G"
#1335
0G"
#1340
b00000000000011110001 M!
0]!
1m!
b00000000000000101010110011101000 u!
1G"
b0001 W"
b11110001 _"
#1345
0G"
#1350
b00010000010110010101110011111100 #
b1111 3
1c
b00010000010110010101110011111100 {
1]!
b00010000010110010101110011111100 }!
1G"
#1355
0G"
#1360
b0000 3
0c
0]!
0m!
b10110110001010100111110100110011 u!
1G"
#1365
0G"
#1370
b00000000000000101010110011101000 #
b00000000000000101010110011101000 {
1]!
b00000000000000101010110011101000 }!
1G"
#1375
0G"
#1380
b00000000000010000010 M!
0]!
1m!
b00000000000000101000000110010110 u!
1G"
b0010 W"
b10000010 _"
#1385
0G"
#1390
b01001001110011011000010011110000 #
b1111 3
1c
b01001001110011011000010011110000 {
1]!
b01001001110011011000010011110000 }!
1G"
#1395
0G"
#1400
b0000 3
0c
0]!
0m!
b10011110111011001010000101010000 u!
1G"
#1405
0G"
#1410
b00000000000000101000000110010110 #
b00000000000000101000000110010110 {
1]!
b00000000000000101000000110010110 }!
1G"
#1415
0G"
#1420
b00000000000011011011 M!
0]!
1m!
b00000000000011001000001101011101 u!
1G"
b1011 W"
b11011011 _"
#1425
0G"
#1430
b01001010011111011101101101000101 #
b1111 3
1c
b01001010011111011101101101000101 {
1]!
b01001010011111011101101101000101 }!
1G"
#1435
0G"
#1440
b0000 3
0c
0]!
0m!
b01111010001001000101110100101111 u!
1G"
#1445
0G"
#1450
b00000000000011001000001101011101 #
b00000000000011001000001101011101 {
1]!
b00000000000011001000001101011101 }!
1G"
#1455
0G"
#1460
b00000000000010111111 M!
0]!
1m!
b00000000000011101000110100011100 u!
1G"
b1111 W"
b10111111 _"
#1465
0G"
#1470
b10111000011001011111010000110110 #
b1111 3
1c
b10111000011001011111010000110110 {
1]!
b10111000011001011111010000110110 }!
1G"
#1475
0G"
#1480
b0000 3
0c
0]!
0m!
b01100010100011010111001100010011 u!
1G"
#1485
0G"
#1490
b00000000000011101000110100011100 #
b00000000000011101000110100011100 {
1]!
b00000000000011101000110100011100 }!
1G"
#1495
0G"
#1500
b00000000000000001100 M!
0]!
1m!
b00000000000000111010101011101111 u!
1G"
b1100 W"
b00001100 _"
#1505
0G"
#1510
b10001011011111111110110100000100 #
b1111 3
1c
b10001011011111111110110100000100 {
1]!
b10001011011111111110110100000100 }!
1G"
#1515
0G"
#1520
b0000 3
0c
0]!
0m!
b11111000101100100110111001111110 u!
1G"
#1525
0G"
#1530
b00000000000000111010101011101111 #
b00000000000000111010101011101111 {
1]!
b00000000000000111010101011101111 }!
1G"
#1535
0G"
#1540
b00000000000010110111 M!
0]!
1m!
b00000000000000101111001011101000 u!
1G"
b0111 W"
b10110111 _"
#1545
0G"
#1550
b00110001000110001010011001010001 #
b1111 3
1c
b00110001000110001010011001010001 {
1]!
b00110001000110001010011001010001 }!
1G"
#1555
0G"
#1560
b0000 3
0c
0]!
0m!
b00000010110101101001100000010111 u!
1G"
#1565
0G"
#1570
b00000000000000101111001011101000 #
b00000000000000101111001011101000 {
1]!
b00000000000000101111001011101000 }!
1G"
#1575
0G"
#1580
b00000000000010001010 M!
0]!
1m!
b00000000000010100010000010110011 u!
1G"
b1010 W"
b10001010 _"
#1585
0G"
#1590
b00000000000010000100010001111011 #
b1111 3
1c
b00000000000010000100010001111011 {
1]!
b00000000000010000100010001111011 }!
1G"
#1595
0G"
#1600
b0000 3
0c
0]!
0m!
b00110101100111000010100111000111 u!
1G"
#1605
0G"
#1610
b00000000000010100010000010110011 #
b00000000000010100010000010110011 {
1]!
b00000000000010100010000010110011 }!
1G"
#1615
0G"
#1620
b00000000000010001011 M!
0]!
1m!
b00000000000010001111011011011111 u!
1G"
b1011 W"
b10001011 _"
#1625
0G"
#1630
b01000110100111000111010011000011 #
b1111 3
1c
b01000110100111000111010011000011 {
1]!
b01000110100111000111010011000011 }!
1G"
#1635
0G"
#1640
b0000 3
0c
0]!
0m!
b00111111111111010111110100101110 u!
1G"
#1645
0G"
#1650
b00000000000010001111011011011111 #
b00000000000010001111011011011111 {
1]!
b00000000000010001111011011011111 }!
1G"
#1655
0G"
#1660
b00000000000010110101 M!
0]!
1m!
b00000000000010010001010111101001 u!
1G"
b0101 W"
b10110101 _"
#1665
0G"
#1670
b10101100110111111111011011010111 #
b1111 3
1c
b10101100110111111111011011010111 {
1]!
b10101100110111111111011011010111 }!
1G"
#1675
0G"
#1680
b0000 3
0c
0]!
0m!
b00001011010101100111010000000100 u!
1G"
#1685
0G"
#1690
b00000000000010010001010111101001 #
b00000000000010010001010111101001 {
1]!
b00000000000010010001010111101001 }!
1G"
#1695
0G"
#1700
b11101110011100000011110111101000 ;
b00000000000010010100 M!
0]!
1m!
b00000000000010011101001110000110 u!
1G"
b0100 W"
b10010100 _"
#1705
0G"
#1710
b11100110110101000010010000101101 #
b1111 3
1c
b11100110110101000010010000101101 {
1]!
b11100110110101000010010000101101 }!
1G"
#1715
0G"
#1720
b0000 3
0c
0]!
0m!
b11000101010101111101110011111110 u!
1G"
#1725
0G"
#1730
b00000000000010011101001110000110 #
b00000000000010011101001110000110 {
1]!
b00000000000010011101001110000110 }!
1G"
#1735
0G"
#1740
b00000000000000000000000000000000 ;
b00000000000011011010 M!
0]!
1m!
b00000000000000010010000011001011 u!
1G"
b1010 W"
b11011010 _"
#1745
0G"
#1750
b10010001011100110000010001000010 #
b1111 3
1c
b10010001011100110000010001000010 {
1]!
b10010001011100110000010001000010 }!
1G"
#1755
0G"
#1760
b0000 3
0c
0]!
0m!
b01111010010001001110100101010001 u!
1G"
#1765
0G"
#1770
b00000000000000010010000011001011 #
b00000000000000010010000011001011 {
1]!
b00000000000000010010000011001011 }!
1G"
#1775
0G"
#1780
b00000000000010111011 M!
0]!
1m!
b00000000000010010101111000100101 u!
1G"
b1011 W"
b10111011 _"
#1785
0G"
#1790
b00000000000000001001101010001010 #
b1111 3
1c
b00000000000000001001101010001010 {
1]!
b00000000000000001001101010001010 }!
1G"
#1795
0G"
#1800
b0000 3
0c
0]!
0m!
b10100010011110100011010111101011 u!
1G"
#1805
0G"
#1810
b00000000000010010101111000100101 #
b00000000000010010101111000100101 {
1]!
b00000000000010010101111000100101 }!
1G"
#1815
0G"
#1820
b00000000000001111110 M!
0]!
1m!
b00000000000000111011100100001001 u!
1G"
b1110 W"
b01111110 _"
#1825
0G"
#1830
b10101001111010001101101100111111 #
b1111 3
1c
b10101001111010001101101100111111 {
1]!
b10101001111010001101101100111111 }!
1G"
#1835
0G"
#1840
b0000 3
0c
0]!
0m!
b00011010011101010100100011110111 u!
1G"
#1845
0G"
#1850
b00000000000000111011100100001001 #
b00000000000000111011100100001001 {
1]!
b00000000000000111011100100001001 }!
1G"
#1855
0G"
#1860
b00000000000010101100 M!
0]!
1m!
b00000000000000101001110100010000 u!
1G"
b1100 W"
b10101100 _"
#1865
0G"
