SPINAL_TEST/simWorkspace/Apb3Test/test.vcd
$version Generated by VerilatedVcd $end
$date Mon Aug 09 15:42:33 2021
 $end
$timescale   1ns $end

 $scope module TOP $end
  $var wire 20 M! apb3_PADDR [19:0] $end
  $var wire  1 ]! apb3_PENABLE $end
  $var wire 32 }! apb3_PRDATA [31:0] $end
  $var wire  1 e! apb3_PREADY $end
  $var wire  1 U! apb3_PSEL [0:0] $end
  $var wire  1 '" apb3_PSLVERROR $end
  $var wire 32 u! apb3_PWDATA [31:0] $end
  $var wire  1 m! apb3_PWRITE $end
  $var wire  1 G" clk $end
  $var wire 32 /" gpio_read [31:0] $end
  $var wire 32 7" gpio_write [31:0] $end
  $var wire 32 ?" gpio_writeEnable [31:0] $end
  $var wire  1 O" reset $end
  $scope module Apb3Test $end
   $var wire 32 # apb3Router_1_io_input_PRDATA [31:0] $end
   $var wire  1 )# apb3Router_1_io_input_PREADY $end
   $var wire  1 1# apb3Router_1_io_input_PSLVERROR $end
   $var wire 20 M! apb3Router_1_io_outputs_0_PADDR [19:0] $end
   $var wire  1 ]! apb3Router_1_io_outputs_0_PENABLE $end
   $var wire  1 + apb3Router_1_io_outputs_0_PSEL [0:0] $end
   $var wire 32 u! apb3Router_1_io_outputs_0_PWDATA [31:0] $end
   $var wire  1 m! apb3Router_1_io_outputs_0_PWRITE $end
   $var wire 20 M! apb3Router_1_io_outputs_1_PADDR [19:0] $end
   $var wire  1 ]! apb3Router_1_io_outputs_1_PENABLE $end
   $var wire  1 [ apb3Router_1_io_outputs_1_PSEL [0:0] $end
   $var wire 32 u! apb3Router_1_io_outputs_1_PWDATA [31:0] $end
   $var wire  1 m! apb3Router_1_io_outputs_1_PWRITE $end
   $var wire 20 M! apb3_PADDR [19:0] $end
   $var wire  1 ]! apb3_PENABLE $end
   $var wire 32 }! apb3_PRDATA [31:0] $end
   $var wire  1 e! apb3_PREADY $end
   $var wire  1 U! apb3_PSEL [0:0] $end
   $var wire  1 '" apb3_PSLVERROR $end
   $var wire 32 u! apb3_PWDATA [31:0] $end
   $var wire  1 m! apb3_PWRITE $end
   $var wire 32 # apb3_decoder_io_input_PRDATA [31:0] $end
   $var wire  1 C apb3_decoder_io_input_PREADY $end
   $var wire  1 K apb3_decoder_io_input_PSLVERROR $end
   $var wire 20 M! apb3_decoder_io_output_PADDR [19:0] $end
   $var wire  1 ]! apb3_decoder_io_output_PENABLE $end
   $var wire  2 S apb3_decoder_io_output_PSEL [1:0] $end
   $var wire 32 u! apb3_decoder_io_output_PWDATA [31:0] $end
   $var wire  1 m! apb3_decoder_io_output_PWRITE $end
   $var wire 32 { apb3tobram_1_io_apb_PRDATA [31:0] $end
   $var wire  1 w" apb3tobram_1_io_apb_PREADY $end
   $var wire  1 !# apb3tobram_1_io_apb_PSLVERROR $end
   $var wire  8 _" apb3tobram_1_io_bram_addr [7:0] $end
   $var wire  1 + apb3tobram_1_io_bram_en $end
   $var wire 32 { apb3tobram_1_io_bram_rddata [31:0] $end
   $var wire  4 3 apb3tobram_1_io_bram_we [3:0] $end
   $var wire 32 u! apb3tobram_1_io_bram_wrdata [31:0] $end
   $var wire  1 G" clk $end
   $var wire  4 W" gpioCtrl_io_apb_PADDR [3:0] $end
   $var wire 32 ; gpioCtrl_io_apb_PRDATA [31:0] $end
   $var wire  1 w" gpioCtrl_io_apb_PREADY $end
   $var wire  1 !# gpioCtrl_io_apb_PSLVERROR $end
   $var wire 32 %! gpioCtrl_io_gpio_write [31:0] $end
   $var wire 32 E! gpioCtrl_io_gpio_writeEnable [31:0] $end
   $var wire 32 -! gpioCtrl_io_value [31:0] $end
   $var wire 32 /" gpio_read [31:0] $end
   $var wire 32 7" gpio_write [31:0] $end
   $var wire 32 ?" gpio_writeEnable [31:0] $end
   $var wire  1 O" reset $end
   $scope module apb3Router_1 $end
    $var wire  1 G" clk $end
    $var wire 20 M! io_input_PADDR [19:0] $end
    $var wire  1 ]! io_input_PENABLE $end
    $var wire 32 # io_input_PRDATA [31:0] $end
    $var wire  1 )# io_input_PREADY $end
    $var wire  2 S io_input_PSEL [1:0] $end
    $var wire  1 1# io_input_PSLVERROR $end
    $var wire 32 u! io_input_PWDATA [31:0] $end
    $var wire  1 m! io_input_PWRITE $end
    $var wire 20 M! io_outputs_0_PADDR [19:0] $end
    $var wire  1 ]! io_outputs_0_PENABLE $end
    $var wire 32 { io_outputs_0_PRDATA [31:0] $end
    $var wire  1 w" io_outputs_0_PREADY $end
    $var wire  1 + io_outputs_0_PSEL [0:0] $end
    $var wire  1 !# io_outputs_0_PSLVERROR $end
    $var wire 32 u! io_outputs_0_PWDATA [31:0] $end
    $var wire  1 m! io_outputs_0_PWRITE $end
    $var wire 20 M! io_outputs_1_PADDR [19:0] $end
    $var wire  1 ]! io_outputs_1_PENABLE $end
    $var wire 32 ; io_outputs_1_PRDATA [31:0] $end
    $var wire  1 w" io_outputs_1_PREADY $end
    $var wire  1 [ io_outputs_1_PSEL [0:0] $end
    $var wire  1 !# io_outputs_1_PSLVERROR $end
    $var wire 32 u! io_outputs_1_PWDATA [31:0] $end
    $var wire  1 m! io_outputs_1_PWRITE $end
    $var wire  1 O" reset $end
    $var wire  1 =! selIndex [0:0] $end
   $upscope $end
   $scope module apb3_decoder $end
    $var wire 20 M! io_input_PADDR [19:0] $end
    $var wire  1 ]! io_input_PENABLE $end
    $var wire 32 # io_input_PRDATA [31:0] $end
    $var wire  1 C io_input_PREADY $end
    $var wire  1 U! io_input_PSEL [0:0] $end
    $var wire  1 K io_input_PSLVERROR $end
    $var wire 32 u! io_input_PWDATA [31:0] $end
    $var wire  1 m! io_input_PWRITE $end
    $var wire 20 M! io_output_PADDR [19:0] $end
    $var wire  1 ]! io_output_PENABLE $end
    $var wire 32 # io_output_PRDATA [31:0] $end
    $var wire  1 )# io_output_PREADY $end
    $var wire  2 S io_output_PSEL [1:0] $end
    $var wire  1 1# io_output_PSLVERROR $end
    $var wire 32 u! io_output_PWDATA [31:0] $end
    $var wire  1 m! io_output_PWRITE $end
    $var wire  1 s when_Apb3Decoder_l84 $end
   $upscope $end
   $scope module apb3tobram_1 $end
    $var wire 20 M! io_apb_PADDR [19:0] $end
    $var wire  1 ]! io_apb_PENABLE $end
    $var wire 32 { io_apb_PRDATA [31:0] $end
    $var wire  1 w" io_apb_PREADY $end
    $var wire  1 + io_apb_PSEL [0:0] $end
    $var wire  1 !# io_apb_PSLVERROR $end
    $var wire 32 u! io_apb_PWDATA [31:0] $end
    $var wire  1 m! io_apb_PWRITE $end
    $var wire  8 _" io_bram_addr [7:0] $end
    $var wire  1 + io_bram_en $end
    $var wire 32 { io_bram_rddata [31:0] $end
    $var wire  4 3 io_bram_we [3:0] $end
    $var wire 32 u! io_bram_wrdata [31:0] $end
    $var wire  1 c when_Apb3ToBram_l41 $end
   $upscope $end
   $scope module gpioCtrl $end
    $var wire  1 G" clk $end
    $var wire  1 o" ctrl_askRead $end
    $var wire  1 g" ctrl_askWrite $end
    $var wire  1 o" ctrl_doRead $end
    $var wire  1 k ctrl_doWrite $end
    $var wire  4 W" io_apb_PADDR [3:0] $end
    $var wire  1 ]! io_apb_PENABLE $end
    $var wire 32 ; io_apb_PRDATA [31:0] $end
    $var wire  1 w" io_apb_PREADY $end
    $var wire  1 [ io_apb_PSEL [0:0] $end
    $var wire  1 !# io_apb_PSLVERROR $end
    $var wire 32 u! io_apb_PWDATA [31:0] $end
    $var wire  1 m! io_apb_PWRITE $end
    $var wire 32 /" io_gpio_read [31:0] $end
    $var wire 32 -! io_gpio_read_buffercc_io_dataOut [31:0] $end
    $var wire 32 %! io_gpio_write [31:0] $end
    $var wire 32 E! io_gpio_writeEnable [31:0] $end
    $var wire 32 E! io_gpio_writeEnable_driver [31:0] $end
    $var wire 32 %! io_gpio_write_driver [31:0] $end
    $var wire 32 -! io_value [31:0] $end
    $var wire  1 O" reset $end
    $scope module io_gpio_read_buffercc $end
     $var wire 32 5! buffers_0 [31:0] $end
     $var wire 32 -! buffers_1 [31:0] $end
     $var wire  1 G" clk $end
     $var wire 32 /" io_dataIn [31:0] $end
     $var wire 32 -! io_dataOut [31:0] $end
     $var wire  1 O" reset $end
    $upscope $end
   $upscope $end
  $upscope $end
 $upscope $end
$enddefinitions $end


#0
b00000000000000000000000000000000 #
0+
b0000 3
b00000000000000000000000000000000 ;
1C
1K
b00 S
0[
0c
0k
1s
b10111001001110010010001101001000 {
b00000000010000101101101010001100 %!
b01111000001001000101011011000011 -!
b01010011111010110101000100100010 5!
1=!
b00000000000000000000000000000000 E!
b00010110011100011010 M!
1U!
1]!
1e!
0m!
b00010101100100000111101010110100 u!
b00000000000000000000000000000000 }!
1'"
b10110110110001111100100010000100 /"
b00000000010000101101101010001100 7"
b00000000000000000000000000000000 ?"
0G"
1O"
b1010 W"
b00011010 _"
0g"
0o"
1w"
0!#
1)#
01#
#160
0O"
#170
b10111001001110010010001101001000 #
b01010011111010110101000100100010 -!
b10110110110001111100100010000100 5!
0=!
b10111001001110010010001101001000 }!
1G"
#175
0G"
#180
b10110110110001111100100010000100 -!
1G"
#185
0G"
#190
1G"
#195
0G"
#200
1G"
#205
0G"
#210
1G"
#215
0G"
#220
1G"
#225
0G"
#230
1G"
#235
0G"
#240
1G"
#245
0G"
#250
1G"
#255
0G"
#260
1+
0K
b01 S
0s
b00000000000010001100 M!
0]!
1m!
b00000000000010001000001110010111 u!
0'"
1G"
b1100 W"
b10001100 _"
#265
0G"
#270
b10110110001110010001110011001101 #
b1111 3
1c
b10110110001110010001110011001101 {
1]!
b10110110001110010001110011001101 }!
1G"
#275
0G"
#280
b0000 3
0c
0]!
0m!
b01110111111001001100001010110111 u!
1G"
#285
0G"
#290
b00000000000010001000001110010111 #
b00000000000010001000001110010111 {
1]!
b00000000000010001000001110010111 }!
1G"
#295
0G"
#300
b00000000000011011001 M!
0]!
1m!
b00000000000001000100001100101001 u!
1G"
b1001 W"
b11011001 _"
#305
0G"
#310
b01111101101000101001110010110111 #
b1111 3
1c
b01111101101000101001110010110111 {
1]!
b01111101101000101001110010110111 }!
1G"
#315
0G"
#320
b0000 3
0c
0]!
0m!
b00111111010101100001000001110111 u!
1G"
#325
0G"
#330
b00000000000001000100001100101001 #
b00000000000001000100001100101001 {
1]!
b00000000000001000100001100101001 }!
1G"
#335
0G"
#340
b00000000000010011001 M!
0]!
1m!
b00000000000011101011011111010111 u!
1G"
b10011001 _"
#345
0G"
#350
b10100001000110111010110111010100 #
b1111 3
1c
b10100001000110111010110111010100 {
1]!
b10100001000110111010110111010100 }!
1G"
#355
0G"
#360
b0000 3
0c
0]!
0m!
b11100000100010111010000100000010 u!
1G"
#365
0G"
#370
b00000000000011101011011111010111 #
b00000000000011101011011111010111 {
1]!
b00000000000011101011011111010111 }!
1G"
#375
0G"
#380
b00000000000001010001 M!
0]!
1m!
b00000000000000000010011000101110 u!
1G"
b0001 W"
b01010001 _"
#385
0G"
#390
b11000101001100000000001001100010 #
b1111 3
1c
b11000101001100000000001001100010 {
1]!
b11000101001100000000001001100010 }!
1G"
#395
0G"
#400
b0000 3
0c
0]!
0m!
b00110011100001100001100000001111 u!
1G"
#405
0G"
#410
b00000000000000000010011000101110 #
b00000000000000000010011000101110 {
1]!
b00000000000000000010011000101110 }!
1G"
#415
0G"
#420
b00000000000011010111 M!
0]!
1m!
b00000000000011101110010010110010 u!
1G"
b0111 W"
b11010111 _"
#425
0G"
#430
b11001100001111010110000010001101 #
b1111 3
1c
b11001100001111010110000010001101 {
1]!
b11001100001111010110000010001101 }!
1G"
#435
0G"
#440
b0000 3
0c
0]!
0m!
b11010010101010011000011101100000 u!
1G"
#445
0G"
#450
b00000000000011101110010010110010 #
b00000000000011101110010010110010 {
1]!
b00000000000011101110010010110010 }!
1G"
#455
0G"
#460
b00000000000001001110 M!
0]!
1m!
b00000000000000111001010100000100 u!
1G"
b1110 W"
b01001110 _"
#465
0G"
#470
b00000001011111101101100100000000 #
b1111 3
1c
b00000001011111101101100100000000 {
1]!
b00000001011111101101100100000000 }!
1G"
#475
0G"
#480
b0000 3
0c
0]!
0m!
b10010011100001011001100110111011 u!
1G"
#485
0G"
#490
b00000000000000111001010100000100 #
b00000000000000111001010100000100 {
1]!
b00000000000000111001010100000100 }!
1G"
#495
0G"
#500
b00000000000010000111 M!
0]!
1m!
b00000000000000111011010011100110 u!
1G"
b0111 W"
b10000111 _"
#505
0G"
#510
b10000100110010010100111101001011 #
b1111 3
1c
b10000100110010010100111101001011 {
1]!
b10000100110010010100111101001011 }!
1G"
#515
0G"
#520
b0000 3
0c
0]!
0m!
b00000101010111111100010001001110 u!
1G"
#525
0G"
#530
b00000000000000111011010011100110 #
b00000000000000111011010011100110 {
1]!
b00000000000000111011010011100110 }!
1G"
#535
0G"
#540
b00000000000001000101 M!
0]!
1m!
b00000000000000011111111001000001 u!
1G"
b0101 W"
b01000101 _"
#545
0G"
#550
b11000010001100100011010011000101 #
b1111 3
1c
b11000010001100100011010011000101 {
1]!
b11000010001100100011010011000101 }!
1G"
#555
0G"
#560
b0000 3
0c
0]!
0m!
b01010000000001011000011100100010 u!
1G"
#565
0G"
#570
b00000000000000011111111001000001 #
b00000000000000011111111001000001 {
1]!
b00000000000000011111111001000001 }!
1G"
#575
0G"
#580
b00000000000010001110 M!
0]!
1m!
b00000000000000111001111011001001 u!
1G"
b1110 W"
b10001110 _"
#585
0G"
#590
b01010010011000111101000101010011 #
b1111 3
1c
b01010010011000111101000101010011 {
1]!
b01010010011000111101000101010011 }!
1G"
#595
0G"
#600
b0000 3
0c
0]!
0m!
b11001011100000111110001101110001 u!
1G"
#605
0G"
#610
b00000000000000111001111011001001 #
b00000000000000111001111011001001 {
1]!
b00000000000000111001111011001001 }!
1G"
#615
0G"
#620
b00000000000001011001 M!
0]!
1m!
b00000000000001101011100011010111 u!
1G"
b1001 W"
b01011001 _"
#625
0G"
#630
b00110010000110101101001101111011 #
b1111 3
1c
b00110010000110101101001101111011 {
1]!
b00110010000110101101001101111011 }!
1G"
#635
0G"
#640
b0000 3
0c
0]!
0m!
b00111010100110101010001011101100 u!
1G"
#645
0G"
#650
b00000000000001101011100011010111 #
b00000000000001101011100011010111 {
1]!
b00000000000001101011100011010111 }!
1G"
#655
0G"
#660
b00000000000010100111 M!
0]!
1m!
b00000000000000001010111110010111 u!
1G"
b0111 W"
b10100111 _"
#665
0G"
#670
b00110100100011110100100100110110 #
b1111 3
1c
b00110100100011110100100100110110 {
1]!
b00110100100011110100100100110110 }!
1G"
#675
0G"
#680
b0000 3
0c
0]!
0m!
b10000001100010011110010101011011 u!
1G"
#685
0G"
#690
b00000000000000001010111110010111 #
b00000000000000001010111110010111 {
1]!
b00000000000000001010111110010111 }!
1G"
#695
0G"
#700
b00000000000010110010 M!
0]!
1m!
b00000000000010001110010100101111 u!
1G"
b0010 W"
b10110010 _"
#705
0G"
#710
b00111011110101000001100000001100 #
b1111 3
1c
b00111011110101000001100000001100 {
1]!
b00111011110101000001100000001100 }!
1G"
#715
0G"
#720
b0000 3
0c
0]!
0m!
b10111011100111000011101000100011 u!
1G"
#725
0G"
#730
b00000000000010001110010100101111 #
b00000000000010001110010100101111 {
1]!
b00000000000010001110010100101111 }!
1G"
#735
0G"
#740
b00000000000011011110 M!
0]!
1m!
b00000000000001011001110110100010 u!
1G"
b1110 W"
b11011110 _"
#745
0G"
#750
b10111010110000010101010001101110 #
b1111 3
1c
b10111010110000010101010001101110 {
1]!
b10111010110000010101010001101110 }!
1G"
#755
0G"
#760
b0000 3
0c
0]!
0m!
b10111010001000100110000110000110 u!
1G"
#765
0G"
#770
b00000000000001011001110110100010 #
b00000000000001011001110110100010 {
1]!
b00000000000001011001110110100010 }!
1G"
#775
0G"
#780
b00000000000010010110 M!
0]!
1m!
b00000000000000111011001000101101 u!
1G"
b0110 W"
b10010110 _"
#785
0G"
#790
b11101110111111001010000001000101 #
b1111 3
1c
b11101110111111001010000001000101 {
1]!
b11101110111111001010000001000101 }!
1G"
#795
0G"
#800
b0000 3
0c
0]!
0m!
b10100010101101000011110111001101 u!
1G"
#805
0G"
#810
b00000000000000111011001000101101 #
b00000000000000111011001000101101 {
1]!
b00000000000000111011001000101101 }!
1G"
#815
0G"
#820
b10110110110001111100100010000100 ;
b00000000000011010000 M!
0]!
1m!
b00000000000001110000101001011100 u!
1G"
b0000 W"
b11010000 _"
#825
0G"
#830
b11110110110010001011001010010001 #
b1111 3
1c
b11110110110010001011001010010001 {
1]!
b11110110110010001011001010010001 }!
1G"
#835
0G"
#840
b0000 3
0c
0]!
0m!
b00100101001111101000111010001100 u!
1G"
#845
0G"
#850
b00000000000001110000101001011100 #
b00000000000001110000101001011100 {
1]!
b00000000000001110000101001011100 }!
1G"
#855
0G"
#860
b00000000000001000000 M!
0]!
1m!
b00000000000001001101010011000111 u!
1G"
b01000000 _"
#865
0G"
#870
b10101001000001000110010111101000 #
b1111 3
1c
b10101001000001000110010111101000 {
1]!
b10101001000001000110010111101000 }!
1G"
#875
0G"
#880
b0000 3
0c
0]!
0m!
b10100101010010100101100011000111 u!
1G"
#885
0G"
#890
b00000000000001001101010011000111 #
b00000000000001001101010011000111 {
1]!
b00000000000001001101010011000111 }!
1G"
#895
0G"
#900
b00000000000000000000000000000000 ;
b00000000000001001011 M!
0]!
1m!
b00000000000011000001001011000111 u!
1G"
b1011 W"
b01001011 _"
#905
0G"
#910
b01111111010010111111100111000111 #
b1111 3
1c
b01111111010010111111100111000111 {
1]!
b01111111010010111111100111000111 }!
1G"
#915
0G"
#920
b0000 3
0c
0]!
0m!
b01100010000100100110110010100101 u!
1G"
#925
0G"
#930
b00000000000011000001001011000111 #
b00000000000011000001001011000111 {
1]!
b00000000000011000001001011000111 }!
1G"
#935
0G"
#940
b10110110110001111100100010000100 ;
b00000000000000000000 M!
0]!
1m!
b00000000000010101111001000000111 u!
1G"
b0000 W"
b00000000 _"
#945
0G"
#950
b11011010101111111001101000010000 #
b1111 3
1c
b11011010101111111001101000010000 {
1]!
b11011010101111111001101000010000 }!
1G"
#955
0G"
#960
b0000 3
0c
0]!
0m!
b00101111111011111101110111100101 u!
1G"
#965
0G"
#970
b00000000000010101111001000000111 #
b00000000000010101111001000000111 {
1]!
b00000000000010101111001000000111 }!
1G"
#975
0G"
#980
b00000000000010110000 M!
0]!
1m!
b00000000000001111010111110000100 u!
1G"
b10110000 _"
#985
0G"
#990
b01101111110001000011110111001110 #
b1111 3
1c
b01101111110001000011110111001110 {
1]!
b01101111110001000011110111001110 }!
1G"
#995
0G"
#1000
b0000 3
0c
0]!
0m!
b01001001110011111000111001100101 u!
1G"
#1005
0G"
#1010
b00000000000001111010111110000100 #
b00000000000001111010111110000100 {
1]!
b00000000000001111010111110000100 }!
1G"
#1015
0G"
#1020
b00000000010000101101101010001100 ;
b00000000000010110100 M!
0]!
1m!
b00000000000010010011110110101000 u!
1G"
b0100 W"
b10110100 _"
#1025
0G"
#1030
b11111110101011000101000000010010 #
b1111 3
1c
b11111110101011000101000000010010 {
1]!
b11111110101011000101000000010010 }!
1G"
#1035
0G"
#1040
b0000 3
0c
0]!
0m!
b01110111110010101010101001001001 u!
1G"
#1045
0G"
#1050
b00000000000010010011110110101000 #
b00000000000010010011110110101000 {
1]!
b00000000000010010011110110101000 }!
1G"
#1055
0G"
#1060
b00000000000000000000000000000000 ;
b00000000000010100101 M!
0]!
1m!
b00000000000010100101010001000010 u!
1G"
b0101 W"
b10100101 _"
#1065
0G"
#1070
b11010000000100011101001111011011 #
b1111 3
1c
b11010000000100011101001111011011 {
1]!
b11010000000100011101001111011011 }!
1G"
#1075
0G"
#1080
b0000 3
0c
0]!
0m!
b11101000011100010011101110110011 u!
1G"
#1085
0G"
#1090
b00000000000010100101010001000010 #
b00000000000010100101010001000010 {
1]!
b00000000000010100101010001000010 }!
1G"
#1095
0G"
#1100
b00000000000011110010 M!
0]!
1m!
b00000000000000010001101111010101 u!
1G"
b0010 W"
b11110010 _"
#1105
0G"
#1110
b01101010000000011101101010000011 #
b1111 3
1c
b01101010000000011101101010000011 {
1]!
b01101010000000011101101010000011 }!
1G"
#1115
0G"
#1120
b0000 3
0c
0]!
0m!
b00001110111100010101100000000010 u!
1G"
#1125
0G"
#1130
b00000000000000010001101111010101 #
b00000000000000010001101111010101 {
1]!
b00000000000000010001101111010101 }!
1G"
#1135
0G"
#1140
b00000000000011000011 M!
0]!
1m!
b00000000000000111110100101000110 u!
1G"
b0011 W"
b11000011 _"
#1145
0G"
#1150
b10001111101011000010111011000111 #
b1111 3
1c
b10001111101011000010111011000111 {
1]!
b10001111101011000010111011000111 }!
1G"
#1155
0G"
#1160
b0000 3
0c
0]!
0m!
b11101001010011001110101100001101 u!
1G"
#1165
0G"
#1170
b00000000000000111110100101000110 #
b00000000000000111110100101000110 {
1]!
b00000000000000111110100101000110 }!
1G"
#1175
0G"
#1180
b00000000000010100001 M!
0]!
1m!
b00000000000000001101111101000110 u!
1G"
b0001 W"
b10100001 _"
#1185
0G"
#1190
b00010110111100111110111101000000 #
b1111 3
1c
b00010110111100111110111101000000 {
1]!
b00010110111100111110111101000000 }!
1G"
#1195
0G"
#1200
b0000 3
0c
0]!
0m!
b10010110111110110101110011100111 u!
1G"
#1205
0G"
#1210
b00000000000000001101111101000110 #
b00000000000000001101111101000110 {
1]!
b00000000000000001101111101000110 }!
1G"
#1215
0G"
#1220
b00000000010000101101101010001100 ;
b00000000000001010100 M!
0]!
1m!
b00000000000000101111101010100000 u!
1G"
b0100 W"
b01010100 _"
#1225
0G"
#1230
b11011110001000101110100111001100 #
b1111 3
1c
b11011110001000101110100111001100 {
1]!
b11011110001000101110100111001100 }!
1G"
#1235
0G"
#1240
b0000 3
0c
0]!
0m!
b00010000011100000100110011111100 u!
1G"
#1245
0G"
#1250
b00000000000000101111101010100000 #
b00000000000000101111101010100000 {
1]!
b00000000000000101111101010100000 }!
1G"
#1255
0G"
#1260
b00000000000000000000000000000000 ;
b00000000000011001110 M!
0]!
1m!
b00000000000011110001100011111100 u!
1G"
b1110 W"
b11001110 _"
#1265
0G"
#1270
b10110011101111011010000101010000 #
b1111 3
1c
b10110011101111011010000101010000 {
1]!
b10110011101111011010000101010000 }!
1G"
#1275
0G"
#1280
b0000 3
0c
0]!
0m!
b11010111111100111111000110110011 u!
1G"
#1285
0G"
#1290
b00000000000011110001100011111100 #
b00000000000011110001100011111100 {
1]!
b00000000000011110001100011111100 }!
1G"
#1295
0G"
#1300
b00000000000001111110 M!
0]!
1m!
b00000000000011101110010111110101 u!
1G"
b01111110 _"
#1305
0G"
#1310
b00100001000001111010100000101010 #
b1111 3
1c
b00100001000001111010100000101010 {
1]!
b00100001000001111010100000101010 }!
1G"
#1315
0G"
#1320
b0000 3
0c
0]!
0m!
b11000110011010000110010111010100 u!
1G"
#1325
0G"
#1330
b00000000000011101110010111110101 #
b00000000000011101110010111110101 {
1]!
b00000000000011101110010111110101 }!
1G"
#1335
0G"
#1340
b00000000000001110110 M!
0]!
1m!
b00000000000010100100100000100100 u!
1G"
b0110 W"
b01110110 _"
#1345
0G"
#1350
b11011001101011111010110111001001 #
b1111 3
1c
b11011001101011111010110111001001 {
1]!
b11011001101011111010110111001001 }!
1G"
#1355
0G"
#1360
b0000 3
0c
0]!
0m!
b01101011101001101101110101100010 u!
1G"
#1365
0G"
#1370
b00000000000010100100100000100100 #
b00000000000010100100100000100100 {
1]!
b00000000000010100100100000100100 }!
1G"
#1375
0G"
#1380
b00000000000000111000 M!
0]!
1m!
b00000000000000011000010011110000 u!
1G"
b1000 W"
b00111000 _"
#1385
0G"
#1390
b01001011001000110100000011010010 #
b1111 3
1c
b01001011001000110100000011010010 {
1]!
b01001011001000110100000011010010 }!
1G"
#1395
0G"
#1400
b0000 3
0c
0]!
0m!
b01010100000110110111000110101110 u!
1G"
#1405
0G"
#1410
b00000000000000011000010011110000 #
b00000000000000011000010011110000 {
1]!
b00000000000000011000010011110000 }!
1G"
#1415
0G"
#1420
b00000000000011011111 M!
0]!
1m!
b00000000000001111001001001010001 u!
1G"
b1111 W"
b11011111 _"
#1425
0G"
#1430
b00010101001010100110100101000000 #
b1111 3
1c
b00010101001010100110100101000000 {
1]!
b00010101001010100110100101000000 }!
1G"
#1435
0G"
#1440
b0000 3
0c
0]!
0m!
b00011110001000101000000011001011 u!
1G"
#1445
0G"
#1450
b00000000000001111001001001010001 #
b00000000000001111001001001010001 {
1]!
b00000000000001111001001001010001 }!
1G"
#1455
0G"
#1460
b00000000000001101110 M!
0]!
1m!
b00000000000000110001110000001100 u!
1G"
b1110 W"
b01101110 _"
#1465
0G"
#1470
b00011100101010001011001010101000 #
b1111 3
1c
b00011100101010001011001010101000 {
1]!
b00011100101010001011001010101000 }!
1G"
#1475
0G"
#1480
b0000 3
0c
0]!
0m!
b00111110001010011000111010101000 u!
1G"
#1485
0G"
#1490
b00000000000000110001110000001100 #
b00000000000000110001110000001100 {
1]!
b00000000000000110001110000001100 }!
1G"
#1495
0G"
#1500
b00000000010000101101101010001100 ;
b00000000000010000100 M!
0]!
1m!
b00000000000011000101101101011010 u!
1G"
b0100 W"
b10000100 _"
#1505
0G"
#1510
b00101100110111101101010111111011 #
b1111 3
1c
b00101100110111101101010111111011 {
1]!
b00101100110111101101010111111011 }!
1G"
#1515
0G"
#1520
b0000 3
0c
0]!
0m!
b00000000100010101011111001111111 u!
1G"
#1525
0G"
#1530
b00000000000011000101101101011010 #
b00000000000011000101101101011010 {
1]!
b00000000000011000101101101011010 }!
1G"
#1535
0G"
#1540
b00000000000010110100 M!
0]!
1m!
b00000000000011000000011110000100 u!
1G"
b10110100 _"
#1545
0G"
#1550
b00000000000010010011110110101000 #
b1111 3
1c
b00000000000010010011110110101000 {
1]!
b00000000000010010011110110101000 }!
1G"
#1555
0G"
#1560
b0000 3
0c
0]!
0m!
b00000101000011100110100101011101 u!
1G"
#1565
0G"
#1570
b00000000000011000000011110000100 #
b00000000000011000000011110000100 {
1]!
b00000000000011000000011110000100 }!
1G"
#1575
0G"
#1580
b00000000000000000000000000000000 ;
b00000000000010110011 M!
0]!
1m!
b00000000000001011001000100011011 u!
1G"
b0011 W"
b10110011 _"
#1585
0G"
#1590
b00001101100000110011000110001001 #
b1111 3
1c
b00001101100000110011000110001001 {
1]!
b00001101100000110011000110001001 }!
1G"
#1595
0G"
#1600
b0000 3
0c
0]!
0m!
b00110011001101001001101011100011 u!
1G"
#1605
0G"
#1610
b00000000000001011001000100011011 #
b00000000000001011001000100011011 {
1]!
b00000000000001011001000100011011 }!
1G"
#1615
0G"
#1620
b00000000000000111010 M!
0]!
1m!
b00000000000000000101111110100010 u!
1G"
b1010 W"
b00111010 _"
#1625
0G"
#1630
b01000111011101011110111011110110 #
b1111 3
1c
b01000111011101011110111011110110 {
1]!
b01000111011101011110111011110110 }!
1G"
#1635
0G"
#1640
b0000 3
0c
0]!
0m!
b00101111010000000110011110100000 u!
1G"
#1645
0G"
#1650
b00000000000000000101111110100010 #
b00000000000000000101111110100010 {
1]!
b00000000000000000101111110100010 }!
1G"
#1655
0G"
#1660
b10110110110001111100100010000100 ;
b00000000000011010000 M!
0]!
1m!
b00000000000010111101000001001111 u!
1G"
b0000 W"
b11010000 _"
#1665
0G"
#1670
b00000000000001110000101001011100 #
b1111 3
1c
b00000000000001110000101001011100 {
1]!
b00000000000001110000101001011100 }!
1G"
#1675
0G"
#1680
b0000 3
0c
0]!
0m!
b01111011101110101011000010001010 u!
1G"
#1685
0G"
#1690
b00000000000010111101000001001111 #
b00000000000010111101000001001111 {
1]!
b00000000000010111101000001001111 }!
1G"
#1695
0G"
#1700
b00000000000000000000000000000000 ;
b00000000000000000110 M!
0]!
1m!
b00000000000000011010111001101101 u!
1G"
b0110 W"
b00000110 _"
#1705
0G"
#1710
b00001010101100101100010100110110 #
b1111 3
1c
b00001010101100101100010100110110 {
1]!
b00001010101100101100010100110110 }!
1G"
#1715
0G"
#1720
b0000 3
0c
0]!
0m!
b11101111000010000000110101111110 u!
1G"
#1725
0G"
#1730
b00000000000000011010111001101101 #
b00000000000000011010111001101101 {
1]!
b00000000000000011010111001101101 }!
1G"
#1735
0G"
#1740
b00000000000000111010 M!
0]!
1m!
b00000000000000011010010101010011 u!
1G"
b1010 W"
b00111010 _"
#1745
0G"
#1750
b00000000000000000101111110100010 #
b1111 3
1c
b00000000000000000101111110100010 {
1]!
b00000000000000000101111110100010 }!
1G"
#1755
0G"
#1760
b0000 3
0c
0]!
0m!
b10001011100011101101010011010110 u!
1G"
#1765
0G"
#1770
b00000000000000011010010101010011 #
b00000000000000011010010101010011 {
1]!
b00000000000000011010010101010011 }!
1G"
#1775
0G"
#1780
b00000000000011000010 M!
0]!
1m!
b00000000000001110011010101110101 u!
1G"
b0010 W"
b11000010 _"
#1785
0G"
#1790
b01100010101100000011110111110111 #
b1111 3
1c
b01100010101100000011110111110111 {
1]!
b01100010101100000011110111110111 }!
1G"
#1795
0G"
#1800
b0000 3
0c
0]!
0m!
b01101101000001001001100001110100 u!
1G"
#1805
0G"
#1810
b00000000000001110011010101110101 #
b00000000000001110011010101110101 {
1]!
b00000000000001110011010101110101 }!
1G"
#1815
0G"
#1820
b00000000000001111010 M!
0]!
1m!
b00000000000001010100000101111110 u!
1G"
b1010 W"
b01111010 _"
#1825
0G"
#1830
b11010010110001011101011100110000 #
b1111 3
1c
b11010010110001011101011100110000 {
1]!
b11010010110001011101011100110000 }!
1G"
#1835
0G"
#1840
b0000 3
0c
0]!
0m!
b00111111101111011000100011010000 u!
1G"
#1845
0G"
#1850
b00000000000001010100000101111110 #
b00000000000001010100000101111110 {
1]!
b00000000000001010100000101111110 }!
1G"
#1855
0G"
